SCORE:  -180.822     17.524    -11.192    -15.185    -28.540     37.329     23.302      0.000   -186.049    -22.474      4.462 34.744      5.960    102.000            2.000         1.000    475.000  S_00005738
ANNOTATED_SEQUENCE: E[GLU:NtermProteinFull]PVKFKDCGSWVGVIKEVNVSPCPTQPCKLHRGQSYSVNVTFTSNTQSQSSKAVVHGIVMGIPVPFPIPESDGCKSGIRCPIEKDKTYNYVNKLPVKNEYPSIKVVVEWELTDDKNQRFFCWQIPIEVEA[ALA:CtermProteinFull] S_00005738
   1 L   -92.910  120.855  178.183    1.458    0.000    0.000 S_00005738
   2 E   -78.852  135.982  175.862    3.414    3.060    1.123 S_00005738
   3 E  -135.007  156.980  176.804    5.936    4.534   -1.309 S_00005738
   4 E  -115.808  153.655 -171.259    8.308    7.503   -1.351 S_00005738
   5 E  -134.440  160.509  178.990    9.011    9.889   -4.220 S_00005738
   6 E  -134.176  111.524 -163.740   11.592   12.428   -5.379 S_00005738
   7 E   -83.306  159.937  176.233   10.274   15.438   -7.257 S_00005738
   8 L   -64.633  159.873 -172.630   11.767   17.385  -10.160 S_00005738
   9 L   -55.130  -33.233 -173.222   13.840   20.471   -9.383 S_00005738
  10 L   -70.278  -16.614  179.688   10.947   22.766  -10.275 S_00005738
  11 L   -85.256  126.871 -175.677    8.903   21.312   -7.417 S_00005738
  12 L   -60.361  -42.334  177.107    9.304   23.187   -4.135 S_00005738
  13 L   -82.544  123.145 -176.284    8.902   19.996   -2.108 S_00005738
  14 L   -82.557  -34.750 -178.702   11.856   17.657   -2.608 S_00005738
  15 E  -120.490  131.462  177.118   10.343   14.655   -0.833 S_00005738
  16 E  -131.880  136.273  177.167    6.758   13.416   -1.096 S_00005738
  17 E  -105.948  120.694 -175.237    5.084   10.425    0.548 S_00005738
  18 E  -122.171  124.539  179.055    2.279    8.816   -1.448 S_00005738
  19 E  -125.031  129.815  170.613    0.034    5.996   -0.235 S_00005738
  20 E  -123.425  124.953 -179.566   -2.783    4.238   -2.075 S_00005738
  21 E  -129.620  145.039   -3.821   -4.853    1.563   -0.339 S_00005738
  22 L   -81.200  137.136  166.550   -5.592   -1.060   -0.843 S_00005738
  23 L  -168.088   73.575  173.945   -2.556   -1.774   -2.997 S_00005738
  24 L   -63.975  -30.397  175.896    0.160   -3.881   -1.379 S_00005738
  25 L  -131.020  159.407 -176.974    1.182   -4.815   -4.919 S_00005738
  26 L  -112.882  149.528    2.340    0.917   -3.112   -8.307 S_00005738
  27 L   -92.508  153.870 -178.648   -0.947   -2.459  -10.251 S_00005738
  28 E  -118.997  124.483  179.004   -4.030   -1.937   -8.088 S_00005738
  29 E   -94.764  114.758 -179.957   -7.409   -0.872   -9.467 S_00005738
  30 L   -70.180  159.257  175.433   -9.438    1.181   -6.991 S_00005738
  31 L  -116.430  160.572 -177.002  -13.211    0.863   -6.663 S_00005738
  32 L   -62.893  135.061  178.360  -15.909    3.515   -6.295 S_00005738
  33 L    80.430   -3.469  177.010  -16.395    4.815   -2.755 S_00005738
  34 L   -75.727  134.531 -177.383  -13.112    3.161   -1.790 S_00005738
  35 E   -75.345  136.714  174.608  -10.919    5.265    0.494 S_00005738
  36 E  -124.432  134.268 -174.137   -7.520    6.402   -0.769 S_00005738
  37 E  -113.119  137.271  169.444   -4.783    7.775    1.480 S_00005738
  38 E  -129.939  127.462  171.352   -1.870   10.088    0.725 S_00005738
  39 E  -127.996  126.380 -173.008    0.811   11.154    3.193 S_00005738
  40 E  -130.203  150.449  168.421    3.721   13.317    2.058 S_00005738
  41 E  -111.916  129.420 -171.404    6.731   15.107    3.515 S_00005738
  42 E  -151.396  168.151  171.141    7.563   18.471    1.961 S_00005738
  43 E  -145.434  138.848 -176.347    8.900   21.977    2.540 S_00005738
  44 L   -82.045  164.975  172.389    7.871   25.290    0.987 S_00005738
  45 L   -70.111  110.509 -173.862   10.093   27.970   -0.531 S_00005738
  46 L   -50.693  -38.913 -173.230   11.074   30.042    2.499 S_00005738
  47 L   -64.993  -25.019 -174.559   11.258   33.210    0.409 S_00005738
  48 L  -109.453  141.644 -179.149    7.607   32.882   -0.591 S_00005738
  49 L   -60.258  130.002 -173.760    4.555   33.006    1.673 S_00005738
  50 L  -120.178    0.217 -171.033    3.332   29.481    2.387 S_00005738
  51 L   -64.509  -41.899 -179.948    0.671   30.183    5.003 S_00005738
  52 E   -91.281  112.704 -177.771   -2.253   30.067    2.575 S_00005738
  53 E  -117.659  123.523  174.763   -2.562   26.631    0.978 S_00005738
  54 E  -130.522  132.691 -177.917   -5.162   25.692   -1.630 S_00005738
  55 E  -121.437  125.425  177.643   -5.290   22.436   -3.589 S_00005738
  56 E  -129.104  148.356  175.314   -7.374   21.837   -6.712 S_00005738
  57 E  -104.993  140.694  177.793   -7.609   18.972   -9.198 S_00005738
  58 E  -132.330  140.789  174.283   -7.923   19.468  -12.954 S_00005738
  59 E  -142.883  139.997 -178.101   -8.567   17.058  -15.821 S_00005738
  60 L    54.823   43.698  176.231   -9.041   17.641  -19.548 S_00005738
  61 L    79.221   -6.711 -177.963   -8.339   21.351  -19.104 S_00005738
  62 E   -94.212  141.553  177.348  -10.987   21.432  -16.377 S_00005738
  63 E   -92.525  113.714 -179.114  -10.292   22.505  -12.797 S_00005738
  64 E  -100.861  117.196  178.809  -11.650   19.968  -10.312 S_00005738
  65 E   -56.777  137.264  178.048  -12.091   21.183   -6.737 S_00005738
  66 E  -109.545  143.980 -171.736  -10.258   19.065   -4.167 S_00005738
  67 E   -74.077  144.988  165.261  -11.609   18.318   -0.697 S_00005738
  68 L   -95.717  113.064 -177.386  -10.214   19.708    2.538 S_00005738
  69 L   -62.470  -37.425 -174.187  -10.117   16.837    5.029 S_00005738
  70 L    65.009   23.644  178.162   -9.736   19.179    7.997 S_00005738
  71 L   -99.525  -10.655 -179.755   -7.895   16.319    9.695 S_00005738
  72 L  -120.007  171.685 -178.706   -4.542   18.110    9.636 S_00005738
  73 L   -68.138  -34.416  178.407   -3.203   21.478   10.784 S_00005738
  74 L  -100.552  157.467 -175.452   -2.919   22.682    7.189 S_00005738
  75 L   -58.780  -49.996  178.321   -5.692   22.755    4.591 S_00005738
  76 L   -85.730  139.670 -179.207   -3.960   20.302    2.260 S_00005738
  77 L   -74.870  -10.296  175.918   -3.006   16.870    3.589 S_00005738
  78 L   -67.630  -10.661 -176.683    0.210   17.156    1.583 S_00005738
  79 L   -92.609   -8.987  176.699    1.437   19.321    4.457 S_00005738
  80 L   -60.372  125.660  175.112    1.287   16.457    6.952 S_00005738
  81 L   -74.097  150.003  179.026    4.742   15.664    8.323 S_00005738
  82 L  -129.032  167.486  175.446    5.964   12.064    8.268 S_00005738
  83 L  -127.260  136.968 -179.345    8.658    9.950    9.917 S_00005738
  84 L   -54.948  125.455  178.825   10.955    7.427    8.240 S_00005738
  85 L    98.076   -6.555 -175.240    9.666    3.903    8.857 S_00005738
  86 E   -97.266  133.438  175.516    6.168    5.151    9.664 S_00005738
  87 E  -102.787  128.242 -179.424    3.067    4.038    7.769 S_00005738
  88 E  -128.645  136.005  179.889    0.149    6.463    7.521 S_00005738
  89 E  -107.646  131.855  175.256   -3.265    5.975    5.920 S_00005738
  90 E  -116.472  149.977  175.720   -5.306    8.792    4.391 S_00005738
  91 E   -96.350  139.936 -176.129   -8.910    8.810    3.181 S_00005738
  92 E  -133.297  150.202  178.628   -9.712   10.079   -0.310 S_00005738
  93 E  -156.766  138.920 -179.587  -12.855   10.882   -2.294 S_00005738
  94 E  -120.707  139.705  178.844  -13.637   12.381   -5.700 S_00005738
  95 E  -115.796  104.085 -177.901  -16.814   14.112   -6.869 S_00005738
  96 E   -85.601  129.358  177.206  -17.359   13.932  -10.627 S_00005738
  97 L   -91.192  156.769  177.205  -19.654   16.518  -12.207 S_00005738
  98 L   -65.042  -22.142  176.715  -21.878   15.943  -15.236 S_00005738
  99 L   -62.957  -30.038 -179.246  -19.891   18.730  -16.890 S_00005738
 100 L   -70.208  134.981  175.277  -16.927   16.351  -17.004 S_00005738
 101 L   -67.888  145.901 -172.844  -16.538   14.274  -20.163 S_00005738
 102 L   -81.869   56.661 -176.116  -16.943   10.530  -19.661 S_00005738
 103 L  -138.555 -176.455  171.592  -13.310    9.761  -20.475 S_00005738
 104 E   -65.621  125.020  176.812   -9.819    9.529  -18.999 S_00005738
 105 E  -130.857  132.725  179.374   -8.947   12.792  -17.255 S_00005738
 106 E   -99.407  112.060 -176.521   -5.671   13.721  -15.563 S_00005738
 107 E   -96.367  124.991  178.979   -6.212   15.927  -12.515 S_00005738
 108 E  -115.466  121.646 -176.372   -3.323   18.065  -11.274 S_00005738
 109 E  -118.331  125.443 -178.591   -3.571   19.729   -7.865 S_00005738
 110 E  -135.979  151.290  177.961   -1.072   22.289   -6.577 S_00005738
 111 E  -107.128  128.538 -175.624   -0.879   24.758   -3.692 S_00005738
 112 E  -129.753  173.517 -175.881    0.191   28.336   -4.399 S_00005738
 113 L  -113.085 -166.426 -176.949    0.493   31.689   -2.635 S_00005738
 114 L   -61.473  -26.469 -177.899   -0.577   35.294   -3.192 S_00005738
 115 L   -94.976   16.703  177.412    2.011   35.567   -5.964 S_00005738
 116 L    59.478   38.657  177.142    0.594   32.535   -7.766 S_00005738
 117 L  -102.665  121.931  178.241    3.631   30.436   -6.859 S_00005738
 118 E   -75.928  141.194  173.458    3.147   26.671   -6.650 S_00005738
 119 E   -92.310  -34.691 -177.803    4.787   24.736   -3.822 S_00005738
 120 E  -158.269  154.993  178.036    4.159   21.293   -5.307 S_00005738
 121 E  -139.096  143.242 -178.696    2.436   19.533   -8.203 S_00005738
 122 E  -139.068  169.609  175.221    1.102   16.003   -8.670 S_00005738
 123 E  -119.592  118.721 -178.477   -0.835   13.841  -11.123 S_00005738
 124 E  -113.783  116.344  179.865   -4.065   12.207   -9.959 S_00005738
 125 E   -63.596  130.557  173.605   -5.754    9.641  -12.200 S_00005738
 126 E  -124.579  118.577 -177.945   -9.462   10.253  -12.754 S_00005738
 127 E   -94.993  120.563 -179.480  -11.566    7.539  -14.385 S_00005738
 128 E  -101.054  125.066 -176.587  -14.655    8.734  -16.253 S_00005738
 129 E   -97.858  134.622  175.942  -17.477    6.237  -16.750 S_00005738
 130 L   -65.405  -20.922  159.072  -19.812    6.302  -19.749 S_00005738
SCORE:  -211.507     10.921     -3.605     -9.674    -27.771     36.517     23.977      0.000   -203.387    -40.323      1.837 35.426      5.918     93.000            0.000         0.000    415.000  S_00001824
ANNOTATED_SEQUENCE: E[GLU:NtermProteinFull]PVKFKDCGSWVGVIKEVNVSPCPTQPCKLHRGQSYSVNVTFTSNTQSQSSKAVVHGIVMGIPVPFPIPESDGCKSGIRCPIEKDKTYNYVNKLPVKNEYPSIKVVVEWELTDDKNQRFFCWQIPIEVEA[ALA:CtermProteinFull] S_00001824
   1 L    48.948   40.129 -175.269    1.458    0.000    0.000 S_00001824
   2 E   -85.022  154.869  174.845    1.732    3.709    0.781 S_00001824
   3 E  -109.580  125.000  179.730    4.683    5.476    2.399 S_00001824
   4 E   -93.314  155.085  177.387    4.020    7.919    5.236 S_00001824
   5 E  -141.678  142.988  176.822    6.182   10.891    6.209 S_00001824
   6 E  -130.796  135.479  177.206    6.372   13.178    9.240 S_00001824
   7 E  -105.764  119.076 -177.814    8.190   16.493    9.642 S_00001824
   8 L   -93.729  157.245 -177.422    9.413   17.291   13.152 S_00001824
   9 L   -93.020   -1.021 -177.451   10.116   20.743   14.583 S_00001824
  10 L  -100.011  179.914  177.309   13.247   19.555   16.383 S_00001824
  11 L   -87.295   -4.977  179.638   16.809   18.833   15.265 S_00001824
  12 L   -70.482  132.143 -179.913   16.202   15.124   15.845 S_00001824
  13 L   -55.728  136.974 -179.623   16.284   13.034   12.671 S_00001824
  14 E   -96.352  160.174  153.385   12.821   12.061   11.440 S_00001824
  15 E   -87.028  101.784 -176.006   11.353    9.018    9.803 S_00001824
  16 E   -83.535  -32.172 -178.076   10.228   10.734    6.604 S_00001824
  17 E  -139.649  129.948  170.969    9.250    7.566    4.742 S_00001824
  18 E  -136.000  138.373  179.212    8.177    4.104    5.871 S_00001824
  19 E  -136.958  130.126  176.659    6.821    1.224    3.792 S_00001824
  20 E  -123.425  124.953 -179.566    5.618   -2.217    4.869 S_00001824
  21 E  -129.620  145.039   -3.821    4.749   -4.962    2.385 S_00001824
  22 L   -81.200  137.136  166.550    2.583   -6.617    1.883 S_00001824
  23 L  -168.088   73.575  173.945    0.064   -4.203    3.363 S_00001824
  24 L   -63.975  -30.397  175.896   -2.063   -2.292    0.861 S_00001824
  25 L  -131.020  159.407 -176.974   -4.593   -1.939    3.675 S_00001824
  26 L  -112.882  149.528    2.340   -4.365   -1.841    7.469 S_00001824
  27 L   -78.110  158.681  177.566   -3.903   -3.495    9.643 S_00001824
  28 E   -62.497  150.002 -175.252   -1.279   -5.568    7.834 S_00001824
  29 E  -142.654  128.866 -174.019   -1.924   -9.310    7.657 S_00001824
  30 E  -156.687  142.868 -174.267    0.494  -12.174    7.038 S_00001824
  31 E   -83.670  153.126  170.509    0.690  -15.901    7.752 S_00001824
  32 L   -49.717  138.961  176.955    3.234  -17.701    9.921 S_00001824
  33 L    96.174  -14.142  176.558    6.343  -18.662    7.956 S_00001824
  34 L  -105.692  159.976 -175.111    6.186  -15.517    5.828 S_00001824
  35 E  -124.422  143.067  168.895    8.078  -12.258    6.329 S_00001824
  36 E   -76.963  146.019  165.971    7.261   -8.574    5.943 S_00001824
  37 E   -98.718  118.899 -172.481    9.500   -6.338    3.858 S_00001824
  38 E  -121.136  126.515  171.362   10.164   -3.152    5.817 S_00001824
  39 E  -128.139  136.384  179.695   11.897    0.042    4.717 S_00001824
  40 E  -127.135  112.823  178.739   12.201    3.245    6.743 S_00001824
  41 E   -92.213  130.171 -178.248   13.418    6.472    5.142 S_00001824
  42 E  -158.939  163.817  171.620   14.798    9.142    7.471 S_00001824
  43 E  -113.558  125.013 -177.531   17.511   11.753    7.962 S_00001824
  44 E   -68.888  145.425 -178.621   19.858   11.330   10.923 S_00001824
  45 L   -65.970  140.869  174.393   20.228   14.236   13.346 S_00001824
  46 L   -62.872  -29.149 -172.171   23.264   16.490   12.971 S_00001824
  47 L   -92.128   -7.282 -176.140   23.580   16.492   16.755 S_00001824
  48 L   -72.721  127.432 -175.896   23.327   12.717   17.128 S_00001824
  49 L   -91.576  -44.693  179.512   26.529   11.163   18.461 S_00001824
  50 E  -140.172  163.038  177.086   25.660    7.463   18.360 S_00001824
  51 E  -110.599  136.463  174.974   22.830    5.163   17.287 S_00001824
  52 E  -131.686  114.544 -173.561   21.057    2.673   19.546 S_00001824
  53 E   -86.198  115.217 -179.513   18.473    0.345   18.020 S_00001824
  54 E  -118.770  130.105 -175.025   15.572   -0.414   20.358 S_00001824
  55 E  -129.961  129.898  174.980   12.702   -2.727   19.434 S_00001824
  56 E  -109.799  119.379  178.709    9.501   -3.580   21.297 S_00001824
  57 E  -113.284  128.739  177.530    7.704   -6.777   20.295 S_00001824
  58 E  -110.487  144.870  176.517    4.272   -7.731   21.624 S_00001824
  59 E  -134.186   97.680 -178.846    2.602  -11.142   21.469 S_00001824
  60 L    55.368   43.063  173.048   -1.085  -11.222   22.396 S_00001824
  61 L    98.606  -15.347 -176.028   -0.590   -8.550   25.051 S_00001824
  62 E   -94.994  117.461  177.101    2.732   -9.939   26.268 S_00001824
  63 E   -74.985  149.512  175.316    5.768   -7.692   25.841 S_00001824
  64 E  -122.083  125.327 -171.429    9.172   -9.173   25.024 S_00001824
  65 L   -62.763  144.407  172.315   12.304   -7.517   26.391 S_00001824
  66 L   -82.872  124.695 -174.200   14.887   -6.036   24.034 S_00001824
  67 L   -76.935  158.902 -176.848   18.224   -7.790   24.513 S_00001824
  68 L   -66.327  128.024 -177.746   21.517   -5.980   25.088 S_00001824
  69 L   -75.411  -18.019  175.806   23.105   -4.848   21.824 S_00001824
  70 L   -81.732  -38.687  178.142   26.530   -5.072   23.456 S_00001824
  71 L   -74.135  -41.395  176.887   26.008   -8.643   24.651 S_00001824
  72 L    54.987   49.840 -170.836   24.384   -9.715   21.385 S_00001824
  73 L   -70.679  -36.025 -170.681   23.202  -12.947   22.990 S_00001824
  74 L  -109.162  153.763 -177.787   20.600  -13.878   20.388 S_00001824
  75 L   -73.829   82.518 -169.857   20.790  -14.292   16.613 S_00001824
  76 L   -50.464  144.123  179.267   19.191  -10.946   15.809 S_00001824
  77 L   -80.685   -6.601 -177.898   16.683  -10.920   12.952 S_00001824
  78 L  -147.058  155.332  171.023   18.089   -7.567   11.840 S_00001824
  79 L  -104.189  159.918  177.647   21.305   -5.553   11.741 S_00001824
  80 L   -86.585  142.763  178.021   21.774   -1.919   12.755 S_00001824
  81 L   -73.168  146.092 -176.210   22.342    0.766   10.124 S_00001824
  82 L  -124.497  -39.982 -174.176   25.756    2.435   10.043 S_00001824
  83 L   -75.330  151.270  177.109   25.983    4.534    6.884 S_00001824
  84 L   -59.180  121.325  175.796   24.641    8.083    6.643 S_00001824
  85 L    90.313   -5.861 -177.406   21.005    7.975    5.539 S_00001824
  86 L   -70.663  126.111 -173.040   20.903    4.189    5.863 S_00001824
  87 E   -94.993  114.992  178.406   17.448    3.036    6.940 S_00001824
  88 E   -90.405  142.151 -175.953   17.339    0.305    9.583 S_00001824
  89 E  -129.751  120.036  174.997   14.266   -1.911    9.883 S_00001824
  90 E  -111.779  134.868 -175.361   13.223   -3.984   12.893 S_00001824
  91 E  -134.802  125.016  170.010   10.301   -6.406   12.700 S_00001824
  92 E   -99.348  123.605 -177.523    8.599   -8.535   15.340 S_00001824
  93 E  -109.870  126.134 -178.860    6.670  -11.469   13.883 S_00001824
  94 E  -125.148   84.565  176.948    3.937  -13.226   15.858 S_00001824
  95 E   -70.805  135.732 -178.406    2.463  -16.168   13.954 S_00001824
  96 E  -112.717  115.897  177.748   -0.746  -17.534   15.466 S_00001824
  97 L   -91.192  156.769  177.205   -1.507  -21.249   15.190 S_00001824
  98 L   -65.042  -22.142  176.715   -4.914  -22.860   15.685 S_00001824
  99 L   -97.317  -13.126  174.019   -3.282  -24.819   18.504 S_00001824
 100 L   -97.940  150.048  177.150   -1.483  -21.731   19.794 S_00001824
 101 L   -52.129  130.565  179.235   -3.176  -18.885   21.660 S_00001824
 102 E   -56.777  112.163 -172.574   -4.606  -16.361   19.203 S_00001824
 103 E  -127.425  116.774  175.564   -1.924  -13.673   19.136 S_00001824
 104 E  -141.004  127.535 -174.772   -2.038  -10.425   17.165 S_00001824
 105 E  -150.830  166.413  176.157   -0.103   -7.250   17.952 S_00001824
 106 E  -112.296  131.121 -170.309    1.614   -4.218   16.433 S_00001824
 107 E  -100.628  123.140 -177.665    5.384   -3.898   16.741 S_00001824
 108 E  -134.372  142.940 -175.092    6.958   -0.508   17.434 S_00001824
 109 E  -150.011  163.183  176.554   10.510    0.530   18.302 S_00001824
 110 E  -139.900  141.727  170.887   12.854    3.512   18.555 S_00001824
 111 E   -79.519  118.911 -174.412   16.583    4.063   18.109 S_00001824
 112 E  -117.693  178.267  178.460   17.876    5.517   21.373 S_00001824
 113 L   -95.997 -168.517 -179.583   21.169    6.622   22.919 S_00001824
 114 L   -71.570  -12.871 -178.924   23.294    5.130   25.696 S_00001824
 115 L   -99.091    1.999  176.261   20.992    6.851   28.186 S_00001824
 116 L    86.831    3.982 -178.406   17.897    5.119   26.818 S_00001824
 117 L   -75.011  127.220  178.014   16.663    8.356   25.251 S_00001824
 118 E   -75.928  141.194  173.458   14.562    7.877   22.118 S_00001824
 119 E   -96.923  -31.680 -175.872   15.392    9.880   18.998 S_00001824
 120 E  -159.601  152.848  172.968   12.336    8.841   16.992 S_00001824
 121 E  -119.332  127.869  167.783    9.256    6.618   17.033 S_00001824
 122 E  -129.625  131.155  179.478    7.983    4.571   14.105 S_00001824
 123 E  -115.653  127.470  170.826    5.137    2.064   14.364 S_00001824
 124 E  -111.508  113.310  177.246    4.314   -0.624   11.812 S_00001824
 125 E   -53.422  132.007  176.204    0.945   -2.309   12.325 S_00001824
 126 E  -128.777  125.834  174.211    1.269   -6.091   12.523 S_00001824
 127 E  -118.795  140.763 -176.791   -1.574   -8.604   12.324 S_00001824
 128 E  -122.812  128.978  176.498   -1.206  -12.363   12.758 S_00001824
 129 E  -107.104  125.062 -179.218   -3.551  -15.080   11.507 S_00001824
 130 L   -63.066  122.248 -179.102   -3.438  -18.485   13.197 S_00001824
SCORE:  -230.746      7.868     -1.588    -14.497    -10.405     37.238     24.010      0.000   -222.285    -51.774      0.686 37.981      5.256    110.000            1.000         1.000    351.000  S_00002866
ANNOTATED_SEQUENCE: E[GLU:NtermProteinFull]PVKFKDCGSWVGVIKEVNVSPCPTQPCKLHRGQSYSVNVTFTSNTQSQSSKAVVHGIVMGIPVPFPIPESDGCKSGIRCPIEKDKTYNYVNKLPVKNEYPSIKVVVEWELTDDKNQRFFCWQIPIEVEA[ALA:CtermProteinFull] S_00002866
   1 L   -97.291  144.983  172.560    1.458    0.000    0.000 S_00002866
   2 L   -70.387  173.910  179.341    3.849    2.882    0.635 S_00002866
   3 L   -89.076    3.777 -178.453    5.753    4.599   -2.173 S_00002866
   4 L   -78.956  127.524  172.879    9.009    3.149   -0.849 S_00002866
   5 E  -124.956  134.231 -179.240   10.855    0.724   -3.116 S_00002866
   6 E  -122.409  118.284 -171.106   14.049   -1.117   -2.186 S_00002866
   7 E  -117.900  110.984 -168.892   16.083   -2.762   -4.937 S_00002866
   8 L  -117.337   35.010 -176.633   18.919   -5.048   -3.876 S_00002866
   9 L   -88.661  -26.677  179.242   19.775   -6.769   -7.156 S_00002866
  10 L   -74.950  147.271 -178.162   22.961   -4.794   -7.793 S_00002866
  11 L  -107.757   19.595 -178.497   26.230   -6.056   -6.321 S_00002866
  12 L   -83.133  -13.453 -177.262   27.894   -2.640   -6.200 S_00002866
  13 L    93.306   -5.945  179.458   26.924   -2.183   -2.553 S_00002866
  14 L   -89.855  136.087  175.868   24.646    0.707   -3.512 S_00002866
  15 E   -93.873  126.726 -176.609   20.973    0.675   -2.533 S_00002866
  16 E  -116.621  118.232  178.138   18.591    1.848   -5.253 S_00002866
  17 E  -108.197  117.931 -174.422   15.024    2.906   -4.471 S_00002866
  18 E  -127.915  126.318  176.321   12.771    3.362   -7.497 S_00002866
  19 E  -112.350  138.073 -175.517    9.076    4.247   -7.607 S_00002866
  20 E  -123.425  124.953 -179.566    6.960    3.904  -10.746 S_00002866
  21 E  -129.620  145.039   -3.821    3.669    5.692  -11.398 S_00002866
  22 L   -81.200  137.136  166.550    1.088    4.973  -12.107 S_00002866
  23 L  -168.088   73.575  173.945    1.370    1.498  -10.622 S_00002866
  24 L   -63.975  -30.397  175.896   -0.433    0.958   -7.322 S_00002866
  25 L  -131.020  159.407 -176.974   -0.499   -2.725   -8.259 S_00002866
  26 L  -112.882  149.528    2.340    1.706   -4.974  -10.388 S_00002866
  27 L   -78.110  158.681  177.566    2.330   -5.497  -13.036 S_00002866
  28 E   -62.497  150.002 -175.252    2.118   -1.846  -14.074 S_00002866
  29 E  -142.654  128.866 -174.019   -0.309   -1.037  -16.885 S_00002866
  30 E  -136.457  125.387 -178.676   -0.435    1.965  -19.211 S_00002866
  31 L   -85.926  163.269  178.775   -2.918    2.756  -21.979 S_00002866
  32 L   -57.108  132.587  175.244   -2.186    4.546  -25.252 S_00002866
  33 L    95.063   -8.277  176.638   -1.713    8.293  -24.832 S_00002866
  34 L  -105.692  159.976 -175.111   -0.710    7.975  -21.179 S_00002866
  35 E  -124.422  143.067  168.895    2.782    8.149  -19.689 S_00002866
  36 E   -76.963  146.019  165.971    4.632    6.329  -16.922 S_00002866
  37 E  -112.717  121.769 -178.995    6.366    8.291  -14.183 S_00002866
  38 E  -120.696  109.362  175.290    9.545    6.694  -12.843 S_00002866
  39 E   -90.301  118.179 -174.739   11.349    8.268   -9.891 S_00002866
  40 E  -105.659  125.025  176.077   14.906    6.948   -9.675 S_00002866
  41 E  -118.740  128.491 -179.417   16.941    7.061   -6.466 S_00002866
  42 E  -116.718  107.274 -176.770   20.601    6.041   -6.333 S_00002866
  43 E  -113.864  117.874  170.802   22.007    5.481   -2.846 S_00002866
  44 E  -133.858  144.822  175.030   25.600    4.443   -2.191 S_00002866
  45 L   -68.043  -22.532  170.657   27.815    4.812    0.875 S_00002866
  46 L  -119.772  149.037 -174.011   30.524    5.728   -1.621 S_00002866
  47 L   -75.189  137.574  164.077   30.152    8.133   -4.540 S_00002866
  48 L  -109.453  141.644 -179.149   29.907    7.000   -8.143 S_00002866
  49 L   -60.258  130.002 -173.760   30.688    9.429  -10.961 S_00002866
  50 L  -120.178    0.217 -171.033   27.459   10.820  -12.401 S_00002866
  51 L   -64.509  -41.899 -179.948   28.829   13.468  -14.752 S_00002866
  52 E   -91.281  112.704 -177.771   28.600   11.317  -17.880 S_00002866
  53 E  -134.383  121.856 -177.369   24.995   10.355  -18.611 S_00002866
  54 E  -131.299  119.656 -175.008   23.703    8.915  -21.883 S_00002866
  55 E   -78.806  128.763  169.968   20.105    7.816  -22.418 S_00002866
  56 E  -130.760  110.520  179.008   19.420    4.528  -24.186 S_00002866
  57 E  -113.294  118.251 -173.819   15.798    3.422  -24.523 S_00002866
  58 E  -130.648  160.282  174.321   15.175    0.140  -26.333 S_00002866
  59 E  -136.027  117.613 -177.710   12.425   -2.434  -26.841 S_00002866
  60 L    51.933   53.417  173.294   13.191   -6.103  -27.477 S_00002866
  61 L    78.725    0.019  177.370   16.777   -5.426  -28.533 S_00002866
  62 E   -98.206  108.314 -177.502   15.637   -2.412  -30.550 S_00002866
  63 E   -74.980  134.216  175.290   17.469    0.709  -29.386 S_00002866
  64 L  -100.122  156.162  177.073   15.552    3.991  -29.397 S_00002866
  65 L   -54.997  139.988 -178.659   16.989    7.475  -29.890 S_00002866
  66 L   -89.480  123.744  178.237   18.389    8.969  -26.686 S_00002866
  67 L   -54.391  122.516  172.875   16.736   12.168  -25.466 S_00002866
  68 L   -88.588  167.389  178.196   19.175   15.071  -25.686 S_00002866
  69 L   -49.942  129.144  174.383   19.152   18.148  -23.454 S_00002866
  70 L    76.678   16.018  169.593   15.946   20.142  -23.886 S_00002866
  71 L   -98.262  108.602  178.654   14.203   17.306  -25.709 S_00002866
  72 L    55.015   45.377  179.219   10.758   16.803  -24.181 S_00002866
  73 L  -119.849  156.746  171.105   11.928   18.175  -20.834 S_00002866
  74 L  -124.883  154.754  170.921   10.494   20.569  -18.260 S_00002866
  75 L    76.811   21.768 -178.104   12.071   22.783  -15.610 S_00002866
  76 L  -103.511    5.038  172.398   15.333   23.138  -17.531 S_00002866
  77 L   -72.937   -7.671  179.765   15.011   26.905  -17.891 S_00002866
  78 L  -144.124  156.140  178.625   16.830   27.008  -14.554 S_00002866
  79 L   -92.801  126.504  176.818   19.578   25.127  -12.719 S_00002866
  80 L  -108.871   90.269 -175.064   18.578   23.119   -9.650 S_00002866
  81 L   -73.050  154.124 -175.808   21.806   22.443   -7.761 S_00002866
  82 L  -100.649  151.304  165.778   22.056   19.641   -5.205 S_00002866
  83 L   -80.103  128.235 -174.070   23.119   19.608   -1.568 S_00002866
  84 L   -63.367  131.126  174.166   26.221   17.438   -1.245 S_00002866
  85 L    82.163   23.625  178.976   25.697   14.070    0.435 S_00002866
  86 L  -110.013  128.400  176.369   21.910   14.159    0.113 S_00002866
  87 E   -68.325  125.107 -173.323   19.885   11.170   -1.075 S_00002866
  88 E  -132.212  153.732  174.962   17.842   12.238   -4.095 S_00002866
  89 E  -119.327  120.931  176.936   15.364   10.741   -6.557 S_00002866
  90 E   -97.177  125.035 -176.949   15.431   11.728  -10.228 S_00002866
  91 E  -117.418  120.574 -176.614   12.171   11.214  -12.114 S_00002866
  92 E  -158.037  168.616  174.078   12.072   11.316  -15.913 S_00002866
  93 E  -130.197  163.897  164.084   10.984    9.504  -19.071 S_00002866
  94 E   -88.510  133.421 -173.011   12.275    8.820  -22.562 S_00002866
  95 E   -67.520  119.762  177.840   10.268   10.751  -25.146 S_00002866
  96 L   -73.008  154.813  177.461    7.907    8.476  -27.071 S_00002866
  97 L  -119.442  162.010  177.500    7.450    8.839  -30.828 S_00002866
  98 L   -64.790  -16.386  174.184    4.507    8.365  -33.186 S_00002866
  99 L  -104.081   31.874  173.127    6.507    5.421  -34.516 S_00002866
 100 L   -70.208  134.981  175.277    6.729    3.797  -31.089 S_00002866
 101 L   -67.888  145.901 -172.844    6.428    0.008  -31.121 S_00002866
 102 L   -81.869   56.661 -176.116    3.286   -1.349  -29.473 S_00002866
 103 L  -138.555 -176.455  171.592    5.176   -2.996  -26.617 S_00002866
 104 E   -79.032  118.989 -178.519    6.661   -2.399  -23.173 S_00002866
 105 E   -96.863  118.076  177.135    9.508    0.098  -23.521 S_00002866
 106 E  -109.524  123.493 -179.083   12.367   -0.247  -21.039 S_00002866
 107 E  -115.566  141.490  177.902   14.986    2.504  -20.883 S_00002866
 108 E  -122.739  129.397 -178.988   18.286    2.526  -18.995 S_00002866
 109 E   -84.276  130.637  177.782   20.212    5.674  -18.078 S_00002866
 110 E   -77.923  123.419  174.334   23.963    5.667  -18.693 S_00002866
 111 E  -127.751  108.938  178.848   26.015    6.629  -15.643 S_00002866
 112 E  -117.031  134.364  175.557   29.802    6.661  -15.980 S_00002866
 113 E   -87.966  115.014 -178.824   32.296    7.895  -13.392 S_00002866
 114 L   -56.243  -27.832  174.091   34.978   10.001  -15.073 S_00002866
 115 L   -88.297  100.849  177.354   37.254    8.841  -12.260 S_00002866
 116 L    99.970  -17.673  178.104   38.128    5.228  -13.055 S_00002866
 117 L    60.380   41.396  175.168   35.616    5.005  -15.900 S_00002866
 118 E   -86.717  143.047 -172.205   33.304    2.711  -13.940 S_00002866
 119 E  -109.468  142.968  176.796   29.833    2.120  -15.363 S_00002866
 120 E  -122.982  141.266 -168.067   26.462    1.954  -13.614 S_00002866
 121 E  -139.478  124.243  178.027   23.367    0.281  -15.028 S_00002866
 122 E  -137.673  144.983  178.908   19.718    0.291  -13.959 S_00002866
 123 E  -111.869  124.862  172.626   16.485   -0.841  -15.607 S_00002866
 124 E  -111.060  112.714 -176.204   13.185    0.987  -15.168 S_00002866
 125 E   -75.978  118.802  179.113   10.223   -0.990  -16.496 S_00002866
 126 E  -116.134  110.823 -176.598    7.740    1.235  -18.324 S_00002866
 127 E   -89.798  111.508  178.193    4.465   -0.414  -19.326 S_00002866
 128 E  -119.871  118.172  174.676    2.843    1.263  -22.328 S_00002866
 129 E   -97.858  134.622  175.942   -0.313   -0.116  -23.933 S_00002866
 130 L   -65.405  -20.922  159.072   -1.347    1.018  -27.411 S_00002866
SCORE:  -237.693      5.716    -21.174    -11.056    -20.425     37.802     24.348      0.000   -217.622    -35.968      0.686 37.375      5.525    102.000            0.000         0.000    428.000  S_00000112
ANNOTATED_SEQUENCE: E[GLU:NtermProteinFull]PVKFKDCGSWVGVIKEVNVSPCPTQPCKLHRGQSYSVNVTFTSNTQSQSSKAVVHGIVMGIPVPFPIPESDGCKSGIRCPIEKDKTYNYVNKLPVKNEYPSIKVVVEWELTDDKNQRFFCWQIPIEVEA[ALA:CtermProteinFull] S_00000112
   1 L  -142.334  131.312  179.913    1.458    0.000    0.000 S_00000112
   2 L   -86.726  169.228  173.600    3.567    3.002    0.999 S_00000112
   3 E  -113.004  101.637 -179.776    6.445    4.613   -0.886 S_00000112
   4 E   -55.977  117.291  179.458    9.640    4.513    1.173 S_00000112
   5 E  -109.121  145.518  168.943   11.217    7.964    0.934 S_00000112
   6 E   -94.175  128.870  176.914   14.702    9.134    1.873 S_00000112
   7 E  -109.059  101.365  176.149   14.847   12.401    3.811 S_00000112
   8 L  -115.046  -10.170  170.554   18.225   14.115    3.493 S_00000112
   9 L   -90.834   10.427  178.168   16.818   17.624    3.144 S_00000112
  10 L   -85.217  151.518  174.512   15.417   17.180    6.650 S_00000112
  11 L   -78.726   -0.291  175.315   16.743   19.008    9.706 S_00000112
  12 L  -105.415  -28.200 -176.569   16.717   15.597   11.381 S_00000112
  13 L    79.590    4.799 -174.696   18.437   13.621    8.627 S_00000112
  14 L  -103.338  161.292 -175.679   15.887   10.886    9.303 S_00000112
  15 E  -109.458  129.875  169.551   13.366    9.210    7.004 S_00000112
  16 E  -103.323  129.152  178.982    9.604    9.043    7.473 S_00000112
  17 E   -71.737  138.007  177.121    7.748    6.320    5.576 S_00000112
  18 E  -105.426  127.422  179.409    4.873    7.440    3.355 S_00000112
  19 E  -120.626  127.996  174.570    1.750    5.285    3.111 S_00000112
  20 E  -124.626  121.164 -175.677   -1.114    5.779    0.662 S_00000112
  21 E  -129.620  145.039   -3.821   -4.153    3.503    0.834 S_00000112
  22 L   -81.200  137.136  166.550   -5.590    1.870   -0.883 S_00000112
  23 L  -168.088   73.575  173.945   -2.663    1.323   -3.228 S_00000112
  24 L   -63.975  -30.397  175.896   -0.968   -2.069   -2.992 S_00000112
  25 L  -131.020  159.407 -176.974    0.179   -1.454   -6.564 S_00000112
  26 L  -112.882  149.528    2.340    0.906    1.652   -8.632 S_00000112
  27 L   -78.110  158.681  177.566   -0.390    3.741   -9.910 S_00000112
  28 E   -62.497  150.002 -175.252   -3.054    4.075   -7.219 S_00000112
  29 E  -142.654  128.866 -174.019   -6.660    3.765   -8.378 S_00000112
  30 E  -156.687  142.868 -174.267   -9.865    4.953   -6.718 S_00000112
  31 E   -71.148  145.042 -179.520  -13.407    5.861   -7.754 S_00000112
  32 L   -64.937  124.996 -172.738  -14.385    9.521   -8.073 S_00000112
  33 L   109.976  -11.528 -179.689  -16.103   10.595   -4.860 S_00000112
  34 L  -105.692  159.976 -175.111  -13.897    8.352   -2.725 S_00000112
  35 E  -124.422  143.067  168.895  -10.913    9.270   -0.558 S_00000112
  36 E   -76.963  146.019  165.971   -7.555    7.688    0.227 S_00000112
  37 E   -98.718  118.899 -172.481   -6.497    7.160    3.827 S_00000112
  38 E  -115.045  124.719  177.618   -2.912    8.357    4.206 S_00000112
  39 E  -138.494  150.070 -178.043   -0.641    7.585    7.155 S_00000112
  40 E  -147.915  140.533  175.416    3.108    7.774    7.762 S_00000112
  41 E  -149.776  158.719 -177.542    5.528    6.893   10.557 S_00000112
  42 E  -130.980  154.723 -173.438    9.274    6.524   11.090 S_00000112
  43 E  -138.710  147.792  174.179   11.455    4.307   13.272 S_00000112
  44 L  -145.776  142.444  178.717   15.007    4.202   14.618 S_00000112
  45 L   -72.636  -19.957  176.660   16.958    1.710   16.725 S_00000112
  46 L  -105.197  161.758 -178.944   18.601    4.667   18.459 S_00000112
  47 L   -63.967  134.938  176.596   16.997    7.458   20.483 S_00000112
  48 L  -129.666  133.960 -177.504   15.569   10.319   18.429 S_00000112
  49 L   -67.726  168.002 -177.794   14.387   13.689   19.734 S_00000112
  50 E   -81.687  147.565  176.992   10.869   15.023   19.192 S_00000112
  51 E  -145.262  160.003 -177.892    9.910   17.094   16.152 S_00000112
  52 E  -109.378  131.938  177.553    6.826   18.780   14.702 S_00000112
  53 E   -91.732  121.520  175.919    5.402   18.046   11.255 S_00000112
  54 E  -122.516  115.264 -172.877    4.111   21.068    9.344 S_00000112
  55 E  -118.809  134.489  169.196    2.587   20.402    5.929 S_00000112
  56 E  -121.545  138.536  179.725    1.181   22.721    3.275 S_00000112
  57 E  -131.956  140.633  179.589   -0.608   21.552    0.131 S_00000112
  58 E  -138.722  130.457  174.204   -1.867   23.458   -2.908 S_00000112
  59 E  -126.140  113.743 -176.239   -3.828   22.322   -5.958 S_00000112
  60 L    74.969   22.518  179.592   -4.455   24.881   -8.699 S_00000112
  61 L    84.812    4.861 -178.554   -2.984   27.557   -6.434 S_00000112
  62 E  -105.216  139.713 -179.160   -5.626   26.777   -3.815 S_00000112
  63 E   -67.760  141.601 -169.331   -4.876   25.715   -0.242 S_00000112
  64 E  -118.198  142.674  172.836   -5.674   22.075    0.476 S_00000112
  65 E   -57.011  124.632  178.328   -6.989   20.179    3.493 S_00000112
  66 E  -124.715  124.745 -177.874   -4.062   18.425    5.171 S_00000112
  67 L   -61.252  147.698  175.105   -4.501   15.769    7.856 S_00000112
  68 L   -82.295  129.820  172.308   -2.904   16.318   11.261 S_00000112
  69 L   -95.573    3.599 -175.954   -0.057   13.985   12.198 S_00000112
  70 L   -93.910  179.262 -179.038   -0.023   15.502   15.683 S_00000112
  71 L   -78.038  -12.374 -170.340   -1.813   14.551   18.900 S_00000112
  72 L   -57.486  -21.984 -170.493   -4.163   17.507   18.519 S_00000112
  73 L   -91.844   22.571  173.245   -6.664   15.319   16.684 S_00000112
  74 L   -99.197  152.613  179.218   -7.574   13.307   19.775 S_00000112
  75 L   -50.023  -48.646  174.706  -10.793   13.733   21.753 S_00000112
  76 L   -87.007  118.809 -174.950   -8.728   14.879   24.730 S_00000112
  77 L   -66.731  -21.370  177.693   -6.659   17.914   23.751 S_00000112
  78 L   -96.223   -5.059  176.880   -4.138   16.992   26.443 S_00000112
  79 L   -63.139  122.508 -177.556   -4.110   13.359   25.325 S_00000112
  80 L  -133.143   85.419 -172.390   -0.566   12.480   24.268 S_00000112
  81 L   -88.258    7.080 -174.552   -0.276    8.840   23.221 S_00000112
  82 L   -77.994  148.153  177.642    2.982    9.452   21.363 S_00000112
  83 L  -135.261  139.677 -177.268    6.223    7.682   22.265 S_00000112
  84 L   -70.806  139.463  174.720    9.815    8.481   21.309 S_00000112
  85 L    78.495    9.612 -172.928   11.670    6.081   19.019 S_00000112
  86 L  -111.155  137.398  171.971    8.378    4.388   18.165 S_00000112
  87 E   -68.747  140.430 -177.721    6.762    3.744   14.790 S_00000112
  88 E  -132.995  159.968  174.850    3.326    5.329   14.425 S_00000112
  89 E  -139.521  116.959 -175.553    0.379    5.285   12.026 S_00000112
  90 E  -115.579  104.050 -173.581   -2.037    8.204   11.735 S_00000112
  91 E  -103.543  147.752  177.542   -5.053    7.521    9.527 S_00000112
  92 E  -157.988 -168.772  179.631   -7.830    9.880    8.444 S_00000112
  93 E  -115.653  127.470  170.826  -10.163   10.851    5.603 S_00000112
  94 E  -111.508  113.310  177.246   -9.278   13.098    2.675 S_00000112
  95 E   -69.468  148.711  179.331  -12.254   14.229    0.597 S_00000112
  96 L  -124.507  125.052 -175.603  -11.817   14.521   -3.169 S_00000112
  97 L   -78.611  160.401  174.054  -13.619   17.143   -5.248 S_00000112
  98 L   -99.427   16.488  175.804  -15.195   16.622   -8.666 S_00000112
  99 L   -90.389   -6.542 -177.570  -13.767   19.940   -9.847 S_00000112
 100 L   -86.452  152.313 -178.466  -10.465   18.246  -10.669 S_00000112
 101 L   -67.888  145.901 -172.844   -9.500   17.055  -14.148 S_00000112
 102 L   -81.869   56.661 -176.116  -10.195   13.403  -14.932 S_00000112
 103 L  -138.555 -176.455  171.592   -6.519   12.509  -15.301 S_00000112
 104 E   -65.621  125.020  176.812   -3.412   11.454  -13.390 S_00000112
 105 E  -130.857  132.725  179.374   -2.735   13.925  -10.582 S_00000112
 106 E  -122.087  115.048 -175.346    0.179   13.929   -8.140 S_00000112
 107 E   -83.554  130.832  177.558   -0.028   16.163   -5.072 S_00000112
 108 E  -103.315  115.025 -177.027    3.166   17.788   -3.800 S_00000112
 109 E  -115.876  115.641 -171.849    3.172   18.401   -0.048 S_00000112
 110 E  -120.568  129.743  173.996    6.120   20.311    1.397 S_00000112
 111 E   -96.089  123.217  176.477    6.929   21.167    5.009 S_00000112
 112 E  -126.701  135.079 -179.635    8.864   24.395    5.540 S_00000112
 113 L   -74.982  168.354 -179.028    9.921   25.908    8.864 S_00000112
 114 L   -58.930  -33.988 -177.566    9.322   29.524    9.877 S_00000112
 115 L   -81.396   -2.090  171.657   12.950   30.326    9.068 S_00000112
 116 L    95.904   13.732 -179.556   12.362   29.002    5.558 S_00000112
 117 L   -91.107  123.773  179.695   14.093   25.651    6.041 S_00000112
 118 E   -68.625  120.482 -172.019   12.520   22.701    4.232 S_00000112
 119 E   -96.923  -31.680 -175.872   11.744   20.064    6.853 S_00000112
 120 E  -159.601  152.848  172.968   10.102   17.360    4.748 S_00000112
 121 E  -139.096  143.242 -178.696    8.955   16.489    1.232 S_00000112
 122 E  -155.234  169.838  178.463    6.407   13.964   -0.028 S_00000112
 123 E  -141.962  150.985 -178.892    4.048   13.122   -2.888 S_00000112
 124 E  -122.636  103.752  175.022    0.573   11.618   -3.229 S_00000112
 125 E   -73.341  123.851 -179.799   -0.160    9.420   -6.241 S_00000112
 126 E  -139.603  131.003 -179.169   -3.869    9.511   -7.073 S_00000112
 127 E  -114.902   99.814 -171.428   -5.745    8.059  -10.044 S_00000112
 128 E  -101.044  121.267 -168.789   -9.136    9.722  -10.433 S_00000112
 129 E  -147.550  153.727  170.197  -11.517    8.126  -12.918 S_00000112
 130 L  -103.848 -167.051 -174.216  -15.168    7.543  -13.775 S_00000112
SCORE:  -166.605     20.294     -1.836    -24.659    -37.242     38.841     23.671      0.000   -163.295    -22.722      0.343 42.028      6.529     91.000            2.000         0.000    318.000  S_00004154
ANNOTATED_SEQUENCE: E[GLU:NtermProteinFull]PVKFKDCGSWVGVIKEVNVSPCPTQPCKLHRGQSYSVNVTFTSNTQSQSSKAVVHGIVMGIPVPFPIPESDGCKSGIRCPIEKDKTYNYVNKLPVKNEYPSIKVVVEWELTDDKNQRFFCWQIPIEVEA[ALA:CtermProteinFull] S_00004154
   1 L   -84.921  147.493  172.171    1.458    0.000    0.000 S_00004154
   2 E   -83.467  142.740 -179.632    3.878    2.870    0.576 S_00004154
   3 E  -145.021  165.014 -177.708    5.598    4.352   -2.474 S_00004154
   4 E  -129.068  122.126 -168.745    7.933    7.190   -3.447 S_00004154
   5 E  -106.579  142.983  171.042    7.198    9.454   -6.401 S_00004154
   6 E  -139.232  168.529  175.065    9.429   11.620   -8.579 S_00004154
   7 E   -84.997  112.152  179.307    9.217   13.574  -11.832 S_00004154
   8 L   -99.440   -0.789 -177.030   10.452   11.367  -14.671 S_00004154
   9 L   -96.133 -158.176 -178.602    9.227   13.767  -17.352 S_00004154
  10 L   -98.446    5.050  178.168   10.470   17.128  -18.624 S_00004154
  11 L   -70.926  141.335  177.227    8.481   19.062  -16.024 S_00004154
  12 L   -63.331  -40.794 -177.616   10.435   21.256  -13.611 S_00004154
  13 L   -69.132  149.616 -173.513    8.284   20.109  -10.694 S_00004154
  14 E  -135.912  166.944  160.754    9.182   16.836   -8.987 S_00004154
  15 E  -117.928  125.063  178.854    8.153   14.318   -6.366 S_00004154
  16 E   -99.640  -31.127  176.514   10.800   13.392   -3.799 S_00004154
  17 E  -148.151  136.541  176.737    8.516   11.500   -1.421 S_00004154
  18 E  -135.050  127.659  173.437    4.977   10.139   -1.684 S_00004154
  19 E  -130.657  131.567  174.315    2.873    8.425    0.975 S_00004154
  20 E  -123.425  124.953 -179.566   -0.756    7.329    0.718 S_00004154
  21 E  -129.620  145.039   -3.821   -2.664    5.979    3.717 S_00004154
  22 L   -81.200  137.136  166.550   -4.145    3.714    4.313 S_00004154
  23 L  -168.088   73.575  173.945   -2.334    1.548    1.784 S_00004154
  24 L   -63.975  -30.397  175.896    0.182   -0.913    3.217 S_00004154
  25 L  -131.020  159.407 -176.974   -0.369   -2.925    0.040 S_00004154
  26 L  -112.882  149.528    2.340   -1.390   -2.063   -3.519 S_00004154
  27 L   -78.110  158.681  177.566   -3.601   -1.290   -4.999 S_00004154
  28 E   -62.497  150.002 -175.252   -4.988    0.934   -2.244 S_00004154
  29 E  -142.654  128.866 -174.019   -8.524    0.162   -1.084 S_00004154
  30 E  -156.687  142.868 -174.267  -11.023    2.360    0.749 S_00004154
  31 E   -83.670  153.126  170.509  -14.789    2.568    1.209 S_00004154
  32 L   -49.717  138.961  176.955  -17.091    5.386    0.128 S_00004154
  33 L    96.174  -14.142  176.558  -17.359    8.094    2.782 S_00004154
  34 L  -105.692  159.976 -175.111  -13.729    7.673    3.831 S_00004154
  35 E  -124.422  143.067  168.895  -10.722    9.713    2.718 S_00004154
  36 E   -76.963  146.019  165.971   -7.107    8.948    1.858 S_00004154
  37 E  -109.535  122.130 -173.253   -4.306   10.868    3.536 S_00004154
  38 E  -135.350  132.564 -177.715   -1.402   11.537    1.179 S_00004154
  39 E  -122.450  121.031 -174.712    1.772   13.581    1.622 S_00004154
  40 E  -113.518  135.090  174.765    3.887   14.639   -1.353 S_00004154
  41 E  -104.934  115.261 -172.242    7.398   16.095   -1.359 S_00004154
  42 E  -149.809  166.563  174.302    7.969   18.346   -4.364 S_00004154
  43 E  -146.638  155.296  178.118    9.450   21.631   -5.570 S_00004154
  44 E  -151.670  173.087  172.533    8.887   24.117   -8.391 S_00004154
  45 L    65.024   38.877 -177.187    9.791   27.575   -9.676 S_00004154
  46 L   -68.680  -11.961  176.011   13.529   26.976   -9.325 S_00004154
  47 L   -79.977  -11.296 -178.341   14.022   29.894  -11.710 S_00004154
  48 L   -96.564  158.900  175.659   12.635   32.183   -9.010 S_00004154
  49 L   -68.565  -22.784  179.238   14.366   33.615   -5.945 S_00004154
  50 L  -124.080   77.227 -179.347   11.603   32.007   -3.887 S_00004154
  51 L   -64.289  149.198 -172.652   11.087   28.470   -5.183 S_00004154
  52 E  -159.293  156.838  173.435    7.928   26.696   -4.042 S_00004154
  53 E  -124.920  130.631  174.161    5.679   23.683   -4.585 S_00004154
  54 E  -122.720  135.459 -177.206    1.881   23.727   -4.699 S_00004154
  55 E  -113.538  136.814  171.765   -0.303   20.625   -4.936 S_00004154
  56 E  -115.348  129.976 -175.785   -3.850   20.289   -6.248 S_00004154
  57 E  -106.984  146.360  175.681   -5.910   17.238   -5.302 S_00004154
  58 E  -147.458  147.930 -177.629   -8.858   15.653   -7.102 S_00004154
  59 E  -145.007  142.120  176.309  -11.012   12.564   -6.575 S_00004154
  60 E   -62.390  120.310 -176.368  -13.806   10.779   -8.433 S_00004154
  61 L    83.263    1.271 -179.176  -17.056   11.769   -6.727 S_00004154
  62 E  -111.418  111.334  177.647  -15.045   14.275   -4.695 S_00004154
  63 E   -72.094  143.504  179.724  -15.770   17.963   -5.269 S_00004154
  64 L   -97.560  126.650 -178.015  -12.847   20.379   -5.000 S_00004154
  65 L   -51.781  132.453 -178.249  -13.255   23.362   -2.679 S_00004154
  66 H   -57.428  -32.858 -178.160  -13.751   26.571   -4.656 S_00004154
  67 H   -65.586  -16.130 -173.758  -11.162   28.264   -2.445 S_00004154
  68 H  -109.887   -2.403 -169.368   -8.588   25.819   -3.799 S_00004154
  69 L   -75.908    4.982  174.174   -9.630   25.841   -7.447 S_00004154
  70 L  -120.227    5.113 -178.918   -6.799   28.252   -8.231 S_00004154
  71 L    98.560   -6.023  177.453   -4.113   26.349   -6.328 S_00004154
  72 L   -77.296  162.300 -176.971   -4.745   28.343   -3.154 S_00004154
  73 L   -72.773  140.379  173.731   -5.331   26.687    0.217 S_00004154
  74 L   -68.909  163.035 -178.951   -8.840   25.614    1.205 S_00004154
  75 H   -59.942  -29.055 -176.865  -10.512   27.117    4.270 S_00004154
  76 H   -63.183  -21.576 -174.986   -9.864   23.863    6.124 S_00004154
  77 H   -98.307   -0.154 -178.425   -6.147   24.655    6.074 S_00004154
  78 L   -57.167  -38.178 -174.074   -6.558   28.175    7.453 S_00004154
  79 L   -82.311  -40.877 -178.542   -5.851   26.970   10.987 S_00004154
  80 L  -126.586   72.421 -178.983   -3.044   24.519   10.233 S_00004154
  81 L   -70.264  151.044 -178.978   -1.357   25.630    7.011 S_00004154
  82 L   -64.413  130.543  171.999    1.454   23.537    5.538 S_00004154
  83 L   -73.015  123.718 -178.366    4.945   24.471    6.706 S_00004154
  84 L   -54.517  123.958  171.947    7.086   25.283    3.670 S_00004154
  85 L   104.996  -17.702  173.815    9.581   22.515    2.938 S_00004154
  86 E  -103.699  158.192 -179.549    7.771   19.781    4.858 S_00004154
  87 E   -69.750  146.322  178.733    5.205   17.335    3.485 S_00004154
  88 E  -128.965  110.766 -173.700    1.514   18.203    3.775 S_00004154
  89 E  -108.778  127.350 -178.831   -0.995   15.350    3.786 S_00004154
  90 E  -134.936  129.680  178.271   -4.748   15.896    3.511 S_00004154
  91 E  -118.839   95.127 -176.209   -7.552   13.344    3.227 S_00004154
  92 E   -79.675  115.810 -172.050  -10.827   15.038    2.302 S_00004154
  93 E   -80.247  151.046  167.264  -13.701   12.773    3.319 S_00004154
  94 E  -138.600  121.755 -174.719  -16.945   12.172    1.452 S_00004154
  95 E   -76.518  118.432  174.145  -19.827   10.319    3.097 S_00004154
  96 E  -101.984  112.671 -171.316  -21.325    7.578    0.933 S_00004154
  97 E   -55.036  141.480 -169.337  -24.741    6.626    2.289 S_00004154
  98 L   -55.248  -37.230 -168.140  -24.907    3.040    3.517 S_00004154
  99 L   -87.620   -1.002  177.251  -27.757    2.044    1.222 S_00004154
 100 L   -71.161  137.729  179.933  -26.045    3.337   -1.916 S_00004154
 101 L   -73.061  156.174 -168.470  -25.072    0.672   -4.448 S_00004154
 102 L   -60.229  146.722 -176.866  -21.396    0.008   -5.103 S_00004154
 103 E  -147.258  155.686 -176.095  -19.463    2.520   -7.202 S_00004154
 104 E  -108.653  114.173 -176.771  -15.963    3.038   -8.592 S_00004154
 105 E  -106.021  132.568  179.087  -14.189    6.254   -7.614 S_00004154
 106 E  -103.919  128.357 -175.217  -11.008    7.495   -9.287 S_00004154
 107 E  -116.259  116.864  178.165   -8.568    9.555   -7.227 S_00004154
 108 E  -119.197  137.187  178.931   -5.930   11.750   -8.862 S_00004154
 109 E  -117.161  150.350  173.084   -3.434   14.010   -7.095 S_00004154
 110 E  -155.064  159.557  174.816   -1.259   16.867   -8.333 S_00004154
 111 E  -123.287  127.514 -177.895    0.828   19.776   -7.057 S_00004154
 112 E  -114.128  143.556  176.109    0.761   23.204   -8.698 S_00004154
 113 L   -93.940 -167.866 -176.102    3.122   26.152   -8.266 S_00004154
 114 L   -64.516  -24.382  179.012    2.476   29.888   -8.538 S_00004154
 115 L   -85.173   -5.221 -178.643    2.395   29.533  -12.323 S_00004154
 116 L    81.288   15.627 -177.214   -0.279   26.850  -11.998 S_00004154
 117 L   -86.427  146.961 -179.231    2.189   24.274  -13.313 S_00004154
 118 E   -76.410  111.374  163.977    2.093   20.620  -12.267 S_00004154
 119 E   -55.003  -52.110  175.003    4.874   19.663   -9.884 S_00004154
 120 E  -151.862  150.316  166.095    3.698   16.084  -10.382 S_00004154
 121 E   -95.438  149.723 -177.680    0.756   14.091  -11.697 S_00004154
 122 E  -135.712  154.748  163.536   -0.669   11.256   -9.603 S_00004154
 123 E  -133.237  132.988 -171.909   -3.092    8.356   -9.794 S_00004154
 124 E  -122.515  113.259 -173.776   -4.595    6.836   -6.655 S_00004154
 125 E   -75.980   77.530 -178.643   -6.229    3.407   -6.757 S_00004154
 126 E  -118.404  111.904 -178.371   -9.142    4.136   -4.424 S_00004154
 127 E  -107.151  116.029 -177.125  -12.407    2.274   -4.994 S_00004154
 128 E   -75.679  126.295 -179.529  -15.399    3.450   -2.966 S_00004154
 129 E  -128.852  145.419 -179.144  -17.493    0.613   -1.545 S_00004154
 130 L   178.427  170.023 -179.619  -20.674    0.586    0.537 S_00004154
SCORE:  -169.538      2.688     -7.696     -7.227    -20.232     37.248     23.545      0.000   -159.094    -39.457      0.686 40.691      6.491     88.000            0.000         0.000    251.000  S_00004900
ANNOTATED_SEQUENCE: E[GLU:NtermProteinFull]PVKFKDCGSWVGVIKEVNVSPCPTQPCKLHRGQSYSVNVTFTSNTQSQSSKAVVHGIVMGIPVPFPIPESDGCKSGIRCPIEKDKTYNYVNKLPVKNEYPSIKVVVEWELTDDKNQRFFCWQIPIEVEA[ALA:CtermProteinFull] S_00004900
   1 L   -92.198  159.418  179.589    1.458    0.000    0.000 S_00004900
   2 L   -82.350  150.682 -174.990    3.911    2.868    0.460 S_00004900
   3 L  -130.825  146.119  168.238    4.921    5.052   -2.482 S_00004900
   4 E   -94.832  148.114 -175.317    7.810    7.305   -3.463 S_00004900
   5 E   -99.219  123.330 -179.224    7.061   10.681   -5.040 S_00004900
   6 E  -129.183  147.571 -172.944    8.549   11.470   -8.448 S_00004900
   7 E   -59.789  135.593 -176.091    8.123   14.474  -10.735 S_00004900
   8 L   -73.240   -8.519  175.506    5.223   14.133  -13.168 S_00004900
   9 L    86.414   -0.922 -173.198    7.458   15.643  -15.845 S_00004900
  10 L  -122.399  157.925  173.049    4.956   18.445  -16.413 S_00004900
  11 L  -106.371   21.619  168.287    4.438   22.044  -15.314 S_00004900
  12 L   -95.958    3.785  174.023    0.673   21.596  -15.201 S_00004900
  13 L   159.607  156.537 -176.479    1.132   20.154  -11.716 S_00004900
  14 E  -110.357  113.687 -174.617    3.580   18.404   -9.394 S_00004900
  15 E   -70.856  124.072 -175.492    2.874   14.744   -8.656 S_00004900
  16 E  -105.002  -34.996  178.911    3.128   14.013   -4.935 S_00004900
  17 E  -156.568  153.938 -178.534    1.699   10.495   -4.730 S_00004900
  18 E  -124.904  127.855  168.926    0.212    7.811   -6.975 S_00004900
  19 E  -109.974  120.705 -176.416   -2.662    5.426   -6.309 S_00004900
  20 E  -123.425  124.953 -179.566   -2.945    2.604   -8.840 S_00004900
  21 E  -129.620  145.039   -3.821   -5.686   -0.031   -8.887 S_00004900
  22 L   -81.200  137.136  166.550   -5.824   -2.799   -8.912 S_00004900
  23 L  -168.088   73.575  173.945   -2.469   -3.240   -7.205 S_00004900
  24 L   -63.975  -30.397  175.896   -2.597   -4.243   -3.543 S_00004900
  25 L  -131.020  159.407 -176.974    0.885   -5.669   -4.080 S_00004900
  26 L  -112.882  149.528    2.340    3.761   -4.865   -6.432 S_00004900
  27 L   -78.110  158.681  177.566    4.504   -5.111   -9.091 S_00004900
  28 E   -62.497  150.002 -175.252    0.998   -4.440  -10.399 S_00004900
  29 E  -142.654  128.866 -174.019   -0.499   -7.119  -12.641 S_00004900
  30 E  -156.687  142.868 -174.267   -3.340   -6.888  -15.153 S_00004900
  31 E   -83.670  153.126  170.509   -4.523   -8.746  -18.250 S_00004900
  32 L   -49.717  138.961  176.955   -4.793   -7.392  -21.786 S_00004900
  33 L    96.174  -14.142  176.558   -8.149   -5.718  -22.410 S_00004900
  34 L  -105.692  159.976 -175.111   -8.335   -4.370  -18.861 S_00004900
  35 E  -124.422  143.067  168.895   -7.366   -0.911  -17.621 S_00004900
  36 E   -76.963  146.019  165.971   -5.667    0.471  -14.523 S_00004900
  37 E  -113.900  122.231 -173.560   -7.308    3.244  -12.531 S_00004900
  38 E  -118.885  115.371  170.922   -4.827    5.620  -10.909 S_00004900
  39 E   -96.046  130.980  179.863   -5.714    8.230   -8.299 S_00004900
  40 E  -134.647  150.973  170.638   -3.047   10.840   -7.568 S_00004900
  41 E  -102.239  154.225  178.359   -2.707   14.009   -5.506 S_00004900
  42 E  -161.897  165.062 -177.351   -0.973   17.188   -6.665 S_00004900
  43 E   -86.449  133.138  178.158   -0.591   20.896   -5.921 S_00004900
  44 L   -71.023  126.909 -178.666   -2.990   23.361   -7.541 S_00004900
  45 L   -63.984  139.010 -171.962   -1.152   25.836   -9.766 S_00004900
  46 L   -66.471  -20.804 -175.221   -1.256   29.394   -8.442 S_00004900
  47 L  -117.580   14.065  178.424   -2.318   30.717  -11.843 S_00004900
  48 L   -64.506  -22.221 -178.943   -4.612   27.863  -12.869 S_00004900
  49 L   -65.799  -45.931 -168.833   -7.522   30.210  -12.178 S_00004900
  50 L  -108.613  -21.934 -174.175   -6.738   32.734  -14.899 S_00004900
  51 L   -83.500  156.673  178.611   -4.219   30.908  -17.080 S_00004900
  52 E   -79.979  110.082 -175.675   -5.025   28.697  -20.066 S_00004900
  53 E  -101.343  140.031  172.617   -4.744   25.105  -18.856 S_00004900
  54 E  -134.752  151.686 -178.805   -4.495   21.975  -20.994 S_00004900
  55 E  -118.651  130.003 -170.113   -4.204   18.282  -20.137 S_00004900
  56 E  -130.382  137.497  179.429   -2.033   15.918  -22.162 S_00004900
  57 E  -112.271  132.343 -177.451   -1.511   12.152  -22.134 S_00004900
  58 E   -96.933  102.434 -179.099    1.746   10.522  -23.224 S_00004900
  59 E  -100.672  111.661  179.873    1.022    7.316  -25.137 S_00004900
  60 L    55.559   42.025  165.618    4.127    5.294  -25.990 S_00004900
  61 L    95.945   -7.270 -175.903    6.443    8.275  -25.682 S_00004900
  62 E  -105.884  114.146  175.011    4.303   10.701  -27.678 S_00004900
  63 E   -72.102  123.175 -174.604    2.807   13.712  -25.905 S_00004900
  64 E  -115.972  138.077  166.506   -0.683   14.296  -27.288 S_00004900
  65 E   -69.089  126.389 -170.859   -3.036   17.265  -27.157 S_00004900
  66 L   -68.968  132.691  173.225   -6.189   15.979  -25.477 S_00004900
  67 L   -74.756  169.149  176.787   -9.312   15.566  -27.600 S_00004900
  68 L   -59.573  133.035 -178.791  -12.770   16.631  -26.434 S_00004900
  69 L   -55.004  135.330  174.945  -13.991   14.469  -23.555 S_00004900
  70 L   -85.125 -165.314 -175.954  -16.317   11.650  -24.599 S_00004900
  71 L   -62.714  -24.920 -178.751  -19.313   10.273  -22.707 S_00004900
  72 L   -95.009   -0.882  179.955  -16.936    8.751  -20.159 S_00004900
  73 L   -44.509  -43.147  174.131  -14.978   11.991  -19.803 S_00004900
  74 L   -89.024  135.795 -177.649  -16.631   12.324  -16.398 S_00004900
  75 L   -86.173   44.244 -174.564  -15.963    9.529  -13.908 S_00004900
  76 L   -47.735  144.747   12.749  -19.591    9.565  -12.776 S_00004900
  77 L   -95.138  169.942  175.929  -21.005    9.521  -10.377 S_00004900
  78 L  -138.247  148.419   12.937  -19.921   12.632   -8.481 S_00004900
  79 L  -116.380  153.944  176.135  -18.936   13.706   -6.107 S_00004900
  80 L   -72.150  134.542 -176.676  -16.837   11.322   -4.019 S_00004900
  81 L   -78.453   84.222 -172.494  -16.917   12.128   -0.305 S_00004900
  82 H   -55.937  -38.759 -174.505  -13.210   12.807    0.167 S_00004900
  83 H   -63.835  -30.007 -176.030  -13.612   13.571    3.868 S_00004900
  84 H   -82.696   -9.120  179.803  -15.093   10.134    4.534 S_00004900
  85 L   108.732   11.222  175.493  -12.087    8.439    2.937 S_00004900
  86 E   -77.893  150.507  171.610  -13.445    8.276   -0.609 S_00004900
  87 E  -138.468  133.569  177.482  -11.220    8.810   -3.638 S_00004900
  88 E   -68.873  122.737  176.399  -12.224    9.481   -7.243 S_00004900
  89 E  -135.032  126.987  176.924  -10.948    6.744   -9.551 S_00004900
  90 E  -111.030  125.202  179.675  -11.668    6.324  -13.260 S_00004900
  91 E  -120.005  123.998 -177.543  -10.966    3.000  -14.966 S_00004900
  92 E  -138.119  129.228  177.805  -11.208    2.584  -18.737 S_00004900
  93 E   -93.173  136.167  179.903  -10.132   -0.281  -20.994 S_00004900
  94 E  -117.385  135.010 -179.615   -8.755    0.478  -24.455 S_00004900
  95 E   -67.520  119.762  177.840   -8.684   -1.931  -27.396 S_00004900
  96 L   -73.008  154.813  177.461   -5.093   -2.818  -28.273 S_00004900
  97 L  -119.442  162.010  177.500   -3.917   -2.924  -31.887 S_00004900
  98 L   -65.042  -22.142  176.715   -1.409   -5.059  -33.785 S_00004900
  99 L   -62.957  -30.038 -179.246    0.565   -1.846  -34.269 S_00004900
 100 L   -70.208  134.981  175.277    1.351   -1.940  -30.551 S_00004900
 101 L   -67.888  145.901 -172.844    4.565   -3.697  -29.539 S_00004900
 102 L   -81.869   56.661 -176.116    4.071   -6.835  -27.456 S_00004900
 103 L  -138.555 -176.455  171.592    5.646   -5.334  -24.339 S_00004900
 104 E   -65.621  125.020  176.812    4.942   -3.238  -21.252 S_00004900
 105 E  -109.033  114.983  174.292    3.350    0.058  -22.279 S_00004900
 106 E   -73.599  108.265 -177.893    3.748    3.014  -19.924 S_00004900
 107 E  -105.973  110.796  178.030    0.414    4.828  -20.137 S_00004900
 108 E  -118.318  141.305  178.339    0.318    8.320  -18.639 S_00004900
 109 E  -158.449  155.564 -175.533   -2.497   10.870  -18.822 S_00004900
 110 E  -101.173  142.640  169.284   -3.790   13.928  -16.973 S_00004900
 111 E  -117.240  145.011 -176.373   -7.125   14.435  -15.236 S_00004900
 112 E  -127.893  130.740  179.662   -8.607   17.836  -14.404 S_00004900
 113 E  -111.571  107.263 -176.467  -11.237   18.703  -11.800 S_00004900
 114 L   -66.402  -44.966 -176.371  -13.033   21.982  -12.488 S_00004900
 115 L   -57.311  -43.578 -177.808  -15.087   21.976   -9.290 S_00004900
 116 L   -90.897   -5.535 -175.571  -12.002   21.647   -7.093 S_00004900
 117 L    52.609   52.769 -178.150   -9.857   23.672   -9.490 S_00004900
 118 E  -132.037  148.823  173.418   -7.196   20.957   -9.456 S_00004900
 119 E  -127.287  118.857 -176.635   -5.058   19.163  -12.034 S_00004900
 120 E  -127.715  125.254 -179.423   -3.634   15.733  -11.225 S_00004900
 121 E  -114.933  135.303 -179.914   -1.628   13.518  -13.576 S_00004900
 122 E  -114.564  136.424  170.021   -0.797    9.854  -12.991 S_00004900
 123 E   -98.660  103.424 -174.548    1.971    7.767  -14.536 S_00004900
 124 E  -110.478   95.369  170.124    0.549    4.250  -14.755 S_00004900
 125 E   -65.380  139.973 -175.462    2.936    1.608  -16.067 S_00004900
 126 E  -128.779  155.198  174.368    1.084   -1.450  -17.357 S_00004900
 127 E  -114.902  122.212  173.388    1.853   -5.081  -18.171 S_00004900
 128 E   -97.950  128.609  179.497    0.463   -6.722  -21.303 S_00004900
 129 E   -96.105  132.646  176.525    0.328  -10.522  -21.325 S_00004900
 130 E  -160.951 -170.021 -173.023    0.882  -12.463  -24.546 S_00004900
SCORE:  -173.184     19.821      0.285    -15.207    -37.988     36.913     23.562      0.000   -180.250    -21.006      0.686 35.846      6.585     88.000            2.000         1.000    591.000  S_00000639
ANNOTATED_SEQUENCE: E[GLU:NtermProteinFull]PVKFKDCGSWVGVIKEVNVSPCPTQPCKLHRGQSYSVNVTFTSNTQSQSSKAVVHGIVMGIPVPFPIPESDGCKSGIRCPIEKDKTYNYVNKLPVKNEYPSIKVVVEWELTDDKNQRFFCWQIPIEVEA[ALA:CtermProteinFull] S_00000639
   1 L  -122.162  174.937  171.178    1.458    0.000    0.000 S_00000639
   2 L   -64.153  126.836 -177.682    4.000    2.820   -0.071 S_00000639
   3 E  -121.127  165.258 -178.999    3.089    5.173   -2.915 S_00000639
   4 E   -61.400  132.733 -178.114    4.735    8.120   -4.665 S_00000639
   5 E  -159.944  177.328  178.442    4.646   11.283   -2.558 S_00000639
   6 E  -121.258  141.150  172.532    6.550   14.388   -1.466 S_00000639
   7 L    74.996   23.387  179.441    8.167   15.255    1.860 S_00000639
   8 L   -60.478  130.701  179.716    7.880   11.694    3.162 S_00000639
   9 L   -79.977  -23.212 -171.874    9.309   11.353    6.668 S_00000639
  10 L   -63.390  -20.327  178.801    9.823    7.608    6.307 S_00000639
  11 L   -90.593  -25.890 -174.120   12.986    8.282    4.307 S_00000639
  12 L   -80.068    1.003  176.547   14.339   10.958    6.641 S_00000639
  13 L    88.138    5.427  179.372   14.808    8.336    9.353 S_00000639
  14 L   -83.015  -28.239 -177.835   11.847    9.658   11.337 S_00000639
  15 E   -95.636  116.331 -178.687    9.623    6.702   10.462 S_00000639
  16 E   -90.494  -45.017 -178.835   10.541    3.472   12.245 S_00000639
  17 E  -158.051  139.225  170.267    7.516    1.327   11.406 S_00000639
  18 E  -115.157  105.839 -177.002    4.055    1.642    9.879 S_00000639
  19 E  -103.661  113.508  179.322    1.746   -1.075   11.197 S_00000639
  20 E  -123.425  124.953 -179.566   -1.659   -1.343    9.528 S_00000639
  21 E  -129.620  145.039   -3.821   -4.147   -4.126   10.250 S_00000639
  22 L   -81.200  137.136  166.550   -5.574   -5.990    8.776 S_00000639
  23 L  -168.088   73.575  173.945   -3.058   -6.058    5.942 S_00000639
  24 L   -63.975  -30.397  175.896   -0.810   -9.118    5.802 S_00000639
  25 L  -131.020  159.407 -176.974   -0.432   -8.348    2.099 S_00000639
  26 L  -112.882  149.528    2.340   -0.607   -5.181    0.003 S_00000639
  27 L   -78.110  158.681  177.566   -2.436   -3.347   -0.981 S_00000639
  28 E   -62.497  150.002 -175.252   -4.600   -3.442    2.143 S_00000639
  29 E  -142.654  128.866 -174.019   -8.252   -4.358    1.629 S_00000639
  30 E  -115.004  160.907  175.035  -11.265   -3.710    3.851 S_00000639
  31 E  -109.055  130.303  179.849  -14.851   -4.954    4.042 S_00000639
  32 L   -50.839  117.670  173.073  -17.746   -2.490    4.093 S_00000639
  33 L   104.795  -13.404 -173.883  -19.046   -2.243    7.654 S_00000639
  34 L   -82.236  163.787 -176.354  -16.088   -3.984    9.284 S_00000639
  35 E   -92.705  139.730  177.394  -13.919   -2.614   12.088 S_00000639
  36 E  -114.445  133.929  177.802  -10.411   -1.256   11.535 S_00000639
  37 E  -145.994  104.374 -176.409   -7.686   -1.180   14.184 S_00000639
  38 E  -140.021  144.772  178.949   -4.095   -0.360   13.244 S_00000639
  39 E  -140.233  150.783  171.021   -1.133    1.328   14.928 S_00000639
  40 E  -122.765  119.332  174.247    2.442    2.299   14.098 S_00000639
  41 E   -93.702  134.849 -169.046    5.082    2.471   16.826 S_00000639
  42 E  -158.925  172.519  168.911    8.062    4.675   16.012 S_00000639
  43 E  -146.681  151.745  174.749   10.581    7.245   17.212 S_00000639
  44 E   -75.484  161.760 -178.217   12.176   10.399   15.815 S_00000639
  45 L   -89.425  142.952 -177.541   15.898   10.570   15.060 S_00000639
  46 L   -56.835  -25.858 -178.391   18.323   12.273   17.441 S_00000639
  47 L   -83.237  -19.962 -175.954   19.511   14.345   14.483 S_00000639
  48 L   -60.354  144.307  174.007   15.987   15.442   13.575 S_00000639
  49 L   -76.470  -40.512  173.330   15.004   19.065   14.158 S_00000639
  50 L   -76.131  127.220 -175.591   11.430   18.040   14.936 S_00000639
  51 L   -66.720  -38.452  178.459   11.266   16.321   18.322 S_00000639
  52 L  -137.999  159.522  178.342    8.362   14.100   17.278 S_00000639
  53 E  -129.773  148.889  174.074    6.532   13.143   14.086 S_00000639
  54 E  -130.053  109.603  175.736    2.964   12.132   13.261 S_00000639
  55 E   -93.728  127.142 -178.322    2.235   10.261   10.034 S_00000639
  56 E  -138.032  143.743  175.295   -1.430   10.098    9.037 S_00000639
  57 E  -163.189  166.232  177.843   -3.378    8.960    5.979 S_00000639
  58 E  -147.458  147.930 -177.629   -6.654    7.417    4.822 S_00000639
  59 E  -145.007  142.120  176.309   -7.794    5.294    1.881 S_00000639
  60 E   -62.390  120.310 -176.368  -11.087    3.951    0.538 S_00000639
  61 L    84.943  -10.685 -175.015  -11.293    0.307    1.602 S_00000639
  62 E  -102.880  124.215  175.119   -8.044    0.866    3.492 S_00000639
  63 E   -76.885  127.383 -179.680   -7.878    0.701    7.286 S_00000639
  64 E  -145.827  152.772  171.431   -5.756    3.495    8.753 S_00000639
  65 E   -89.711  122.628 -178.170   -5.170    5.326   12.027 S_00000639
  66 E  -111.199  130.610  176.325   -6.103    9.001   11.749 S_00000639
  67 L   -72.745  136.383 -177.477   -4.960   11.710   14.158 S_00000639
  68 L  -139.171  156.063  176.693   -7.791   13.796   15.604 S_00000639
  69 L   -61.533  -20.008  174.457   -8.301   16.680   18.028 S_00000639
  70 L   -98.544   17.992  178.766  -10.148   14.094   20.111 S_00000639
  71 L   -85.564  126.296  171.022   -7.151   11.765   19.900 S_00000639
  72 L  -123.659  104.752 -172.634   -5.541   10.664   23.157 S_00000639
  73 H   -64.855  -33.200 -179.616   -2.529    8.434   22.538 S_00000639
  74 H   -71.290  -11.553  173.348   -2.206    7.550   26.222 S_00000639
  75 H  -107.757   13.066 -175.554   -5.703    6.094   25.934 S_00000639
  76 L  -120.092   35.670  173.159   -4.848    4.289   22.700 S_00000639
  77 L    94.855   -0.615  177.800   -2.778    1.390   24.022 S_00000639
  78 L   -99.632  120.414  176.794    0.211    3.552   24.940 S_00000639
  79 L   -81.567   99.994  177.195    1.292    3.512   28.584 S_00000639
  80 L   -85.564  154.747   10.261    2.330    7.089   29.347 S_00000639
  81 L   -77.187  154.453  177.922    4.411    8.761   30.122 S_00000639
  82 L   -66.188  141.702 -176.231    6.289    7.811   26.956 S_00000639
  83 L  -106.980  131.743 -178.902    9.793    6.457   27.533 S_00000639
  84 L   -58.152  127.517  174.765   12.813    7.579   25.514 S_00000639
  85 L    99.350  -14.143 -178.432   14.055    4.873   23.152 S_00000639
  86 L   -89.637  144.196  179.572   10.818    2.883   23.279 S_00000639
  87 E   -95.400  137.991 -176.590    8.674    2.267   20.200 S_00000639
  88 E  -128.881  140.336 -178.942    4.947    3.011   20.288 S_00000639
  89 E  -116.317  100.424  179.586    2.129    2.047   17.925 S_00000639
  90 E   -79.953  119.116 -172.565   -0.789    4.485   17.902 S_00000639
  91 E   -99.247  121.885  179.377   -3.889    2.687   16.642 S_00000639
  92 E  -113.422  118.806 -179.117   -6.531    4.632   14.720 S_00000639
  93 E   -79.429  140.776 -176.242   -9.875    2.969   14.009 S_00000639
  94 E  -120.954  120.315  176.219  -11.483    3.601   10.623 S_00000639
  95 E   -78.382  126.140  176.596  -15.229    3.542    9.981 S_00000639
  96 E  -105.205  121.682 -174.602  -16.172    1.991    6.641 S_00000639
  97 L   -71.890  144.504 -175.685  -19.487    3.153    5.190 S_00000639
  98 L   -56.162  -42.777 -174.434  -22.018    0.522    4.132 S_00000639
  99 L   -84.405   69.947  172.263  -22.363    1.948    0.627 S_00000639
 100 L  -108.424  121.894  172.274  -18.948    1.065   -0.780 S_00000639
 101 L   -56.395  130.107  175.637  -18.674    0.041   -4.427 S_00000639
 102 L   -81.869   56.661 -176.116  -17.026   -3.370   -4.745 S_00000639
 103 L  -138.555 -176.455  171.592  -14.757   -2.038   -7.488 S_00000639
 104 E   -65.621  125.020  176.812  -11.449   -0.296   -8.157 S_00000639
 105 E  -130.857  132.725  179.374  -11.283    2.941   -6.171 S_00000639
 106 E   -91.429  112.440 -173.734   -8.508    5.540   -6.189 S_00000639
 107 E   -94.932  123.760  179.858   -7.845    6.705   -2.634 S_00000639
 108 E   -99.289  126.827 -178.102   -6.404   10.183   -2.103 S_00000639
 109 E  -120.599  150.950  173.564   -4.378   10.806    1.054 S_00000639
 110 E  -149.872  148.197  174.554   -2.779   13.881    2.608 S_00000639
 111 E  -111.072  128.784 -174.330   -0.884   14.759    5.783 S_00000639
 112 E  -126.701  135.079 -179.635   -1.588   18.104    7.445 S_00000639
 113 L   -74.982  168.354 -179.028    0.162   19.820   10.351 S_00000639
 114 L   -58.930  -33.988 -177.566   -1.609   21.244   13.399 S_00000639
 115 L   -81.396   -2.090  171.657   -1.263   24.737   11.939 S_00000639
 116 L    95.904   13.732 -179.556   -3.077   23.517    8.834 S_00000639
 117 L   -91.107  123.773  179.695   -0.008   23.201    6.612 S_00000639
 118 E   -68.625  120.482 -172.019   -0.031   20.289    4.167 S_00000639
 119 E   -96.923  -31.680 -175.872    3.097   18.241    4.836 S_00000639
 120 E  -159.601  152.848  172.968    2.693   15.400    2.344 S_00000639
 121 E  -139.478  124.243  178.027    0.380   13.949   -0.297 S_00000639
 122 E  -137.673  144.983  178.908    0.292   10.330   -1.459 S_00000639
 123 E  -102.471  116.819 -178.537   -2.204    8.258   -3.441 S_00000639
 124 E  -107.762  109.962  173.581   -2.923    4.809   -2.012 S_00000639
 125 E   -55.003  127.741 -178.647   -4.729    2.330   -4.254 S_00000639
 126 E  -128.358  161.615  176.471   -7.554    0.749   -2.261 S_00000639
 127 E  -134.389  154.930  175.530  -10.172   -1.963   -2.758 S_00000639
 128 E  -125.009  134.956  167.787  -13.600   -2.764   -1.325 S_00000639
 129 E  -117.327  122.338 -166.347  -15.311   -6.108   -0.805 S_00000639
 130 E  -119.548  134.713  178.907  -19.006   -5.764   -0.036 S_00000639
SCORE:  -174.731      9.518      7.566    -12.383    -25.358     35.542     23.360      0.000   -185.476    -29.337      1.837 40.273      6.422    112.000            1.000         1.000    512.000  S_00005780
ANNOTATED_SEQUENCE: E[GLU:NtermProteinFull]PVKFKDCGSWVGVIKEVNVSPCPTQPCKLHRGQSYSVNVTFTSNTQSQSSKAVVHGIVMGIPVPFPIPESDGCKSGIRCPIEKDKTYNYVNKLPVKNEYPSIKVVVEWELTDDKNQRFFCWQIPIEVEA[ALA:CtermProteinFull] S_00005780
   1 L   -87.148   66.476  177.148    1.458    0.000    0.000 S_00005780
   2 L   -92.051   23.768 -176.580    2.302    3.491    1.246 S_00005780
   3 L   -74.836  128.265  177.199    5.628    2.184    2.543 S_00005780
   4 L  -112.727   24.972 -174.953    8.594    4.511    2.056 S_00005780
   5 H   -62.339  -24.229 -176.315   11.085    2.207    3.767 S_00005780
   6 H   -66.487  -24.925 -178.934   13.131    2.069    0.566 S_00005780
   7 H   -99.590   16.864 -171.460   14.168    5.692    1.073 S_00005780
   8 L  -140.524 -169.998  173.703   15.019    5.118    4.729 S_00005780
   9 L   -88.280   -7.828 -178.076   16.785    2.829    7.195 S_00005780
  10 L   -72.602  162.178  173.040   13.536    0.906    7.642 S_00005780
  11 L   -66.305  139.619 -177.502   12.763   -2.455    6.051 S_00005780
  12 L   -57.284  -28.054  177.955   11.314   -2.153    2.549 S_00005780
  13 L    88.138    5.427  179.372    8.345   -4.175    3.795 S_00005780
  14 L   -83.015  -28.239 -177.835    8.528   -6.492    0.786 S_00005780
  15 E   -54.553  129.029  174.853    9.903   -9.407    2.802 S_00005780
  16 E   -99.349  -36.717  179.169    7.353  -12.188    3.256 S_00005780
  17 E  -145.012  139.996  175.350    9.578  -14.625    5.144 S_00005780
  18 E  -131.007  128.480  175.033   12.984  -14.450    6.820 S_00005780
  19 E  -136.958  130.126  176.659   15.060  -17.358    8.114 S_00005780
  20 E  -133.310  162.163  168.191   18.657  -17.345    9.344 S_00005780
  21 E  -129.620  145.039   -3.821   21.045  -19.567   11.280 S_00005780
  22 L   -81.200  137.136  166.550   21.765  -19.712   13.952 S_00005780
  23 L  -168.088   73.575  173.945   18.394  -18.503   15.193 S_00005780
  24 L   -63.975  -30.397  175.896   16.125  -21.168   16.672 S_00005780
  25 L  -131.020  159.407 -176.974   14.465  -18.327   18.575 S_00005780
  26 L  -112.882  149.528    2.340   13.999  -14.608   17.943 S_00005780
  27 L   -78.110  158.681  177.566   15.421  -12.230   17.928 S_00005780
  28 E   -62.497  150.002 -175.252   18.563  -13.820   16.494 S_00005780
  29 E  -142.197  130.066 -172.877   21.741  -13.393   18.534 S_00005780
  30 E  -141.598  145.860  175.275   25.376  -13.650   17.461 S_00005780
  31 E   -95.151  151.227  178.220   28.843  -13.011   18.883 S_00005780
  32 L   -46.824  130.643  175.528   31.565  -11.066   17.077 S_00005780
  33 L    95.523  -15.061  176.984   33.291  -13.229   14.472 S_00005780
  34 L   -74.580  174.683 -177.125   30.324  -15.586   14.175 S_00005780
  35 E  -121.864  145.414  176.513   28.343  -16.140   10.978 S_00005780
  36 E  -128.545  136.165  178.095   24.697  -15.541   10.083 S_00005780
  37 E  -112.514  131.541 -177.723   22.715  -16.943    7.157 S_00005780
  38 E  -129.869  163.650  173.823   19.636  -15.190    5.778 S_00005780
  39 E  -100.669  123.442  175.246   17.169  -15.527    2.908 S_00005780
  40 E  -107.895  121.700  169.264   17.168  -12.770    0.292 S_00005780
  41 E   -97.427  116.726  178.142   14.274  -12.399   -2.134 S_00005780
  42 E  -134.794  130.066  173.284   15.248  -10.308   -5.156 S_00005780
  43 E  -110.908  118.002  176.393   13.511   -9.883   -8.508 S_00005780
  44 L  -109.876  162.294  176.588   15.572   -8.450  -11.362 S_00005780
  45 L   -65.970  140.869  174.393   14.676   -7.705  -14.980 S_00005780
  46 L   -65.765   77.165  176.864   15.143  -10.535  -17.472 S_00005780
  47 L  -120.010  154.717 -176.693   18.288   -9.038  -18.996 S_00005780
  48 L   -81.177  -13.664  179.752   21.431  -10.707  -20.332 S_00005780
  49 L   -63.951  132.694  176.420   23.638   -8.210  -18.502 S_00005780
  50 L   -53.861  146.690 -172.321   25.627   -9.710  -15.631 S_00005780
  51 E  -104.170  119.975  178.219   24.151   -8.917  -12.222 S_00005780
  52 E  -101.889  120.442 -172.051   26.177   -7.008   -9.633 S_00005780
  53 E   -86.017  145.700 -178.574   24.874   -7.386   -6.086 S_00005780
  54 E  -127.730  112.794  173.552   24.753   -4.532   -3.576 S_00005780
  55 E  -113.869  134.668  174.514   24.688   -5.049    0.187 S_00005780
  56 E  -140.357  160.245 -176.204   24.794   -2.234    2.738 S_00005780
  57 E  -125.878  132.487  177.257   24.211   -1.878    6.477 S_00005780
  58 E  -117.386  150.013  171.687   22.420    0.873    8.394 S_00005780
  59 E  -131.681  111.754 -177.045   22.187    1.642   12.105 S_00005780
  60 L    56.971   30.497  176.898   19.392    3.946   13.261 S_00005780
  61 L    93.370    4.772 -178.355   19.385    5.386    9.743 S_00005780
  62 E  -115.190  107.636 -177.626   23.174    5.692    9.648 S_00005780
  63 E   -55.000  140.146 -178.117   24.944    3.476    7.117 S_00005780
  64 E  -124.979  152.412  173.490   27.801    1.440    8.582 S_00005780
  65 L   -55.048  135.836 -179.817   30.868   -0.325    7.199 S_00005780
  66 L   -76.946  136.250  178.247   30.083   -3.926    6.265 S_00005780
  67 L   -70.330  154.875  175.987   31.728   -6.657    8.337 S_00005780
  68 L   -83.963  145.775  178.625   34.053   -9.205    6.740 S_00005780
  69 L   -62.988  117.613  179.994   32.940  -12.817    6.329 S_00005780
  70 L   -96.749    0.719 -179.323   34.296  -14.776    9.291 S_00005780
  71 L   -72.962  146.423  177.273   32.880  -18.051    7.978 S_00005780
  72 L   -64.879  134.152 -177.668   35.235  -20.851    6.942 S_00005780
  73 L   -64.997  142.953  178.433   35.805  -20.942    3.184 S_00005780
  74 L  -148.501  137.775 -179.352   34.142  -23.748    1.229 S_00005780
  75 L   -54.218  -29.381 -173.118   34.072  -24.712   -2.448 S_00005780
  76 L   -89.294   -1.081  179.577   30.299  -25.044   -2.161 S_00005780
  77 L   -64.388  144.772  174.053   29.890  -21.516   -0.804 S_00005780
  78 L   -54.529  144.258 -177.564   27.775  -19.056   -2.782 S_00005780
  79 L  -126.046  -40.452 -172.363   29.807  -16.932   -5.193 S_00005780
  80 L  -130.955  164.293  178.130   27.420  -15.013   -7.438 S_00005780
  81 L   -60.996  140.528  174.174   23.888  -13.605   -7.455 S_00005780
  82 L   -77.966  160.088  178.854   21.086  -16.103   -8.043 S_00005780
  83 L   -59.523  153.175 -172.384   18.639  -15.742  -10.930 S_00005780
  84 L   -52.131  -40.203 -173.121   15.808  -13.259  -10.437 S_00005780
  85 L   -97.583    5.368  179.776   13.222  -16.004   -9.985 S_00005780
  86 L  -101.295  161.455  178.977   15.543  -18.298   -8.034 S_00005780
  87 E   -99.530  132.305 -176.985   16.166  -18.504   -4.289 S_00005780
  88 E  -127.576  155.093  177.732   19.602  -17.610   -2.930 S_00005780
  89 E  -116.317  100.424  179.586   21.306  -17.643    0.469 S_00005780
  90 E   -79.953  119.116 -172.565   23.431  -14.554    1.096 S_00005780
  91 E  -125.089  126.468  171.366   26.031  -15.362    3.744 S_00005780
  92 E  -157.988 -168.772  179.631   28.572  -13.127    5.467 S_00005780
  93 E  -126.841  154.079  176.216   29.732  -11.800    8.836 S_00005780
  94 E  -124.582  103.811  178.321   29.341   -8.517   10.712 S_00005780
  95 E   -70.837  131.380  170.218   32.232   -7.522   12.972 S_00005780
  96 L   -77.432   92.328 -173.722   31.354   -5.447   16.026 S_00005780
  97 L   -50.526  137.108 -175.490   33.924   -2.707   15.463 S_00005780
  98 L   -65.177  -15.006 -177.795   36.020   -2.044   18.563 S_00005780
  99 L   -78.723  -21.792  178.523   35.283    1.659   18.119 S_00005780
 100 L  -132.637   76.633 -174.464   31.607    1.126   18.930 S_00005780
 101 L   -59.573  -33.319 -171.574   31.347   -1.601   21.563 S_00005780
 102 L   -95.123    4.865 -179.463   27.704   -0.798   22.271 S_00005780
 103 L   -71.189  147.805  169.959   26.697   -0.671   18.607 S_00005780
 104 E   -84.994  177.237 -177.145   24.122   -3.050   17.154 S_00005780
 105 E  -129.387  138.443 -176.366   24.604   -5.065   13.966 S_00005780
 106 E  -138.439  138.673  175.836   22.569   -5.087   10.755 S_00005780
 107 E  -110.829  121.164 -177.595   22.714   -7.042    7.499 S_00005780
 108 E  -108.444  123.505  178.057   21.460   -5.294    4.364 S_00005780
 109 E  -102.937  106.713 -175.997   20.588   -7.260    1.230 S_00005780
 110 E  -122.151  147.540 -178.011   20.661   -4.996   -1.823 S_00005780
 111 E  -128.536  128.304 -172.398   20.521   -5.743   -5.548 S_00005780
 112 E  -114.437  151.328 -177.914   21.886   -3.471   -8.268 S_00005780
 113 L   -98.466 -167.012 -175.467   21.247   -3.282  -12.012 S_00005780
 114 L   -65.502  -22.037  179.345   23.454   -2.569  -15.023 S_00005780
 115 L   -98.841   16.757 -179.320   23.456    1.112  -14.073 S_00005780
 116 L    64.984   26.652  178.877   24.496    0.327  -10.502 S_00005780
 117 L  -100.599  145.012 -170.524   20.925    1.042   -9.410 S_00005780
 118 E   -76.410  111.374  163.977   19.269   -0.889   -6.593 S_00005780
 119 E   -55.003  -52.110  175.003   16.804   -3.554   -7.662 S_00005780
 120 E  -151.862  150.316  166.095   16.046   -3.953   -3.959 S_00005780
 121 E  -116.089  119.147  176.985   17.433   -3.076   -0.543 S_00005780
 122 E  -107.321  119.600  176.354   16.787   -5.601    2.224 S_00005780
 123 E  -106.853  132.951  179.789   17.503   -4.557    5.808 S_00005780
 124 E  -122.965  110.049 -175.568   17.580   -7.105    8.630 S_00005780
 125 E   -77.853   81.307 -179.660   17.549   -5.762   12.185 S_00005780
 126 E   -96.835  120.900  174.438   19.714   -8.399   13.863 S_00005780
 127 E   -79.511  113.075 -172.200   20.757   -7.805   17.469 S_00005780
 128 E  -120.451  125.213 -178.298   24.342   -9.043   17.677 S_00005780
 129 E  -119.857  163.169 -179.845   26.410   -9.315   20.856 S_00005780
 130 L   -69.384  128.602 -178.867   29.957  -10.405   21.686 S_00005780
SCORE:  -175.367     27.349     -7.783    -16.736    -19.399     39.868     23.653      0.000   -196.289    -31.643      5.613 32.804      6.931     80.000            3.000         1.000    548.000  S_00006564
ANNOTATED_SEQUENCE: E[GLU:NtermProteinFull]PVKFKDCGSWVGVIKEVNVSPCPTQPCKLHRGQSYSVNVTFTSNTQSQSSKAVVHGIVMGIPVPFPIPESDGCKSGIRCPIEKDKTYNYVNKLPVKNEYPSIKVVVEWELTDDKNQRFFCWQIPIEVEA[ALA:CtermProteinFull] S_00006564
   1 L   -74.995  159.766 -176.489    1.458    0.000    0.000 S_00006564
   2 E   -64.949  149.670  176.358    3.887    2.875    0.532 S_00006564
   3 E  -116.561  134.575  172.692    4.162    5.643   -2.058 S_00006564
   4 E   -95.969  113.871 -174.456    7.337    7.435   -3.126 S_00006564
   5 E  -108.019  127.540  175.603    6.509   11.065   -3.887 S_00006564
   6 E  -125.879  124.976 -177.825    8.807   13.440   -5.764 S_00006564
   7 E   -95.911  135.436  177.529    7.902   17.078   -6.398 S_00006564
   8 L  -134.430  155.507  170.637    9.118   18.957   -9.470 S_00006564
   9 L    61.586   35.528  178.002    8.603   22.353  -11.087 S_00006564
  10 L   -84.416  164.415 -176.403    7.306   23.936   -7.883 S_00006564
  11 L   -60.607  -30.587 -174.764    7.126   27.679   -7.241 S_00006564
  12 L   -82.428  -17.594 -173.715   10.046   27.448   -4.819 S_00006564
  13 L    79.782   11.879 -178.001   12.259   25.546   -7.251 S_00006564
  14 L  -102.888  129.174  168.001   12.537   22.857   -4.579 S_00006564
  15 E  -113.947  124.847 -174.800   12.045   19.145   -5.184 S_00006564
  16 E  -117.554  156.147  176.915   11.860   16.984   -2.064 S_00006564
  17 E   -85.012  104.997 -174.584   11.732   13.245   -1.388 S_00006564
  18 E  -128.975  134.995  179.292    8.183   12.589   -0.198 S_00006564
  19 E  -129.751  124.618  179.227    6.246    9.342    0.207 S_00006564
  20 E  -148.911  126.087 -170.031    2.540    9.064    1.011 S_00006564
  21 E  -129.620  145.039   -3.821    0.262    6.097    0.367 S_00006564
  22 L   -81.200  137.136  166.550   -1.929    5.447   -1.201 S_00006564
  23 L  -168.088   73.575  173.945   -1.225    8.151   -3.762 S_00006564
  24 L   -63.975  -30.397  175.896    0.252    6.964   -7.056 S_00006564
  25 L  -131.020  159.407 -176.974   -1.207   10.138   -8.554 S_00006564
  26 L  -112.882  149.528    2.340   -2.033   13.592   -7.197 S_00006564
  27 L   -78.110  158.681  177.566   -3.871   14.887   -5.577 S_00006564
  28 E   -62.497  150.002 -175.252   -4.147   11.988   -3.134 S_00006564
  29 E  -142.654  128.866 -174.019   -7.637   10.590   -2.575 S_00006564
  30 E  -156.687  142.868 -174.267   -9.004    8.528    0.309 S_00006564
  31 E   -83.670  153.126  170.509  -12.377    7.789    1.895 S_00006564
  32 L   -49.717  138.961  176.955  -13.500    8.632    5.421 S_00006564
  33 L    96.174  -14.142  176.558  -12.565    5.903    7.897 S_00006564
  34 L  -105.692  159.976 -175.111   -9.311    5.133    6.090 S_00006564
  35 E  -120.491  163.221  172.685   -5.826    6.416    6.902 S_00006564
  36 E  -135.005  165.006 -176.084   -2.694    7.478    5.034 S_00006564
  37 E  -124.271  109.341 -179.246    1.014    7.695    5.842 S_00006564
  38 E   -83.300  111.540 -172.857    2.952   10.865    5.033 S_00006564
  39 E  -102.814  143.337  178.990    6.563    9.862    4.413 S_00006564
  40 E  -142.105  135.927 -179.561    9.628   12.112    4.402 S_00006564
  41 E  -116.154  136.070 -179.804   13.302   11.402    3.725 S_00006564
  42 E  -118.098  116.674 -178.728   16.243   13.487    4.931 S_00006564
  43 E  -125.515  125.061  178.411   19.587   13.213    3.143 S_00006564
  44 E   -76.291  149.173  171.367   22.670   15.313    3.880 S_00006564
  45 L  -101.975  166.316 -178.948   24.885   16.696    1.124 S_00006564
  46 L   -50.733  -39.746 -176.071   28.680   16.924    1.103 S_00006564
  47 L   -84.998    2.729  176.882   28.438   20.600    2.038 S_00006564
  48 L    61.167   32.329  177.739   26.028   19.747    4.851 S_00006564
  49 L  -103.205  135.025  179.158   23.417   22.074    3.360 S_00006564
  50 L  -135.015   75.052 -179.298   19.696   21.343    3.633 S_00006564
  51 L   -77.227   65.277 -174.541   17.698   24.141    2.008 S_00006564
  52 E  -135.001  143.059  177.050   14.397   22.366    2.634 S_00006564
  53 E  -122.530  156.334  178.310   11.174   23.181    4.477 S_00006564
  54 E  -143.806  167.539  176.616    8.291   21.045    5.734 S_00006564
  55 E  -164.154  152.846  174.557    4.910   21.330    7.448 S_00006564
  56 E   -86.078  129.166 -178.771    2.026   19.247    8.785 S_00006564
  57 E  -154.809  165.012  173.387   -1.145   19.462    6.698 S_00006564
  58 E   -82.691  123.377 -174.116   -4.162   17.516    5.456 S_00006564
  59 E  -118.566  113.108 -176.854   -3.326   15.837    2.152 S_00006564
  60 L    52.815   50.397  174.220   -6.126   14.530   -0.062 S_00006564
  61 L    84.999    5.421 -177.060   -8.545   14.302    2.860 S_00006564
  62 E  -115.233  124.134  176.224   -5.792   13.101    5.190 S_00006564
  63 E   -72.314  128.545  171.464   -4.588   15.041    8.229 S_00006564
  64 E  -113.922  102.655 -163.603   -0.815   15.302    8.565 S_00006564
  65 E   -69.215  134.994  172.356   -0.193   16.384   12.138 S_00006564
  66 L   -69.122  156.901  176.467    2.257   19.178   12.922 S_00006564
  67 L   -69.038  160.842  164.187    4.979   18.611   15.514 S_00006564
  68 L   -41.648  134.987 -175.501    4.800   19.821   19.096 S_00006564
  69 L   -46.693  122.246 -179.329    5.062   23.611   19.006 S_00006564
  70 L  -105.821  140.333 -178.755    8.685   24.499   18.273 S_00006564
  71 L   -48.637  137.796  178.750   10.366   27.743   19.326 S_00006564
  72 L   -53.594  -28.396 -177.945   10.200   30.438   16.650 S_00006564
  73 L   -58.645  -33.929 -178.923   13.992   30.558   16.895 S_00006564
  74 L   -61.475  121.801 -175.340   14.185   27.187   15.148 S_00006564
  75 L   -61.732  -43.977  170.276   14.941   27.824   11.478 S_00006564
  76 L  -101.316  162.513 -178.478   12.942   24.761   10.464 S_00006564
  77 L   -80.542   50.381 -178.754    9.733   23.547   12.103 S_00006564
  78 L  -140.018  134.122 -176.309   11.602   20.752   13.878 S_00006564
  79 L   -74.464  -43.584  179.408   12.773   20.456   17.482 S_00006564
  80 L   -77.918  147.042  172.170   15.582   17.982   16.817 S_00006564
  81 L   -64.635  161.140  175.459   18.676   18.927   14.827 S_00006564
  82 E   -81.414  125.552  178.824   19.218   17.448   11.368 S_00006564
  83 E   -79.995  120.683  178.382   21.363   14.309   11.413 S_00006564
  84 L   -50.967  115.747  170.593   24.153   14.439    8.834 S_00006564
  85 L    72.862   21.959  179.252   23.380   11.906    6.114 S_00006564
  86 L   -92.370  130.117  167.209   20.397   10.496    8.004 S_00006564
  87 E   -99.530  132.305 -176.985   17.388    9.054    6.204 S_00006564
  88 E  -137.803  145.138  169.688   14.153    9.080    8.200 S_00006564
  89 E  -129.922  148.414  179.789   10.494    8.218    7.679 S_00006564
  90 E  -114.949  145.180  179.953    7.475    8.975    9.863 S_00006564
  91 E  -125.089  126.468  171.366    4.330    6.896   10.356 S_00006564
  92 E  -157.988 -168.772  179.631    0.915    8.083   11.517 S_00006564
  93 E  -126.841  154.079  176.216   -2.755    8.332   10.557 S_00006564
  94 E  -124.582  103.811  178.321   -5.022   11.110    9.295 S_00006564
  95 E   -70.837  131.380  170.218   -8.664   10.921   10.371 S_00006564
  96 L   -86.887  103.979 -169.041  -11.214   12.389    7.973 S_00006564
  97 L   -62.718  155.453 -174.066  -13.474   14.259   10.380 S_00006564
  98 L   -77.034   -9.546 -178.114  -17.242   13.789   10.246 S_00006564
  99 L   -95.037   -5.080 -176.173  -17.747   17.535    9.841 S_00006564
 100 L   -70.208  134.981  175.277  -15.726   17.700    6.626 S_00006564
 101 L   -67.888  145.901 -172.844  -17.551   18.778    3.472 S_00006564
 102 L   -81.869   56.661 -176.116  -17.754   16.119    0.767 S_00006564
 103 L  -138.555 -176.455  171.592  -15.518   18.024   -1.645 S_00006564
 104 E   -65.621  125.020  176.812  -11.905   18.668   -2.621 S_00006564
 105 E  -115.050  115.034 -179.345   -9.942   19.819    0.424 S_00006564
 106 E  -121.092  142.791 -177.178   -6.655   21.620   -0.216 S_00006564
 107 E  -120.599  141.162  174.631   -4.288   23.221    2.291 S_00006564
 108 E  -124.557  119.436  177.329   -1.707   25.983    1.900 S_00006564
 109 E  -121.675  128.774 -178.065    1.005   26.542    4.505 S_00006564
 110 E   -88.680  122.964 -179.111    3.689   29.215    4.186 S_00006564
 111 E  -101.126  130.520 -174.539    7.187   28.109    5.185 S_00006564
 112 E  -117.031  134.364  175.557    9.659   30.724    6.405 S_00006564
 113 E   -87.966  115.014 -178.824   13.449   30.517    6.613 S_00006564
 114 L   -56.243  -27.832  174.091   14.646   31.934    9.932 S_00006564
 115 L   -88.297  100.849  177.354   17.839   32.827    8.076 S_00006564
 116 L    99.970  -17.673  178.104   16.979   35.836    5.917 S_00006564
 117 L    60.380   41.396  175.168   13.255   35.579    6.641 S_00006564
 118 E   -86.717  143.047 -172.205   12.453   34.390    3.121 S_00006564
 119 E  -109.468  142.968  176.796    8.963   33.026    2.504 S_00006564
 120 E  -123.456  136.895 -179.883    7.832   30.011    0.484 S_00006564
 121 E  -108.361  116.575 -174.592    4.337   29.338   -0.854 S_00006564
 122 E  -126.645  128.992 -178.799    3.359   25.675   -1.113 S_00006564
 123 E  -109.047  127.776 -179.057    0.016   24.225   -2.197 S_00006564
 124 E  -110.971  121.213 -179.664   -1.064   20.733   -1.150 S_00006564
 125 E   -73.417  130.467  179.917   -3.772   18.926   -3.115 S_00006564
 126 E  -134.552  123.623  177.848   -6.454   17.319   -0.952 S_00006564
 127 E  -137.421  119.238 -171.164   -9.388   15.207   -2.128 S_00006564
 128 E  -119.776  134.864  177.283  -11.546   13.232    0.292 S_00006564
 129 E  -111.963  135.436  176.396  -14.296   10.690   -0.360 S_00006564
 130 E  -119.548  134.713  178.907  -17.025    9.762    2.119 S_00006564
SCORE:  -182.790      1.520     -2.804     -9.344     -7.937     38.727     24.115      0.000   -178.189    -49.565      0.686 38.807      6.848     74.000            0.000         0.000    411.000  S_00009246
ANNOTATED_SEQUENCE: E[GLU:NtermProteinFull]PVKFKDCGSWVGVIKEVNVSPCPTQPCKLHRGQSYSVNVTFTSNTQSQSSKAVVHGIVMGIPVPFPIPESDGCKSGIRCPIEKDKTYNYVNKLPVKNEYPSIKVVVEWELTDDKNQRFFCWQIPIEVEA[ALA:CtermProteinFull] S_00009246
   1 L    58.714   55.919  179.809    1.458    0.000    0.000 S_00009246
   2 L   -65.061  -32.606 -169.865    2.053    3.589    1.105 S_00009246
   3 E  -102.015  111.446 -179.846    5.420    2.707    2.619 S_00009246
   4 E  -107.213  141.500  177.856    8.226    1.812    0.215 S_00009246
   5 E  -126.336  142.818 -171.874   11.714    0.644    1.178 S_00009246
   6 E  -121.895  140.267  171.294   14.815    0.544   -1.012 S_00009246
   7 E   -91.023  135.995  177.753   18.006   -1.515   -1.003 S_00009246
   8 L   -81.414  147.571 -179.551   21.273    0.317   -1.655 S_00009246
   9 L   -94.942   -7.958  178.255   23.652   -0.914   -4.353 S_00009246
  10 L   -88.383  -33.513 -178.014   26.703    0.463   -2.550 S_00009246
  11 L  -136.831  118.137 -179.888   26.165   -1.475    0.677 S_00009246
  12 L   -65.159  139.048  174.074   24.420   -4.839    0.981 S_00009246
  13 L    85.231    8.639 -176.438   21.714   -5.146    3.631 S_00009246
  14 E   -99.829  125.806 -176.509   21.188   -1.383    3.727 S_00009246
  15 E  -108.733  129.723  172.782   17.628   -0.052    3.701 S_00009246
  16 E  -118.287  128.213 -168.400   16.591    3.450    2.655 S_00009246
  17 E  -108.222  131.160  164.439   13.012    4.502    3.339 S_00009246
  18 E  -133.150  108.382  178.502   10.736    6.937    1.544 S_00009246
  19 E   -98.311  120.039 -172.318    7.091    6.913    2.625 S_00009246
  20 E  -123.425  124.953 -179.566    4.850    8.940    0.324 S_00009246
  21 E  -129.620  145.039   -3.821    1.165    9.717    0.848 S_00009246
  22 L   -81.200  137.136  166.550   -1.183    9.430   -0.596 S_00009246
  23 L  -168.088   73.575  173.945    0.113    6.497   -2.616 S_00009246
  24 L   -63.975  -30.397  175.896   -1.230    3.084   -1.623 S_00009246
  25 L  -131.020  159.407 -176.974   -0.398    2.013   -5.174 S_00009246
  26 L  -112.882  149.528    2.340    2.151    3.124   -7.766 S_00009246
  27 L   -78.110  158.681  177.566    2.688    5.217   -9.501 S_00009246
  28 E   -62.497  150.002 -175.252    1.448    7.877   -7.084 S_00009246
  29 E  -142.654  128.866 -174.019   -1.312   10.154   -8.366 S_00009246
  30 E  -156.687  142.868 -174.267   -2.396   13.589   -7.158 S_00009246
  31 E   -83.670  153.126  170.509   -4.202   16.628   -8.553 S_00009246
  32 L   -49.717  138.961  176.955   -2.808   20.129   -9.010 S_00009246
  33 L    96.174  -14.142  176.558   -3.224   22.239   -5.876 S_00009246
  34 L  -105.692  159.976 -175.111   -2.654   19.262   -3.582 S_00009246
  35 E  -124.422  143.067  168.895    0.576   18.208   -1.880 S_00009246
  36 E   -76.963  146.019  165.971    2.278   14.902   -1.126 S_00009246
  37 E  -104.081  118.921 -173.970    3.399   14.102    2.404 S_00009246
  38 E  -115.019  114.998  178.135    6.815   12.439    2.341 S_00009246
  39 E  -116.195  125.758 -177.595    8.225   10.723    5.426 S_00009246
  40 E  -115.159  127.787  173.241   11.652    9.077    5.359 S_00009246
  41 E  -128.219  126.387 -172.443   13.019    6.667    7.958 S_00009246
  42 E   -95.702  116.613  175.376   16.462    5.113    7.565 S_00009246
  43 E  -120.219  158.555  176.998   16.929    1.499    8.646 S_00009246
  44 E  -146.425  154.966 -179.497   19.751   -0.998    8.149 S_00009246
  45 L   -78.664  -22.570  176.110   20.381   -4.704    8.720 S_00009246
  46 L   -66.303  133.685  176.061   23.712   -3.920   10.373 S_00009246
  47 L   -81.449   65.446  175.682   23.575   -3.853   14.171 S_00009246
  48 L  -113.081  140.381 -179.560   25.201   -0.429   14.454 S_00009246
  49 L   -62.851  145.136  177.855   24.102    2.309   16.851 S_00009246
  50 H   -51.664  -32.433  179.699   22.322    5.322   15.365 S_00009246
  51 H   -62.177  -26.480  178.360   25.231    7.364   16.715 S_00009246
  52 H  -103.196   13.640  171.475   27.444    5.523   14.232 S_00009246
  53 E  -118.949  124.270  175.876   24.934    5.957   11.417 S_00009246
  54 E  -128.513  152.976 -173.711   24.753    9.199    9.442 S_00009246
  55 E  -122.064  129.278  171.890   22.776   10.136    6.335 S_00009246
  56 E  -129.182  122.293 -170.595   23.750   12.320    3.385 S_00009246
  57 E  -119.788  150.404  171.027   21.272   12.760    0.543 S_00009246
  58 E  -119.286  116.071 -178.466   21.211   14.426   -2.868 S_00009246
  59 E  -100.672  111.661  179.873   17.833   15.718   -4.042 S_00009246
  60 L    54.770   35.494  174.427   17.616   16.324   -7.790 S_00009246
  61 L    98.606  -15.347 -176.028   21.376   16.865   -7.883 S_00009246
  62 E  -116.799  127.731  172.284   21.401   19.137   -4.837 S_00009246
  63 E   -62.118  135.417  171.342   22.091   18.144   -1.236 S_00009246
  64 E  -135.711  144.569  175.858   19.371   19.156    1.213 S_00009246
  65 E   -54.651  140.239  176.379   19.096   18.815    4.989 S_00009246
  66 L   -81.243  130.788  179.799   16.994   15.861    6.132 S_00009246
  67 L   -53.823  136.064  178.267   13.791   16.799    7.951 S_00009246
  68 L   -62.173  135.532  178.109   14.013   16.293   11.713 S_00009246
  69 L   -51.053  131.881  170.405   12.260   13.153   12.947 S_00009246
  70 L   -73.235  162.104 -174.697    8.714   13.776   14.151 S_00009246
  71 L   -63.080  -16.698 -177.135    7.726   12.643   17.641 S_00009246
  72 L   -92.995   -8.090  177.566    5.912    9.705   16.051 S_00009246
  73 L   -65.191  143.130 -178.138    9.041    8.466   14.284 S_00009246
  74 L   -55.122  -32.648 -173.846   10.399    5.136   15.518 S_00009246
  75 L   -75.076  -17.371 -176.944   13.724    6.813   16.275 S_00009246
  76 L   -72.548  140.134  176.997   12.076    9.294   18.638 S_00009246
  77 L   -68.976  -10.476 -179.890   12.358    8.708   22.383 S_00009246
  78 L   -96.165   -6.883 -178.494    8.685    9.683   22.511 S_00009246
  79 L   -71.360  135.019  175.351    7.651    6.937   20.093 S_00009246
  80 L   -85.778  128.135  179.782    5.522    4.119   21.497 S_00009246
  81 L   -71.632  168.734 -174.135    6.801    0.630   20.690 S_00009246
  82 L  -119.034  132.252  176.004    4.600   -2.087   19.204 S_00009246
  83 L   -75.023  169.307 -178.913    3.663   -5.463   20.676 S_00009246
  84 L   -55.103  145.871  174.258    3.633   -8.688   18.662 S_00009246
  85 L    55.299   45.010 -176.937    1.097   -8.966   15.846 S_00009246
  86 E  -138.371  136.650  179.344    0.297   -5.255   16.029 S_00009246
  87 E  -109.757  112.036  177.337    0.208   -2.488   13.422 S_00009246
  88 E   -93.346  124.325  179.438    1.058    1.016   14.625 S_00009246
  89 E  -111.371  140.494  172.452   -0.076    3.849   12.357 S_00009246
  90 E  -149.389  152.643 -174.893    0.979    7.497   12.444 S_00009246
  91 E  -113.598  136.730  174.804    0.670   10.473   10.102 S_00009246
  92 E  -137.742  129.182 -176.246    3.302   13.040    9.140 S_00009246
  93 E   -99.433  125.100  173.061    2.840   15.928    6.712 S_00009246
  94 E  -114.431  115.650  179.350    5.683   17.137    4.501 S_00009246
  95 E   -80.629  123.793 -177.421    5.061   20.355    2.575 S_00009246
  96 L   -74.528  120.925  179.207    6.708   20.321   -0.851 S_00009246
  97 L   -52.972  133.549 -179.532    8.971   23.331   -1.370 S_00009246
  98 L   -65.042  -22.142  176.715    7.600   25.652   -4.051 S_00009246
  99 L   -62.957  -30.038 -179.246   11.140   25.841   -5.424 S_00009246
 100 L   -70.208  134.981  175.277   10.758   22.217   -6.508 S_00009246
 101 L   -67.888  145.901 -172.844    9.479   21.627  -10.038 S_00009246
 102 L   -81.869   56.661 -176.116    6.084   19.934  -10.235 S_00009246
 103 L  -138.555 -176.455  171.592    7.467   16.750  -11.785 S_00009246
 104 E   -65.621  125.020  176.812    9.042   13.386  -10.993 S_00009246
 105 E  -114.992  136.029  167.714   12.108   13.891   -8.803 S_00009246
 106 E   -91.873  125.457  175.650   14.917   11.447   -8.090 S_00009246
 107 E  -111.432  129.797 -176.277   16.262   11.671   -4.542 S_00009246
 108 E  -108.444  123.505  178.057   19.629   10.125   -3.690 S_00009246
 109 E   -97.792  145.006 -178.992   20.449    8.949   -0.169 S_00009246
 110 E  -128.384  124.134  171.605   24.005    8.596    1.130 S_00009246
 111 E  -103.614  133.692 -178.427   25.240    6.491    4.040 S_00009246
 112 E  -106.006  117.798  174.326   28.696    7.201    5.455 S_00009246
 113 E  -103.711  104.421 -175.497   30.751    4.347    6.894 S_00009246
 114 L   -66.402  -44.966 -176.371   33.706    5.825    8.772 S_00009246
 115 L   -57.311  -43.578 -177.808   35.318    2.503    9.675 S_00009246
 116 L   -90.897   -5.535 -175.571   35.437    1.367    6.049 S_00009246
 117 L    52.609   52.769 -178.150   35.955    4.908    4.767 S_00009246
 118 E  -132.037  148.823  173.418   33.111    4.461    2.283 S_00009246
 119 E  -127.287  118.857 -176.635   30.117    6.494    1.129 S_00009246
 120 E  -108.967  126.069  179.376   27.136    4.720   -0.426 S_00009246
 121 E  -108.194  110.111  173.003   24.444    6.597   -2.345 S_00009246
 122 E   -89.594  135.406 -175.915   21.093    4.856   -2.762 S_00009246
 123 E  -104.547  110.438 -179.721   18.811    6.305   -5.434 S_00009246
 124 E   -93.585  115.019  174.686   15.115    6.407   -4.547 S_00009246
 125 E   -67.539  126.958  178.245   12.766    6.736   -7.516 S_00009246
 126 E  -120.748  137.151 -178.997   10.002    9.244   -6.793 S_00009246
 127 E  -123.469  124.983  179.432    6.804    9.729   -8.791 S_00009246
 128 E  -135.208  124.868  173.322    4.567   12.796   -8.577 S_00009246
 129 E   -98.829  133.414 -176.325    1.575   13.727  -10.725 S_00009246
 130 L  -111.912  -43.733 -178.371    0.623   17.404  -10.882 S_00009246
