SCORE:  -235.588      6.857     -4.340    -24.143     -8.337     37.079     23.694      0.000   -211.453    -55.632      0.686 42.008      3.986    128.000            0.000         0.000    509.000  S_00001646
ANNOTATED_SEQUENCE: E[GLU:NtermProteinFull]PVKFKDCGSWVGVIKEVNVSPCPTQPCKLHRGQSYSVNVTFTSNTQSQSSKAVVHGIVMGIPVPFPIPESDGCKSGIRCPIEKDKTYNYVNKLPVKNEYPSIKVVVEWELTDDKNQRFFCWQIPIEVEA[ALA:CtermProteinFull] S_00001646
   1 L   -89.758  114.203  179.552    1.458    0.000    0.000 S_00001646
   2 L   -56.240  126.475  177.669    3.263    3.119    1.211 S_00001646
   3 E  -110.741  138.837  175.841    4.862    4.949   -1.713 S_00001646
   4 E   -79.633  168.890 -178.050    7.785    7.370   -1.497 S_00001646
   5 E   -93.107  126.940  168.343    7.879   10.756   -3.223 S_00001646
   6 E  -122.409  118.284 -171.106    9.556   11.216   -6.594 S_00001646
   7 E   -78.766  130.007  176.466    9.471   14.774   -7.917 S_00001646
   8 L   -57.522  138.414  174.345    8.524   15.334  -11.555 S_00001646
   9 L   -65.177  -44.691 -171.146   11.306   16.758  -13.718 S_00001646
  10 L  -122.590  -21.398 -175.995    8.938   18.929  -15.741 S_00001646
  11 L   -76.915   81.468 -174.902    5.505   18.261  -14.252 S_00001646
  12 L   -72.553  142.452 -178.809    5.278   21.368  -12.075 S_00001646
  13 L    64.962   30.881  179.212    2.676   21.470   -9.305 S_00001646
  14 L  -127.855  143.803  176.264    2.244   17.708   -9.642 S_00001646
  15 E  -109.065  123.955  178.431    2.703   14.851   -7.177 S_00001646
  16 E  -116.236  109.067 -178.430    4.038   11.519   -8.428 S_00001646
  17 E  -129.576  119.580 -173.334    3.880    8.648   -5.940 S_00001646
  18 E  -121.225  120.860  175.900    4.305    5.025   -7.002 S_00001646
  19 E  -116.155  125.641 -179.812    3.844    1.985   -4.769 S_00001646
  20 E  -124.972  125.038 -174.368    4.581   -1.515   -6.060 S_00001646
  21 E  -129.620  145.039   -3.821    3.946   -4.642   -3.997 S_00001646
  22 L   -81.200  137.136  166.550    5.397   -6.787   -3.010 S_00001646
  23 L  -168.088   73.575  173.945    8.689   -4.910   -3.045 S_00001646
  24 L   -63.975  -30.397  175.896    9.966   -3.748    0.340 S_00001646
  25 L  -131.020  159.407 -176.974   13.419   -3.765   -1.248 S_00001646
  26 L  -112.882  149.528    2.340   14.728   -3.315   -4.789 S_00001646
  27 L   -78.110  158.681  177.566   14.868   -4.639   -7.219 S_00001646
  28 E   -62.497  150.002 -175.252   11.414   -6.187   -6.866 S_00001646
  29 E  -142.654  128.866 -174.019   11.245   -9.978   -7.077 S_00001646
  30 E  -156.687  142.868 -174.267    8.301  -12.247   -7.867 S_00001646
  31 L   -89.903  155.115  179.512    7.727  -15.759   -9.200 S_00001646
  32 L   -52.408  130.021  174.783    5.774  -16.739  -12.312 S_00001646
  33 L    84.005    9.136  171.655    2.026  -16.782  -11.684 S_00001646
  34 L   -91.650  149.074 -176.147    2.322  -14.632   -8.568 S_00001646
  35 E   -90.001  107.109  178.620    0.118  -11.562   -8.161 S_00001646
  36 E  -100.167  117.783 -175.898    2.188   -8.373   -8.200 S_00001646
  37 E  -101.494  134.034  174.017    0.240   -5.266   -7.203 S_00001646
  38 E  -118.424  143.909 -178.512    1.239   -1.705   -8.075 S_00001646
  39 E  -131.865  150.463  176.197   -0.237    1.479   -6.615 S_00001646
  40 E  -127.396  139.397  171.718   -0.028    5.195   -7.390 S_00001646
  41 E  -129.768  118.345  173.813   -0.632    8.241   -5.204 S_00001646
  42 E  -164.181  159.420 -174.387   -0.710   11.773   -6.601 S_00001646
  43 E  -109.886  127.305 -178.355   -2.945   14.842   -6.747 S_00001646
  44 E   -74.943  143.851  175.267   -4.303   16.250  -10.007 S_00001646
  45 L  -111.121   18.261 -178.095   -4.004   19.961  -10.771 S_00001646
  46 L  -159.655  165.214  170.444   -6.477   19.819  -13.656 S_00001646
  47 L   -76.216   88.992 -171.636   -9.620   18.182  -15.015 S_00001646
  48 L  -102.359   10.524 -174.322   -7.814   15.187  -16.492 S_00001646
  49 L   -62.790  -27.283 -174.552  -10.820   12.862  -16.524 S_00001646
  50 L   -94.979   14.041  177.768  -11.128   13.190  -20.297 S_00001646
  51 L   -76.590  156.849  175.467   -7.528   12.126  -20.895 S_00001646
  52 E   -89.623  118.580  179.944   -6.597    9.018  -22.874 S_00001646
  53 E   -84.113  109.082 -178.939   -5.190    6.280  -20.642 S_00001646
  54 E  -147.260  139.984 -177.071   -2.368    4.539  -22.503 S_00001646
  55 E  -131.907  139.976  177.356    0.903    2.911  -21.455 S_00001646
  56 E  -128.354  142.044  168.307    3.962    1.749  -23.391 S_00001646
  57 E   -95.015  111.022  176.672    7.025   -0.288  -22.467 S_00001646
  58 E   -80.783  103.182 -175.372   10.090    1.266  -24.093 S_00001646
  59 E  -101.882  108.208  178.253   12.369   -1.708  -24.728 S_00001646
  60 L    55.000   40.916  174.843   15.937   -0.810  -25.685 S_00001646
  61 L    87.315   -4.337 -176.122   14.793    2.431  -27.307 S_00001646
  62 E  -115.190  107.636 -177.626   12.010    0.617  -29.154 S_00001646
  63 E   -73.136  127.691  173.872    8.468    1.247  -27.927 S_00001646
  64 E  -111.032   99.824 -173.946    6.118   -1.735  -28.088 S_00001646
  65 E   -66.926  142.036  166.368    2.555   -0.437  -27.848 S_00001646
  66 L  -141.465  151.513  179.645   -0.179   -2.394  -26.099 S_00001646
  67 L   -82.039 -164.988    2.905   -3.820   -1.625  -25.319 S_00001646
  68 L  -105.001  140.284 -174.702   -6.368   -1.262  -24.292 S_00001646
  69 L   -75.945  150.085  174.251   -7.077    2.398  -25.027 S_00001646
  70 L    53.275   43.803  178.379   -9.822    4.393  -23.317 S_00001646
  71 L   -77.271  -28.664  176.211  -10.463    1.633  -20.782 S_00001646
  72 L    58.029   64.471  176.604  -11.452    4.205  -18.165 S_00001646
  73 L   -75.106  -19.993 -177.770  -10.362    2.390  -15.008 S_00001646
  74 L   -84.956  -26.643  178.818  -10.924    5.604  -13.056 S_00001646
  75 L  -125.590   27.757  179.138  -14.534    5.987  -14.186 S_00001646
  76 L   -58.506  -40.045 -179.761  -15.312    2.342  -14.937 S_00001646
  77 L  -114.965 -169.786  179.065  -18.109    2.408  -12.362 S_00001646
  78 L   -87.528  -23.530  178.727  -20.313    5.020  -10.695 S_00001646
  79 L   -66.781  124.815 -167.177  -18.260    5.001   -7.495 S_00001646
  80 L  -147.028   73.251 -177.353  -16.055    8.084   -7.600 S_00001646
  81 L   -85.604   58.167 -175.223  -14.230    8.943   -4.378 S_00001646
  82 L  -129.869  145.792  175.038  -12.113   11.641   -6.016 S_00001646
  83 L  -131.885  145.007  174.970  -11.695   15.395   -5.598 S_00001646
  84 L   -72.465  142.164  178.004   -9.953   18.039   -7.700 S_00001646
  85 L    72.109   22.340 -174.382   -6.939   19.751   -6.140 S_00001646
  86 L  -133.672  165.086 -176.862   -6.683   16.887   -3.656 S_00001646
  87 E   -99.530  132.305 -176.985   -4.520   13.842   -2.947 S_00001646
  88 E  -127.576  155.093  177.732   -5.794   10.343   -3.711 S_00001646
  89 E  -116.317  100.424  179.586   -4.521    6.792   -3.241 S_00001646
  90 E   -79.953  119.116 -172.565   -5.173    4.567   -6.254 S_00001646
  91 E  -125.089  126.468  171.366   -5.142    0.937   -5.138 S_00001646
  92 E  -157.988 -168.772  179.631   -5.389   -2.266   -7.161 S_00001646
  93 E  -125.348  135.023  178.539   -3.609   -5.511   -8.031 S_00001646
  94 E  -117.647   94.886 -178.729   -1.407   -6.258  -11.040 S_00001646
  95 E   -63.068  139.374  176.118   -1.008  -10.002  -11.561 S_00001646
  96 E   -96.081  114.392 -171.466    2.268  -11.156  -13.106 S_00001646
  97 L   -91.192  156.769  177.205    1.539  -13.561  -15.953 S_00001646
  98 L   -65.042  -22.142  176.715    3.691  -16.369  -17.344 S_00001646
  99 L   -62.957  -30.038 -179.246    3.457  -14.541  -20.669 S_00001646
 100 L   -70.208  134.981  175.277    5.679  -11.842  -19.175 S_00001646
 101 L   -67.888  145.901 -172.844    9.421  -12.232  -19.715 S_00001646
 102 L   -81.869   56.661 -176.116   11.432  -12.808  -16.544 S_00001646
 103 L  -138.555 -176.455  171.592   13.238   -9.471  -16.767 S_00001646
 104 E   -65.621  125.020  176.812   12.996   -5.787  -15.882 S_00001646
 105 E   -99.999  126.410 -178.474    9.754   -4.351  -17.253 S_00001646
 106 E   -98.335   95.791 -172.647    9.811   -0.715  -18.364 S_00001646
 107 E  -108.606  113.188  174.936    6.299    0.602  -17.769 S_00001646
 108 E  -108.444  123.505  178.057    5.452    4.227  -18.533 S_00001646
 109 E  -101.448  113.906 -173.980    1.956    5.484  -17.727 S_00001646
 110 E  -118.131  118.153  179.451    1.023    8.521  -19.811 S_00001646
 111 E  -108.290  122.524  176.456   -2.231   10.425  -19.320 S_00001646
 112 E  -108.757  126.665 -176.958   -3.344   13.008  -21.877 S_00001646
 113 E  -130.550  106.964 -177.012   -6.142   15.406  -20.944 S_00001646
 114 L   -65.515  -43.009 -176.011   -7.355   17.966  -23.480 S_00001646
 115 L   -61.105  -37.576 -178.804   -9.737   19.699  -21.079 S_00001646
 116 L   -90.732   -9.292 -174.010   -6.954   20.311  -18.562 S_00001646
 117 L    52.736   46.583 -172.850   -4.357   20.907  -21.271 S_00001646
 118 E  -134.912  124.947  172.835   -2.082   18.597  -19.292 S_00001646
 119 E  -115.007  123.517 -174.995    0.164   15.727  -20.363 S_00001646
 120 E  -123.163  143.736  165.539    1.698   13.601  -17.612 S_00001646
 121 E  -126.850  148.162  169.577    4.056   10.642  -17.427 S_00001646
 122 E  -129.529  137.811  178.023    5.120    8.519  -14.467 S_00001646
 123 E   -88.248  117.221 -176.632    8.008    6.049  -14.347 S_00001646
 124 E  -115.282  100.387  175.333    6.895    2.733  -12.860 S_00001646
 125 E   -73.018  128.075  171.215    9.657    0.247  -12.062 S_00001646
 126 E  -128.358  161.615  176.471    8.532   -3.376  -11.909 S_00001646
 127 E  -138.233  114.289 -177.699   10.331   -6.699  -11.492 S_00001646
 128 E  -120.451  125.213 -178.298    8.910   -9.952  -12.852 S_00001646
 129 E  -119.857  163.169 -179.845   10.654  -13.314  -12.521 S_00001646
 130 L   -69.384  128.602 -178.867    9.896  -16.871  -13.632 S_00001646
SCORE:  -247.803      2.925     -4.463    -12.676    -30.834     36.187     22.996      0.000   -217.388    -50.164      5.613 43.773      4.813    112.000            0.000         0.000    442.000  S_00002481
ANNOTATED_SEQUENCE: E[GLU:NtermProteinFull]PVKFKDCGSWVGVIKEVNVSPCPTQPCKLHRGQSYSVNVTFTSNTQSQSSKAVVHGIVMGIPVPFPIPESDGCKSGIRCPIEKDKTYNYVNKLPVKNEYPSIKVVVEWELTDDKNQRFFCWQIPIEVEA[ALA:CtermProteinFull] S_00002481
   1 L   -64.981  -25.080  178.069    1.458    0.000    0.000 S_00002481
   2 L   -68.051  141.751  177.953    1.604    3.762   -0.527 S_00002481
   3 E   -95.382  115.909 -177.593    2.789    5.854    2.419 S_00002481
   4 E  -104.121  115.434 -172.021    0.358    8.649    3.276 S_00002481
   5 E  -131.576  157.658  168.523    1.865   11.406    5.410 S_00002481
   6 E  -121.818  116.317 -168.846    1.297   15.004    6.469 S_00002481
   7 E   -62.868  139.786  176.977    4.515   16.997    6.714 S_00002481
   8 L   -57.234  133.022  178.426    5.393   18.603   10.046 S_00002481
   9 L   -65.581  -14.975  177.427    4.563   22.313   10.096 S_00002481
  10 L   -90.912   -2.912  171.810    7.957   22.741   11.755 S_00002481
  11 L   -55.003  135.010 -174.312    9.604   21.277    8.662 S_00002481
  12 L   -84.002  -10.792  179.870   12.158   23.753    7.324 S_00002481
  13 L    58.879   35.884 -175.649   11.402   22.829    3.715 S_00002481
  14 L   -97.225   -5.441 -177.900   15.147   22.792    3.066 S_00002481
  15 E   -92.323  124.941 -178.100   15.137   19.419    1.312 S_00002481
  16 E   -96.376  -39.621 -175.336   15.067   19.497   -2.489 S_00002481
  17 E  -161.533  150.628  175.302   15.564   15.826   -3.336 S_00002481
  18 E  -129.479  104.852 -179.006   16.483   12.459   -1.831 S_00002481
  19 E   -90.028  113.776 -169.078   18.329   10.026   -4.096 S_00002481
  20 E  -114.767  135.032  165.421   18.029    6.542   -2.626 S_00002481
  21 E  -129.620  145.039   -3.821   19.663    3.216   -3.413 S_00002481
  22 L   -81.200  137.136  166.550   18.633    0.678   -3.834 S_00002481
  23 L  -168.088   73.575  173.945   15.390    1.959   -5.320 S_00002481
  24 L   -63.975  -30.397  175.896   15.066    1.652   -9.093 S_00002481
  25 L  -131.020  159.407 -176.974   11.310    1.708   -8.514 S_00002481
  26 L  -112.882  149.528    2.340    9.046    3.193   -5.846 S_00002481
  27 L   -78.110  158.681  177.566    8.285    2.811   -3.209 S_00002481
  28 E   -62.497  150.002 -175.252   11.758    1.745   -2.092 S_00002481
  29 E  -142.654  128.866 -174.019   12.014   -1.661   -0.424 S_00002481
  30 E  -156.687  142.868 -174.267   14.707   -3.060    1.862 S_00002481
  31 E   -83.670  153.126  170.509   15.025   -5.752    4.525 S_00002481
  32 L   -49.717  138.961  176.955   15.857   -5.273    8.198 S_00002481
  33 L    96.174  -14.142  176.558   19.608   -5.260    8.811 S_00002481
  34 L  -105.692  159.976 -175.111   20.319   -3.506    5.515 S_00002481
  35 E  -124.422  143.067  168.895   20.875    0.205    4.914 S_00002481
  36 E  -112.128  115.004  176.418   19.889    2.683    2.215 S_00002481
  37 E   -98.578  125.365 -174.374   22.257    5.629    1.809 S_00002481
  38 E  -122.750  133.957 -179.375   20.836    8.562   -0.145 S_00002481
  39 E   -84.777  130.034 -172.370   22.633   11.647   -1.451 S_00002481
  40 E  -119.751  130.830  174.885   20.942   14.925   -0.545 S_00002481
  41 E   -99.482  105.322 -168.233   21.310   18.356   -2.136 S_00002481
  42 E  -144.688  156.133  177.216   20.616   20.844    0.641 S_00002481
  43 E   -99.115  122.247 -179.865   21.636   24.237    2.019 S_00002481
  44 L   -60.898  129.354 -172.478   23.295   24.212    5.440 S_00002481
  45 L   -78.395  153.020 -175.145   21.179   26.220    7.871 S_00002481
  46 L   -66.996  -38.193 -178.790   22.481   29.296    9.685 S_00002481
  47 L   -78.049   -4.881  176.575   21.494   28.004   13.122 S_00002481
  48 L   -90.435  104.200 -175.792   23.340   24.783   12.302 S_00002481
  49 L  -126.226  -11.724 -174.216   26.832   25.172   13.750 S_00002481
  50 L  -110.839  -14.344 -179.777   27.358   21.861   15.537 S_00002481
  51 L    70.063   28.165 -172.042   26.253   19.472   12.794 S_00002481
  52 E   -98.035  128.235 -172.847   23.956   17.813   15.323 S_00002481
  53 E  -147.683  150.437  177.254   20.964   15.831   14.079 S_00002481
  54 E  -123.550  122.562  177.779   18.530   13.137   15.206 S_00002481
  55 E   -92.066  134.945 -175.085   17.114   10.509   12.851 S_00002481
  56 E  -119.347  125.879  169.523   13.660    9.136   13.644 S_00002481
  57 E   -95.015  111.022  176.672   12.133    5.828   12.582 S_00002481
  58 E   -80.783  103.182 -175.372    8.343    6.115   12.597 S_00002481
  59 E  -101.882  108.208  178.253    7.185    2.601   13.468 S_00002481
  60 L    56.971   30.497  176.898    3.472    1.969   12.950 S_00002481
  61 L    93.370    4.772 -178.355    2.827    5.629   13.750 S_00002481
  62 E  -115.190  107.636 -177.626    5.133    5.579   16.772 S_00002481
  63 E   -62.118  135.417  171.342    8.247    7.744   16.505 S_00002481
  64 E  -131.673  125.016 -177.660   11.508    6.202   17.692 S_00002481
  65 E   -55.912  131.891  166.247   14.728    8.204   17.968 S_00002481
  66 E  -121.165  139.253 -179.933   17.541    7.185   15.643 S_00002481
  67 E   -72.709  146.112  176.088   21.094    8.503   15.953 S_00002481
  68 L   -74.830  125.001 -178.570   22.647   10.452   13.083 S_00002481
  69 L   -54.563  144.993  178.872   25.280    8.371   11.296 S_00002481
  70 L   -86.336  164.134  177.954   28.885    9.474   11.788 S_00002481
  71 L   -63.514  -18.470  179.905   31.344   10.442    9.055 S_00002481
  72 L   -85.698  -17.526  176.751   33.107    7.175    9.873 S_00002481
  73 L   -76.916  -40.908  177.059   29.964    5.180    9.103 S_00002481
  74 L   -84.224  153.797 -173.393   29.739    6.502    5.546 S_00002481
  75 L   -94.941  -33.796 -179.221   32.452    5.728    3.002 S_00002481
  76 L   -50.392  109.971 -165.308   32.265    8.844    0.832 S_00002481
  77 L   -66.174  -44.610  177.629   35.552   10.443    1.826 S_00002481
  78 L   -86.055   93.458 -177.295   34.630   14.049    1.051 S_00002481
  79 L   -86.851  -19.033  178.105   31.677   14.648    3.369 S_00002481
  80 L  -147.028   73.251 -177.353   31.976   18.429    3.118 S_00002481
  81 L   -85.604   58.167 -175.223   33.786   19.474   -0.058 S_00002481
  82 L  -129.869  145.792  175.038   32.841   23.136    0.323 S_00002481
  83 L   -76.017  157.228  176.641   34.734   26.397    0.796 S_00002481
  84 L   -51.395  124.440  177.744   34.198   28.593    3.852 S_00002481
  85 L    92.346  -15.643 -173.049   30.837   30.338    3.519 S_00002481
  86 L   -85.821  150.580  172.680   29.881   28.116    0.590 S_00002481
  87 L   -59.063  148.511 -178.193   26.857   25.830    0.343 S_00002481
  88 E  -143.552  145.745 -179.630   27.557   22.174    1.115 S_00002481
  89 E  -118.426  130.785  171.709   25.760   18.862    0.601 S_00002481
  90 E  -113.777  143.595  175.602   25.896   15.787    2.825 S_00002481
  91 E   -96.350  139.936 -176.129   24.530   12.345    1.969 S_00002481
  92 E  -133.297  150.202  178.628   22.530   10.422    4.567 S_00002481
  93 E  -126.841  154.079  176.216   21.113    6.910    4.907 S_00002481
  94 E  -102.269  109.661 -178.794   18.337    5.337    6.972 S_00002481
  95 E   -75.624  145.051  177.307   19.584    2.324    8.927 S_00002481
  96 E  -114.874  110.488  177.223   17.265   -0.614    9.594 S_00002481
  97 L   -91.192  156.769  177.205   17.671   -2.390   12.931 S_00002481
  98 L   -65.118  -15.563 -179.142   16.118   -5.733   13.859 S_00002481
  99 L   -76.739  -14.509 -176.763   14.343   -3.808   16.616 S_00002481
 100 L  -102.806  142.545 -169.849   12.216   -2.043   14.006 S_00002481
 101 L   -67.888  145.901 -172.844    9.191   -3.659   12.380 S_00002481
 102 L   -81.869   56.661 -176.116    9.586   -5.122    8.896 S_00002481
 103 L  -138.555 -176.455  171.592    7.064   -2.751    7.327 S_00002481
 104 E   -65.621  125.020  176.812    6.640    0.690    5.777 S_00002481
 105 E  -130.857  132.725  179.374    7.944    3.341    8.169 S_00002481
 106 E   -91.429  112.440 -173.734    7.887    7.115    7.713 S_00002481
 107 E   -78.868  129.958  173.589   11.202    8.576    8.860 S_00002481
 108 E  -117.139  113.734  179.229   11.184   11.846   10.795 S_00002481
 109 E  -102.217  135.022  178.357   14.538   13.590   11.205 S_00002481
 110 E  -119.246  136.495  174.997   15.038   16.489   13.612 S_00002481
 111 E  -107.493  115.012 -171.047   17.907   18.981   13.698 S_00002481
 112 E  -110.999  136.408 -179.834   18.498   20.329   17.198 S_00002481
 113 L   -89.943 -169.946 -177.345   20.616   23.317   18.220 S_00002481
 114 L   -73.512  -10.381 -176.982   22.516   24.029   21.434 S_00002481
 115 L  -110.049    5.228  175.673   19.303   25.375   22.956 S_00002481
 116 L    80.616   25.322  176.582   17.154   22.357   22.108 S_00002481
 117 L  -106.223  145.773 -175.410   15.432   24.039   19.166 S_00002481
 118 E   -76.410  111.374  163.977   14.809   22.348   15.820 S_00002481
 119 E   -55.003  -52.110  175.003   17.073   23.527   13.025 S_00002481
 120 E  -151.862  150.316  166.095   14.892   21.418   10.737 S_00002481
 121 E  -111.829  119.082 -178.905   12.300   18.655   10.838 S_00002481
 122 E  -107.681  120.061  172.923   12.610   16.166    7.981 S_00002481
 123 E  -105.643  112.205 -171.686    9.786   13.758    7.170 S_00002481
 124 E  -125.175  122.802 -177.938   11.009   11.114    4.734 S_00002481
 125 E   -72.363  116.263  178.418    8.982    8.184    3.407 S_00002481
 126 E  -124.883  124.870  174.048   10.899    4.940    3.914 S_00002481
 127 E   -96.698  121.549 -175.747    9.649    1.461    3.034 S_00002481
 128 E  -124.964  133.521  177.946   11.296   -1.259    5.117 S_00002481
 129 E  -130.030  152.510  172.828   10.895   -5.035    4.920 S_00002481
 130 L   -71.209  148.070  176.929   12.378   -8.026    6.731 S_00002481
SCORE:  -155.348     10.508     -2.839    -15.712    -21.389     35.460     22.412      0.000   -145.592    -38.884      0.686 40.381      5.847    101.000            0.000         0.000    807.000  S_00008959
ANNOTATED_SEQUENCE: E[GLU:NtermProteinFull]PVKFKDCGSWVGVIKEVNVSPCPTQPCKLHRGQSYSVNVTFTSNTQSQSSKAVVHGIVMGIPVPFPIPESDGCKSGIRCPIEKDKTYNYVNKLPVKNEYPSIKVVVEWELTDDKNQRFFCWQIPIEVEA[ALA:CtermProteinFull] S_00008959
   1 L    55.014   60.095 -170.428    1.458    0.000    0.000 S_00008959
   2 E   -47.949  129.551  177.121    1.951    3.612    1.058 S_00008959
   3 E  -118.940  130.584 -175.816    4.905    5.221   -0.712 S_00008959
   4 E  -127.833  134.063  177.096    6.565    8.395    0.559 S_00008959
   5 E  -108.839  140.030  177.648    9.272   10.568   -0.990 S_00008959
   6 E  -123.202  139.130  172.582   11.600   12.866    0.948 S_00008959
   7 E   -76.326  120.981 -174.012   13.810   15.707   -0.266 S_00008959
   8 L  -125.430   81.902 -179.325   17.374   14.891    0.770 S_00008959
   9 L   -56.557  -32.742 -170.812   19.778   17.724   -0.040 S_00008959
  10 L   -82.442  -10.077 -177.361   22.506   15.980    1.941 S_00008959
  11 L   -93.740  169.409  179.712   22.238   12.765   -0.071 S_00008959
  12 L   -50.048  -59.578  170.614   23.707   11.857   -3.458 S_00008959
  13 L  -114.164  145.795 -161.427   20.418   12.651   -5.180 S_00008959
  14 L   -84.042  -14.224 -173.572   17.880   14.886   -3.493 S_00008959
  15 E  -113.506  124.314 -177.316   14.734   12.979   -4.444 S_00008959
  16 E  -119.973  129.301  170.236   13.827    9.621   -2.911 S_00008959
  17 E  -136.204  125.409 -175.192   11.021    7.251   -3.869 S_00008959
  18 E  -143.848  162.021  179.951   10.745    3.729   -2.467 S_00008959
  19 E  -119.172  135.513  176.883    8.210    0.973   -1.806 S_00008959
  20 E  -123.425  124.953 -179.566    7.628   -0.902    1.449 S_00008959
  21 E  -129.620  145.039   -3.821    5.539   -4.073    1.654 S_00008959
  22 L   -81.200  137.136  166.550    3.376   -4.971    3.135 S_00008959
  23 L  -168.088   73.575  173.945    2.031   -1.485    3.769 S_00008959
  24 L   -63.975  -30.397  175.896   -1.021   -0.495    1.734 S_00008959
  25 L  -131.020  159.407 -176.974   -1.752    1.984    4.522 S_00008959
  26 L  -112.882  149.528    2.340    0.381    3.861    7.047 S_00008959
  27 L   -70.015  171.464  178.714    1.842    3.446    9.365 S_00008959
  28 E   -89.951  116.417  174.900    3.198    0.114    8.136 S_00008959
  29 E   -77.533  114.121  173.017    2.603   -2.774   10.534 S_00008959
  30 E   -94.313  112.878 -178.403    5.598   -5.110   10.526 S_00008959
  31 E   -85.421  107.250 -178.794    4.548   -8.536   11.798 S_00008959
  32 L   -50.090  132.593  177.217    7.487  -10.099   13.635 S_00008959
  33 L    94.567   -8.377 -179.057    8.445  -13.478   12.180 S_00008959
  34 L  -107.313  156.098 -178.802    6.943  -12.615    8.796 S_00008959
  35 E   -69.289  141.724  177.386    8.664  -11.638    5.550 S_00008959
  36 E  -121.497  115.862 -170.845    9.053   -7.933    4.789 S_00008959
  37 E  -109.761  130.054  176.918    9.261   -6.973    1.122 S_00008959
  38 E  -135.032  164.632  169.925   10.434   -3.638   -0.278 S_00008959
  39 E  -122.918  130.499 -174.924   11.660   -2.129   -3.537 S_00008959
  40 E  -114.395  114.929  178.862   14.667    0.195   -3.585 S_00008959
  41 E  -131.605  152.225  179.320   15.171    2.630   -6.461 S_00008959
  42 E  -113.287  153.898  179.652   17.196    5.811   -6.946 S_00008959
  43 L   -73.931  166.145 -174.167   16.364    9.005   -8.833 S_00008959
  44 L   -62.467  -30.021 -176.594   17.982    9.921  -12.147 S_00008959
  45 L  -104.995   23.810  178.547   20.223   12.479  -10.450 S_00008959
  46 L   -65.024  -34.808 -177.457   21.137   10.246   -7.511 S_00008959
  47 L   -68.762  159.572 -178.611   24.687    9.903   -8.829 S_00008959
  48 L  -126.796  164.982 -179.244   27.381   12.466   -8.035 S_00008959
  49 L   -91.009  -51.057  178.757   30.420   13.946   -9.775 S_00008959
  50 L   -54.514  141.665 -174.277   32.886   14.240   -6.896 S_00008959
  51 L   -76.227   61.574 -179.140   34.797   11.015   -6.276 S_00008959
  52 E  -145.525  140.373  173.375   32.983   10.262   -3.021 S_00008959
  53 E  -105.032  146.840 -179.646   30.213    7.933   -1.863 S_00008959
  54 E  -129.779  129.407  171.824   27.715    8.791    0.872 S_00008959
  55 E  -112.115  133.920 -174.622   25.546    6.511    2.997 S_00008959
  56 E  -135.996  124.281  174.604   22.676    7.986    5.006 S_00008959
  57 E  -122.516  126.254  172.317   20.270    6.352    7.451 S_00008959
  58 E  -129.006  120.032  175.895   17.427    8.143    9.221 S_00008959
  59 E  -114.030  118.383 -177.466   14.929    6.318   11.429 S_00008959
  60 L    55.003   34.976  173.336   12.020    8.349   12.794 S_00008959
  61 L    81.352   14.969  178.755   13.977   11.512   12.018 S_00008959
  62 E  -108.956  104.933  179.965   17.054   10.306   13.897 S_00008959
  63 E   -66.647  134.269  176.051   20.231   10.505   11.818 S_00008959
  64 E  -131.697  151.151  179.761   22.708    7.676   12.370 S_00008959
  65 E   -74.540  127.710 -168.660   26.203    6.974   11.048 S_00008959
  66 L   -68.968  132.691  173.225   26.035    4.372    8.292 S_00008959
  67 L   -54.991  139.286  171.204   27.460    0.915    8.960 S_00008959
  68 L   -65.004  141.217  179.338   30.556    0.053    6.939 S_00008959
  69 L   -55.004  145.921  175.246   29.914   -2.429    4.132 S_00008959
  70 L   -67.832  157.752  178.099   30.477   -6.101    4.935 S_00008959
  71 L   -48.395  -41.013  165.676   33.560   -7.885    3.606 S_00008959
  72 L   -98.200  126.808  179.380   31.146   -9.236    1.017 S_00008959
  73 L   -57.151  -25.268 -175.561   28.953   -6.556   -0.553 S_00008959
  74 L   -74.718  -20.514 -176.275   26.195   -9.168   -0.668 S_00008959
  75 L   -58.780  -49.996  178.321   26.108   -9.428    3.123 S_00008959
  76 L   -85.730  139.670 -179.207   24.254   -6.139    3.571 S_00008959
  77 L   -74.870  -10.296  175.918   20.898   -5.675    1.847 S_00008959
  78 L   -94.522   -3.924  175.108   21.936   -2.090    1.127 S_00008959
  79 L   -83.693   -7.705 -176.705   24.978   -3.339   -0.779 S_00008959
  80 L   -49.185  130.082  179.388   22.639   -4.565   -3.514 S_00008959
  81 L   -74.097  150.003  179.026   23.929   -3.557   -6.945 S_00008959
  82 L  -129.032  167.486  175.446   21.795   -1.398   -9.235 S_00008959
  83 L  -127.260  136.968 -179.345   21.655   -0.420  -12.905 S_00008959
  84 L   -46.037  120.275  172.581   21.100    3.055  -14.344 S_00008959
  85 L    90.079   -1.168 -174.512   17.388    3.547  -14.987 S_00008959
  86 L  -116.687  179.016 -178.579   16.475    0.263  -13.307 S_00008959
  87 E  -144.334  141.632  175.117   15.309   -0.967   -9.904 S_00008959
  88 E  -109.467  127.921  178.218   16.058   -3.914   -7.624 S_00008959
  89 E   -94.793  127.666  179.924   13.318   -5.403   -5.451 S_00008959
  90 E  -113.709  144.982  157.057   14.353   -6.814   -2.075 S_00008959
  91 E  -118.615  119.979 -175.106   12.684   -8.932    0.555 S_00008959
  92 E  -148.264  133.759  177.823   14.567   -8.779    3.853 S_00008959
  93 E   -99.281  144.933  174.163   13.654   -9.249    7.513 S_00008959
  94 E  -117.253  126.157  178.905   15.184   -7.347   10.425 S_00008959
  95 E   -75.753  111.116 -178.026   15.379   -8.890   13.895 S_00008959
  96 L   -74.528  120.925  179.207   14.001   -6.314   16.328 S_00008959
  97 L   -91.192  156.769  177.205   16.116   -6.076   19.478 S_00008959
  98 L   -65.042  -22.142  176.715   14.905   -5.020   22.923 S_00008959
  99 L   -62.957  -30.038 -179.246   17.455   -2.212   22.666 S_00008959
 100 L   -70.208  134.981  175.277   15.247   -0.649   19.994 S_00008959
 101 L   -67.888  145.901 -172.844   12.669    1.876   21.187 S_00008959
 102 L   -81.869   56.661 -176.116    9.056    0.814   20.687 S_00008959
 103 L  -138.555 -176.455  171.592    8.342    3.512   18.107 S_00008959
 104 E   -65.621  125.020  176.812    8.551    4.354   14.410 S_00008959
 105 E  -126.953  123.678 -179.351   12.111    3.838   13.179 S_00008959
 106 E  -104.779  126.928 -179.686   13.276    4.842    9.702 S_00008959
 107 E  -112.875  129.385  176.560   16.380    3.244    8.197 S_00008959
 108 E  -138.244  147.893  176.600   18.265    4.650    5.210 S_00008959
 109 E  -153.960  174.004  177.740   21.642    3.979    3.601 S_00008959
 110 E  -122.832  133.936  169.018   23.631    4.354    0.382 S_00008959
 111 E  -113.792  131.618  170.842   25.123    1.688   -1.866 S_00008959
 112 E  -111.352  122.958  173.839   27.672    2.465   -4.570 S_00008959
 113 E   -95.050  104.897 -172.335   28.338   -0.123   -7.271 S_00008959
 114 L   -54.838  -42.671 -174.113   31.848    0.612   -8.521 S_00008959
 115 L   -58.712  -38.392 -176.206   31.396   -1.329  -11.756 S_00008959
 116 L  -105.185    0.097 -177.545   28.429    0.792  -12.828 S_00008959
 117 L    50.032   49.961  178.626   29.455    3.913  -10.915 S_00008959
 118 E  -136.524  132.577  169.617   26.035    4.078   -9.263 S_00008959
 119 E  -132.087  119.564 -179.962   24.929    4.419   -5.649 S_00008959
 120 E  -101.375  117.538  178.484   21.241    4.632   -4.753 S_00008959
 121 E  -106.646  127.010 -174.313   20.415    6.091   -1.341 S_00008959
 122 E  -131.463  159.984  176.537   16.878    5.662   -0.019 S_00008959
 123 E  -128.031  115.740 -171.873   14.876    6.300    3.149 S_00008959
 124 E  -112.639  103.559  177.633   12.261    3.740    4.162 S_00008959
 125 E   -66.423  112.682 -176.240    9.820    4.720    6.907 S_00008959
 126 E  -123.918  124.039  170.123    9.193    1.512    8.847 S_00008959
 127 E   -92.458  128.289 -178.722    6.909    0.966   11.829 S_00008959
 128 E  -103.644  107.689  176.441    7.937   -1.964   14.023 S_00008959
 129 E   -72.988  115.644 -172.246    5.050   -3.722   15.763 S_00008959
 130 L  -159.928  150.095  169.369    6.446   -4.901   19.093 S_00008959
SCORE:  -165.674      5.546    -12.849     -7.240    -10.884     38.088     24.496      0.000   -162.002    -46.442      5.613 38.022      5.768     98.000            0.000         0.000    662.000  S_00001910
ANNOTATED_SEQUENCE: E[GLU:NtermProteinFull]PVKFKDCGSWVGVIKEVNVSPCPTQPCKLHRGQSYSVNVTFTSNTQSQSSKAVVHGIVMGIPVPFPIPESDGCKSGIRCPIEKDKTYNYVNKLPVKNEYPSIKVVVEWELTDDKNQRFFCWQIPIEVEA[ALA:CtermProteinFull] S_00001910
   1 L   -67.410  140.028 -178.193    1.458    0.000    0.000 S_00001910
   2 E   -70.013  144.416  178.628    3.674    2.960    0.886 S_00001910
   3 E  -135.871  124.982 -179.381    4.949    5.185   -1.921 S_00001910
   4 E  -106.222  115.756 -178.585    7.784    7.708   -1.700 S_00001910
   5 E  -106.129  124.974 -176.834    7.771   10.478   -4.305 S_00001910
   6 E  -131.414  135.635 -178.021   10.888   12.607   -4.755 S_00001910
   7 E   -78.089  145.764  176.693   11.604   15.426   -7.203 S_00001910
   8 L   -59.318  144.813 -171.393   14.614   15.312   -9.521 S_00001910
   9 L   -54.952  -44.431 -169.888   17.608   17.217   -8.168 S_00001910
  10 L  -122.590  -21.398 -175.995   17.785   19.742  -10.995 S_00001910
  11 L   -99.390   96.523 -178.068   14.902   18.845  -13.305 S_00001910
  12 L   -70.156  141.737  179.329   11.701   20.355  -11.916 S_00001910
  13 L    97.405   -4.588  177.564    8.420   18.638  -12.776 S_00001910
  14 L  -110.853  122.485 -179.547    9.995   15.181  -12.650 S_00001910
  15 E  -120.046  155.815  178.164    9.198   12.902   -9.713 S_00001910
  16 E  -119.882  132.042 -174.852   10.260    9.375   -8.771 S_00001910
  17 E   -97.723  129.029 -178.433    7.904    6.831   -7.216 S_00001910
  18 E  -127.641  122.426  170.494    9.142    4.511   -4.470 S_00001910
  19 E  -111.372  130.763  174.968    7.276    1.647   -2.819 S_00001910
  20 E  -123.425  124.953 -179.566    8.767   -0.227    0.132 S_00001910
  21 E  -129.620  145.039   -3.821    7.141   -3.346    1.576 S_00001910
  22 L   -81.200  137.136  166.550    6.296   -4.210    4.071 S_00001910
  23 L  -168.088   73.575  173.945    5.716   -0.700    5.377 S_00001910
  24 L   -63.975  -30.397  175.896    2.087    0.398    5.612 S_00001910
  25 L  -131.020  159.407 -176.974    3.272    2.854    8.260 S_00001910
  26 L  -112.882  149.528    2.340    6.554    4.638    8.962 S_00001910
  27 L   -78.110  158.681  177.566    9.109    4.153    9.917 S_00001910
  28 E   -62.497  150.002 -175.252    9.350    0.732    8.276 S_00001910
  29 E  -142.654  128.866 -174.019   10.085   -2.192   10.589 S_00001910
  30 E  -156.687  142.868 -174.267   11.492   -5.632    9.799 S_00001910
  31 E   -83.670  153.126  170.509   13.339   -8.409   11.621 S_00001910
  32 L   -49.717  138.961  176.955   16.831   -9.712   10.900 S_00001910
  33 L    96.174  -14.142  176.558   16.804  -12.459    8.273 S_00001910
  34 L  -105.692  159.976 -175.111   13.956  -10.835    6.350 S_00001910
  35 E  -124.422  143.067  168.895   14.183   -8.570    3.307 S_00001910
  36 E   -76.963  146.019  165.971   12.359   -5.467    2.107 S_00001910
  37 E  -109.735  134.118  177.044   10.863   -5.367   -1.373 S_00001910
  38 E  -110.013  125.983  172.555   10.851   -2.099   -3.315 S_00001910
  39 E  -121.865  104.748 -176.780    8.345   -1.390   -6.080 S_00001910
  40 E  -109.181  115.074  172.311    8.882    1.991   -7.732 S_00001910
  41 E   -86.854  131.720 -175.388    6.555    3.187  -10.486 S_00001910
  42 E  -153.815  169.054  175.364    8.119    5.809  -12.749 S_00001910
  43 E   -94.775  128.310 -178.448    8.218    7.232  -16.272 S_00001910
  44 E  -104.987  112.916 -178.393   10.893    5.804  -18.566 S_00001910
  45 L   -70.843  162.201  175.879   12.135    8.173  -21.268 S_00001910
  46 L   -50.050  142.399 -174.302   13.196    7.051  -24.741 S_00001910
  47 L   -63.323  151.142  179.062   16.443    5.079  -24.652 S_00001910
  48 L  -110.507  155.755  169.967   19.766    6.867  -25.116 S_00001910
  49 L   -74.876  -25.889  179.292   22.945    5.947  -26.973 S_00001910
  50 E  -136.397  134.590  175.525   24.857    7.301  -23.978 S_00001910
  51 E  -132.241  134.741  174.147   24.031    7.373  -20.269 S_00001910
  52 E  -113.228  123.365 -171.216   25.992    8.836  -17.362 S_00001910
  53 E   -94.307  146.324  172.339   25.129    7.476  -13.923 S_00001910
  54 E  -131.839  118.780  177.222   25.172    9.272  -10.577 S_00001910
  55 E  -115.978  121.883 -165.436   24.968    7.408   -7.269 S_00001910
  56 E  -134.818  139.993  179.806   24.790    9.595   -4.181 S_00001910
  57 E  -138.015  144.763 -174.491   24.432    9.096   -0.429 S_00001910
  58 E  -129.006  120.032  175.895   24.019   11.524    2.464 S_00001910
  59 E  -120.171  113.277 -171.228   24.890   10.911    6.113 S_00001910
  60 L    64.374   36.918  176.729   24.153   13.822    8.437 S_00001910
  61 L    74.773    0.415 -176.520   23.487   15.973    5.374 S_00001910
  62 E  -101.956  121.864  179.110   27.064   15.268    4.298 S_00001910
  63 E   -68.805  134.354  178.990   27.691   13.757    0.866 S_00001910
  64 E  -124.979  152.412  173.490   29.972   10.715    0.874 S_00001910
  65 E   -74.540  127.710 -168.660   31.731    8.691   -1.817 S_00001910
  66 L  -120.703  150.957  178.382   29.844    5.429   -2.256 S_00001910
  67 L   -65.542  134.962 -178.985   30.578    2.010   -3.747 S_00001910
  68 L  -111.613  125.609  179.459   29.288    1.606   -7.300 S_00001910
  69 L   -69.995  160.608  175.527   28.051   -1.741   -8.612 S_00001910
  70 L   -95.133  158.775  175.614   29.037   -3.108  -12.019 S_00001910
  71 L   -66.655  142.759  177.797   26.715   -3.829  -14.940 S_00001910
  72 L   -78.115  113.314 -176.074   25.352   -7.371  -15.160 S_00001910
  73 L   -83.506  150.402 -174.831   27.022   -9.032  -18.143 S_00001910
  74 L   -55.122  -32.648 -173.846   25.199  -11.529  -20.353 S_00001910
  75 L   -75.076  -17.371 -176.944   27.685  -14.241  -19.401 S_00001910
  76 L   -72.548  140.134  176.997   26.883  -13.852  -15.706 S_00001910
  77 L   -68.976  -10.476 -179.890   24.593  -16.401  -14.058 S_00001910
  78 L   -96.165   -6.883 -178.494   22.986  -13.409  -12.348 S_00001910
  79 L   -71.360  135.019  175.351   22.118  -11.721  -15.642 S_00001910
  80 L  -139.550  137.181 -171.710   18.429  -11.448  -16.517 S_00001910
  81 L   -49.992  124.873  173.072   16.855   -9.903  -19.608 S_00001910
  82 L  -107.905   91.529 -171.575   16.095   -6.214  -19.116 S_00001910
  83 L   -72.115  158.778  177.226   13.563   -5.459  -21.844 S_00001910
  84 L   -54.182  122.457  178.162   12.839   -2.001  -23.247 S_00001910
  85 L    95.026   -8.365 -176.466   10.695   -0.121  -20.732 S_00001910
  86 L   -70.642  127.822 -179.398   11.489   -2.630  -17.989 S_00001910
  87 E   -83.427  138.858 -177.096   11.777   -1.051  -14.542 S_00001910
  88 E  -128.208  111.004  178.859   14.782   -1.959  -12.398 S_00001910
  89 E  -113.183  129.280  170.632   14.814   -1.374   -8.641 S_00001910
  90 E  -131.349  161.895  172.463   17.682   -2.221   -6.303 S_00001910
  91 E  -124.120  160.153 -179.651   18.660   -1.316   -2.746 S_00001910
  92 E  -149.349  149.509  176.873   22.034   -0.873   -1.050 S_00001910
  93 E  -101.994  112.988  172.787   23.454   -0.379    2.442 S_00001910
  94 E   -67.587  125.004 -175.976   25.791    2.586    2.862 S_00001910
  95 L   -51.216  128.942 -174.327   28.652    1.517    5.124 S_00001910
  96 L   -86.887  103.979 -169.041   27.934    2.701    8.663 S_00001910
  97 L   -91.192  156.769  177.205   30.968    4.722    9.715 S_00001910
  98 L   -65.042  -22.142  176.715   32.165    5.715   13.183 S_00001910
  99 L   -62.957  -30.038 -179.246   31.935    9.301   11.944 S_00001910
 100 L  -127.813   77.954 -177.063   28.153    8.908   11.955 S_00001910
 101 L   -63.579  131.482  167.888   27.146    6.720   14.896 S_00001910
 102 L    52.925   51.597  174.089   23.686    5.172   14.789 S_00001910
 103 L  -120.762  155.101  176.104   22.362    7.072   11.776 S_00001910
 104 E   -81.670  155.313 -179.039   20.149    6.001    8.877 S_00001910
 105 E  -114.508  136.116  173.149   21.460    5.837    5.312 S_00001910
 106 E  -110.291  102.564  179.771   19.830    7.183    2.156 S_00001910
 107 E   -79.736  109.675 -175.330   21.137    5.345   -0.905 S_00001910
 108 E   -99.755  125.215  177.476   20.688    7.699   -3.854 S_00001910
 109 E  -121.675  128.774 -178.065   20.682    6.357   -7.411 S_00001910
 110 E  -123.221  151.551  176.447   20.503    8.583  -10.488 S_00001910
 111 E  -131.924  112.993  177.843   20.267    7.926  -14.225 S_00001910
 112 E  -102.197  114.351  179.037   21.357   10.527  -16.773 S_00001910
 113 E   -91.754  113.339 -171.620   20.312    9.766  -20.349 S_00001910
 114 L   -85.357    4.866  172.960   22.689   11.523  -22.732 S_00001910
 115 L  -102.371  -52.085  174.973   20.345   10.936  -25.664 S_00001910
 116 L   -80.757  -10.033  176.367   17.043   12.134  -24.213 S_00001910
 117 L    55.398   61.463  178.603   19.068   14.562  -22.102 S_00001910
 118 E  -151.865  156.437  178.445   17.270   13.987  -18.802 S_00001910
 119 E  -101.259  148.318  165.259   17.951   12.785  -15.260 S_00001910
 120 E  -122.982  141.266 -168.067   16.297   10.004  -13.292 S_00001910
 121 E  -139.096  143.242 -178.696   16.458    9.949   -9.503 S_00001910
 122 E  -139.068  169.609  175.221   15.510    7.586   -6.680 S_00001910
 123 E  -127.058  112.264 -173.704   15.680    7.226   -2.900 S_00001910
 124 E  -105.254  126.441  177.240   17.130    3.984   -1.550 S_00001910
 125 E   -79.844  125.351  172.119   16.765    2.906    2.077 S_00001910
 126 E  -118.056  144.092 -178.809   19.905    1.485    3.673 S_00001910
 127 E   -94.315  102.474 -175.059   20.132   -0.080    7.130 S_00001910
 128 E  -130.057  137.466  171.638   22.996    1.606    8.974 S_00001910
 129 E  -134.972  139.707 -179.260   23.922    2.009   12.634 S_00001910
 130 E  -146.858  121.292 -176.327   26.917    3.789   14.157 S_00001910
SCORE:  -172.172     14.390     -6.464    -16.054    -26.957     35.035     23.441      0.000   -162.802    -33.104      0.343 37.964      5.638     96.000            1.000         0.000    682.000  S_00006701
ANNOTATED_SEQUENCE: E[GLU:NtermProteinFull]PVKFKDCGSWVGVIKEVNVSPCPTQPCKLHRGQSYSVNVTFTSNTQSQSSKAVVHGIVMGIPVPFPIPESDGCKSGIRCPIEKDKTYNYVNKLPVKNEYPSIKVVVEWELTDDKNQRFFCWQIPIEVEA[ALA:CtermProteinFull] S_00006701
   1 L   -84.921  147.493  172.171    1.458    0.000    0.000 S_00006701
   2 E   -83.467  142.740 -179.632    3.878    2.870    0.576 S_00006701
   3 E  -135.448  134.214 -178.022    5.598    4.352   -2.474 S_00006701
   4 E  -116.045  130.169  177.301    8.598    6.678   -2.684 S_00006701
   5 E  -106.417  126.986 -178.367    9.433    8.945   -5.619 S_00006701
   6 E   -97.984  -23.214 -178.494   13.035   10.054   -6.118 S_00006701
   7 E  -141.182  130.249  178.360   12.488   11.980   -9.350 S_00006701
   8 L  -128.542  -13.466  171.234    9.503   13.965  -10.617 S_00006701
   9 L    65.711 -143.875 -178.900   11.279   16.342  -12.986 S_00006701
  10 L   -85.635    5.227  177.803    9.380   19.322  -14.388 S_00006701
  11 L   -67.653  146.294  178.184    6.111   17.484  -13.759 S_00006701
  12 L   -50.842  -41.512  174.024    3.553   19.146  -11.490 S_00006701
  13 L    75.727    6.562 -172.761    3.989   16.158   -9.183 S_00006701
  14 E   -91.068  121.880  175.029    0.637   16.989   -7.601 S_00006701
  15 E  -117.802  134.199  173.326   -1.628   14.138   -6.511 S_00006701
  16 E   -90.204  -39.523 -178.577   -5.095   14.489   -4.999 S_00006701
  17 E  -153.306  140.285  176.178   -5.709   10.768   -4.510 S_00006701
  18 E  -115.157  105.839 -177.002   -3.856    7.504   -5.109 S_00006701
  19 E  -103.661  113.508  179.322   -6.188    4.587   -5.820 S_00006701
  20 E  -123.425  124.953 -179.566   -4.577    1.147   -5.981 S_00006701
  21 E  -129.620  145.039   -3.821   -6.546   -2.090   -6.294 S_00006701
  22 L   -81.200  137.136  166.550   -6.700   -4.499   -4.932 S_00006701
  23 L  -168.088   73.575  173.945   -5.556   -3.007   -1.641 S_00006701
  24 L   -63.975  -30.397  175.896   -8.269   -2.481    0.967 S_00006701
  25 L  -131.020  159.407 -176.974   -5.471   -2.652    3.534 S_00006701
  26 L  -112.882  149.528    2.340   -1.755   -1.853    3.485 S_00006701
  27 L   -78.110  158.681  177.566    0.646   -2.828    2.503 S_00006701
  28 E   -62.497  150.002 -175.252   -0.881   -4.024   -0.766 S_00006701
  29 E  -142.654  128.866 -174.019   -0.419   -7.705   -1.588 S_00006701
  30 E  -121.949  129.822  172.488   -0.635   -9.504   -4.928 S_00006701
  31 L   -72.468  164.053  176.495   -0.925  -13.216   -5.683 S_00006701
  32 L   -48.685  127.269  175.912    1.007  -14.825   -8.534 S_00006701
  33 L    72.977    9.626  172.722   -0.126  -13.351  -11.850 S_00006701
  34 L   -93.780  156.021 -172.137   -2.191  -10.772   -9.975 S_00006701
  35 E  -142.228  167.199  176.468   -1.918   -7.057  -10.715 S_00006701
  36 E  -152.593  158.860 -175.372   -2.950   -3.603   -9.509 S_00006701
  37 E  -131.734  147.218  172.940   -3.243   -0.054  -10.837 S_00006701
  38 E  -104.956  126.728  173.330   -2.868    3.468   -9.464 S_00006701
  39 E  -118.371  123.127 -175.760   -5.345    6.157  -10.498 S_00006701
  40 E  -123.141  130.320  170.602   -4.659    9.744   -9.444 S_00006701
  41 E   -94.260  141.599 -173.782   -6.749   12.881   -9.894 S_00006701
  42 E  -139.693  164.249  166.390   -4.891   16.183  -10.178 S_00006701
  43 E  -131.233  134.145  171.413   -5.284   19.894  -10.833 S_00006701
  44 L  -113.148  163.534  173.540   -2.909   22.154  -12.750 S_00006701
  45 L   -85.440  162.095  178.326   -2.901   25.915  -13.283 S_00006701
  46 L   -53.753  -38.870  174.162   -3.580   27.586  -16.630 S_00006701
  47 L   -57.569  -43.729 -173.929    0.156   28.257  -16.807 S_00006701
  48 L   -52.215  121.598 -176.962    0.883   24.565  -16.282 S_00006701
  49 L   -85.295  156.938  171.437    1.817   23.083  -19.656 S_00006701
  50 L   -82.240  124.646 -170.157    0.886   19.663  -21.019 S_00006701
  51 E  -112.347  112.678  170.680    3.988   17.477  -20.945 S_00006701
  52 E   -66.925  133.610 -172.440    4.561   14.582  -23.333 S_00006701
  53 E  -152.192  161.396  171.037    6.329   11.771  -21.490 S_00006701
  54 E  -101.721  140.195  177.141    7.146    8.063  -21.483 S_00006701
  55 E  -129.818  114.356  175.842    5.750    5.738  -18.818 S_00006701
  56 E  -104.747  108.456  179.145    7.079    2.216  -18.293 S_00006701
  57 E   -85.050  115.117 -174.833    4.936    0.210  -15.877 S_00006701
  58 E  -133.972  131.731  177.106    7.063   -2.499  -14.272 S_00006701
  59 E  -134.469  139.768 -177.380    6.396   -4.852  -11.361 S_00006701
  60 L    62.369   22.047 -178.284    8.569   -7.602   -9.889 S_00006701
  61 L    84.537    0.488 -177.386   11.220   -6.429  -12.349 S_00006701
  62 E  -102.880  124.215  175.119    8.824   -7.275  -15.176 S_00006701
  63 E   -66.998  130.742 -172.627    7.763   -4.639  -17.700 S_00006701
  64 E  -115.972  138.077  166.506    3.972   -4.540  -17.913 S_00006701
  65 E   -69.089  126.389 -170.859    1.542   -3.526  -20.639 S_00006701
  66 L   -68.968  132.691  173.225   -0.557   -0.744  -19.135 S_00006701
  67 L   -73.269  118.407 -177.563   -4.192   -1.481  -18.312 S_00006701
  68 L  -102.724  118.316 -179.822   -6.309    1.065  -20.180 S_00006701
  69 L   -61.120  160.088  178.969   -9.715    1.906  -18.714 S_00006701
  70 L   -87.887    1.343  173.538  -12.808    1.937  -20.925 S_00006701
  71 L   -88.934    2.004 -173.445  -13.474    5.515  -19.832 S_00006701
  72 L  -119.772  129.156 -178.662  -10.485    6.589  -21.917 S_00006701
  73 L   -76.093  -33.511  174.875  -10.438    7.161  -25.675 S_00006701
  74 L   -69.728  126.777 -174.124   -6.648    6.925  -25.812 S_00006701
  75 L   -55.306  -30.812 -175.545   -5.650    3.272  -26.129 S_00006701
  76 L   -61.393  -25.706  179.904   -2.941    3.787  -23.514 S_00006701
  77 L    77.870   11.165 -179.384   -5.657    4.175  -20.883 S_00006701
  78 L   -87.001  137.701  176.944   -3.717    7.102  -19.423 S_00006701
  79 L   -88.246  124.989 -179.791   -5.556   10.106  -17.994 S_00006701
  80 L  -125.536   79.817  177.468   -4.317   13.458  -19.291 S_00006701
  81 L   -73.168  146.092 -176.210   -6.216   16.298  -17.624 S_00006701
  82 L  -124.497  -39.982 -174.176   -5.505   19.822  -18.858 S_00006701
  83 L   -75.330  151.270  177.109   -8.075   22.164  -17.327 S_00006701
  84 L   -59.180  121.325  175.796   -7.698   23.688  -13.864 S_00006701
  85 L    90.313   -5.861 -177.406   -9.242   21.353  -11.293 S_00006701
  86 L   -70.663  126.111 -173.040   -9.770   18.643  -13.907 S_00006701
  87 E  -123.356  122.583  179.717   -9.409   15.199  -12.347 S_00006701
  88 E  -122.750  162.181 -179.966   -8.971   11.933  -14.243 S_00006701
  89 E  -105.201  141.363  174.651   -8.323    8.316  -13.264 S_00006701
  90 E  -121.758  146.995  177.956   -5.371    6.179  -14.340 S_00006701
  91 E  -128.603  121.815  179.626   -4.929    2.406  -14.179 S_00006701
  92 E  -113.422  118.806 -179.117   -1.545    0.674  -14.266 S_00006701
  93 E   -95.008  141.898  176.036   -1.423   -3.099  -14.722 S_00006701
  94 E  -125.368  126.417  178.425    1.493   -5.277  -13.628 S_00006701
  95 E   -86.411  111.814  178.015    2.117   -8.805  -14.898 S_00006701
  96 L   -86.887  103.979 -169.041    3.326  -11.041  -12.071 S_00006701
  97 L   -91.192  156.769  177.205    5.384  -13.685  -13.851 S_00006701
  98 L   -65.042  -22.142  176.715    6.416  -17.162  -12.712 S_00006701
  99 L   -62.957  -30.038 -179.246    9.990  -15.991  -13.265 S_00006701
 100 L   -70.208  134.981  175.277    9.561  -13.725  -10.242 S_00006701
 101 L   -67.888  145.901 -172.844   10.609  -15.160   -6.883 S_00006701
 102 L   -81.869   56.661 -176.116    7.771  -15.630   -4.402 S_00006701
 103 L  -138.555 -176.455  171.592    9.067  -12.974   -2.011 S_00006701
 104 E   -65.621  125.020  176.812    9.043   -9.253   -1.255 S_00006701
 105 E  -130.857  132.725  179.374   10.154   -7.314   -4.330 S_00006701
 106 E   -91.429  112.440 -173.734   10.634   -3.557   -4.661 S_00006701
 107 E   -94.932  123.760  179.858    9.228   -2.393   -7.994 S_00006701
 108 E  -100.081  129.088  171.416   10.668    0.751   -9.573 S_00006701
 109 E  -107.195  127.764 -179.210    8.694    2.871  -12.028 S_00006701
 110 E  -122.256  138.540  171.207   10.642    5.273  -14.240 S_00006701
 111 E  -108.054  121.876 -175.879    9.478    7.948  -16.671 S_00006701
 112 E  -113.519  147.900  170.536   11.909    8.677  -19.500 S_00006701
 113 L   -93.980  169.540 -177.439   12.049   11.365  -22.177 S_00006701
 114 L   -59.545  -28.674 -176.845   13.045   10.824  -25.805 S_00006701
 115 L   -77.542   -4.125  176.768   16.500   12.192  -25.001 S_00006701
 116 L    77.620   39.784  178.192   17.006    9.266  -22.628 S_00006701
 117 L  -119.157  136.969 -175.818   16.964   11.295  -19.413 S_00006701
 118 E   -75.017  120.696  179.919   15.282   10.227  -16.176 S_00006701
 119 E   -92.310  -34.691 -177.803   12.410   12.530  -15.225 S_00006701
 120 E  -148.365  146.713  179.202   11.152   10.583  -12.211 S_00006701
 121 E  -124.959  116.410 -173.585   12.292    7.673  -10.046 S_00006701
 122 E  -107.681  120.061  172.923    9.679    5.485   -8.367 S_00006701
 123 E  -105.643  112.205 -171.686   10.495    3.137   -5.495 S_00006701
 124 E  -119.564  113.453 -179.873    7.551    0.829   -4.842 S_00006701
 125 E  -101.294  129.800 -179.631    7.554   -1.681   -1.986 S_00006701
 126 E  -148.896  149.970  174.091    4.954   -4.453   -1.890 S_00006701
 127 E   -94.763  127.721  178.926    4.440   -7.906   -0.390 S_00006701
 128 E  -120.451  125.213 -178.298    3.727  -10.712   -2.855 S_00006701
 129 E  -119.857  163.169 -179.845    2.533  -14.147   -1.746 S_00006701
 130 L   -69.384  128.602 -178.867    1.668  -17.404   -3.506 S_00006701
SCORE:  -185.025     13.846    -16.008    -12.248    -15.421     37.081     24.404      0.000   -174.957    -46.184      4.462 31.985      5.862     92.000            1.000         0.000    735.000  S_00004671
ANNOTATED_SEQUENCE: E[GLU:NtermProteinFull]PVKFKDCGSWVGVIKEVNVSPCPTQPCKLHRGQSYSVNVTFTSNTQSQSSKAVVHGIVMGIPVPFPIPESDGCKSGIRCPIEKDKTYNYVNKLPVKNEYPSIKVVVEWELTDDKNQRFFCWQIPIEVEA[ALA:CtermProteinFull] S_00004671
   1 L  -161.729 -176.972  178.339    1.458    0.000    0.000 S_00004671
   2 E   -66.830  125.720  177.653    3.984    2.839   -0.106 S_00004671
   3 E  -121.764  117.196 -179.094    2.867    5.617   -2.449 S_00004671
   4 E  -123.973  129.231 -178.140    5.314    8.355   -3.434 S_00004671
   5 E  -107.343  124.580  178.691    4.596   11.176   -5.879 S_00004671
   6 E  -126.900  133.525  175.913    7.417   12.884   -7.771 S_00004671
   7 E   -94.103  122.225 -164.650    7.206   15.670  -10.348 S_00004671
   8 L  -125.430   81.902 -179.325    9.728   15.037  -13.100 S_00004671
   9 L   -56.557  -32.742 -170.812   10.187   17.886  -15.576 S_00004671
  10 L   -82.442  -10.077 -177.361   13.179   16.099  -17.083 S_00004671
  11 L   -93.740  169.409  179.712   11.213   12.929  -17.816 S_00004671
  12 L   -50.048  -59.578  170.614    8.885   12.093  -20.704 S_00004671
  13 L  -114.164  145.795 -161.427    5.844   12.925  -18.590 S_00004671
  14 L   -84.042  -14.224 -173.572    6.194   15.123  -15.536 S_00004671
  15 E  -112.865  116.814 -176.615    3.850   13.238  -13.215 S_00004671
  16 E  -146.867  151.361  178.476    4.910    9.875  -11.796 S_00004671
  17 E  -121.468  138.746  178.435    4.429    7.771   -8.666 S_00004671
  18 E  -117.221  123.416  177.962    6.938    5.466   -6.978 S_00004671
  19 E  -108.058  122.242 -179.901    5.847    2.605   -4.724 S_00004671
  20 E  -125.180  150.325  179.683    8.432    1.029   -2.424 S_00004671
  21 E  -129.620  145.039   -3.821    8.216   -1.680    0.236 S_00004671
  22 L   -81.200  137.136  166.550    8.085   -1.776    3.003 S_00004671
  23 L  -168.088   73.575  173.945    6.489    1.648    3.304 S_00004671
  24 L   -63.975  -30.397  175.896    2.775    1.676    4.106 S_00004671
  25 L  -131.020  159.407 -176.974    3.370    5.156    5.513 S_00004671
  26 L  -112.882  149.528    2.340    5.873    7.928    4.802 S_00004671
  27 L   -60.647  145.300  173.859    8.541    8.572    5.183 S_00004671
  28 E   -67.284  149.489  178.915    8.939    5.023    3.886 S_00004671
  29 E  -134.743  151.208  175.210   11.279    2.719    5.802 S_00004671
  30 E  -115.004  160.907  175.035   13.119   -0.531    5.096 S_00004671
  31 E  -118.919  144.989  176.312   14.213   -3.393    7.344 S_00004671
  32 L   -63.118  150.706  171.345   17.470   -5.353    7.291 S_00004671
  33 L    75.643   17.799 -179.291   17.459   -8.966    6.123 S_00004671
  34 E  -134.010  122.325  167.972   14.465   -8.385    3.852 S_00004671
  35 E   -77.775  126.254 -176.900   14.273   -8.203    0.069 S_00004671
  36 E  -120.908  148.548  178.867   11.658   -5.624   -0.909 S_00004671
  37 E   -89.824  124.199  172.273    9.956   -4.814   -4.211 S_00004671
  38 E   -98.977  107.834 -173.932   10.368   -1.296   -5.582 S_00004671
  39 E  -105.772  119.710 -178.505    7.444   -0.652   -7.921 S_00004671
  40 E  -123.744  136.554  170.687    7.518    2.393  -10.198 S_00004671
  41 E  -122.459  139.233 -169.077    5.088    3.613  -12.846 S_00004671
  42 E  -121.264  127.414 -172.554    5.976    6.396  -15.268 S_00004671
  43 E   -95.915  111.750 -173.616    3.522    8.778  -16.921 S_00004671
  44 L  -109.876  162.294  176.588    4.435    9.567  -20.524 S_00004671
  45 L   -65.970  140.869  174.393    2.948   11.755  -23.253 S_00004671
  46 L   -65.765   77.165  176.864    0.315   10.156  -25.478 S_00004671
  47 L  -120.010  154.717 -176.693    2.658    9.785  -28.448 S_00004671
  48 L   -81.177  -13.664  179.752    2.921    7.046  -31.070 S_00004671
  49 L   -63.951  132.694  176.420    6.707    6.965  -30.729 S_00004671
  50 L   -53.861  146.690 -172.321    8.054    3.782  -29.146 S_00004671
  51 E  -104.170  119.975  178.219    9.047    4.234  -25.507 S_00004671
  52 E  -123.918  127.312  176.329   12.624    3.603  -24.385 S_00004671
  53 E  -119.562  120.675  178.982   13.959    4.121  -20.864 S_00004671
  54 E  -127.418  131.469  178.733   17.682    3.837  -20.145 S_00004671
  55 E  -147.699  139.387  177.988   19.457    4.540  -16.858 S_00004671
  56 E  -121.868  136.592 -179.222   22.862    3.682  -15.401 S_00004671
  57 E  -151.292  164.677  178.320   23.818    3.666  -11.721 S_00004671
  58 E  -127.594  112.393 -175.839   26.269    2.156   -9.239 S_00004671
  59 E  -122.217  129.011 -176.892   24.923    0.672   -6.009 S_00004671
  60 L    55.030   34.335  170.515   26.990   -1.089   -3.348 S_00004671
  61 L    85.433    1.231 -177.195   29.994   -0.903   -5.661 S_00004671
  62 E  -110.176  135.689  177.026   28.186   -2.744   -8.453 S_00004671
  63 E   -61.393  134.851 -178.873   27.300   -1.330  -11.869 S_00004671
  64 E  -111.673  108.765 -179.221   23.552   -0.875  -12.315 S_00004671
  65 E   -72.258  146.893  174.828   22.238   -1.470  -15.833 S_00004671
  66 L   -82.552  159.974  174.467   19.266    0.503  -17.143 S_00004671
  67 L   -48.438  147.048 -172.931   16.065   -1.079  -18.446 S_00004671
  68 L   -74.932  145.287  178.636   16.537   -2.701  -21.849 S_00004671
  69 L   -70.819  155.802 -179.135   15.750   -0.822  -25.059 S_00004671
  70 L   -82.059   -0.342  178.344   12.787   -1.844  -27.212 S_00004671
  71 L   -60.978  -35.430  174.719   15.144   -2.132  -30.180 S_00004671
  72 L  -101.539  157.436  178.312   15.561   -5.806  -29.302 S_00004671
  73 L   -58.786  144.998  171.061   12.799   -8.326  -28.609 S_00004671
  74 L   -69.728  126.777 -174.124   11.512   -8.625  -25.050 S_00004671
  75 L   -55.306  -30.812 -175.545   12.978  -11.789  -23.539 S_00004671
  76 L   -61.393  -25.706  179.904    9.566  -12.694  -22.129 S_00004671
  77 L    77.870   11.165 -179.384    8.364  -13.374  -25.671 S_00004671
  78 L   -87.001  137.701  176.944    5.127  -11.562  -24.837 S_00004671
  79 L   -88.246  124.989 -179.791    3.388   -9.427  -27.457 S_00004671
  80 L  -125.536   79.817  177.468    2.459   -5.938  -26.264 S_00004671
  81 L   -69.423  150.715 -179.865    0.625   -4.054  -29.010 S_00004671
  82 L  -123.702  153.273  178.875   -0.194   -0.380  -28.470 S_00004671
  83 L  -104.608  137.027 -178.064   -3.025    1.870  -29.644 S_00004671
  84 L   -50.839  130.517  169.238   -2.395    5.240  -31.287 S_00004671
  85 L    94.396  -21.366 -174.751   -2.637    8.190  -28.913 S_00004671
  86 L   -83.884  147.062  178.853   -2.782    6.071  -25.761 S_00004671
  87 E   -98.453  122.713  176.890   -0.201    6.284  -22.978 S_00004671
  88 E  -106.187  127.006 -176.281    1.380    3.035  -21.794 S_00004671
  89 E  -107.915  130.937  177.410    3.141    3.027  -18.426 S_00004671
  90 E  -109.453  126.695  177.979    5.865    0.564  -17.442 S_00004671
  91 E   -69.289  141.724  177.386    6.652   -0.107  -13.784 S_00004671
  92 E  -121.497  115.862 -170.845   10.287    0.199  -12.713 S_00004671
  93 E  -109.761  130.054  176.918   11.361   -1.915   -9.748 S_00004671
  94 E  -124.582  103.811  178.321   14.541   -1.497   -7.708 S_00004671
  95 E   -70.837  131.380  170.218   15.206   -4.133   -5.051 S_00004671
  96 L   -86.887  103.979 -169.041   17.147   -3.000   -1.993 S_00004671
  97 L   -91.192  156.769  177.205   19.540   -5.909   -1.538 S_00004671
  98 L   -65.042  -22.142  176.715   21.445   -7.054    1.546 S_00004671
  99 L   -62.957  -30.038 -179.246   24.583   -6.602   -0.551 S_00004671
 100 L   -70.208  134.981  175.277   23.987   -2.852   -0.373 S_00004671
 101 L   -67.888  145.901 -172.844   25.689   -0.996    2.473 S_00004671
 102 L   -81.869   56.661 -176.116   23.316    0.546    5.007 S_00004671
 103 L  -138.555 -176.455  171.592   24.234    4.119    4.089 S_00004671
 104 E   -65.621  125.020  176.812   23.456    6.969    1.704 S_00004671
 105 E  -118.220  130.610  177.763   23.763    5.755   -1.885 S_00004671
 106 E  -123.563  123.626  178.849   23.977    8.051   -4.908 S_00004671
 107 E  -135.280  137.949 -179.389   23.826    6.794   -8.493 S_00004671
 108 E  -100.496  126.090  177.326   23.443    8.674  -11.775 S_00004671
 109 E  -115.724  125.619 -176.180   21.233    7.242  -14.517 S_00004671
 110 E  -113.048  129.171  176.453   21.352    8.709  -18.022 S_00004671
 111 E  -119.714  132.526 -174.295   18.713    8.195  -20.709 S_00004671
 112 E   -86.439  111.694 -170.771   19.221    9.283  -24.315 S_00004671
 113 E   -92.569   97.154 -168.524   16.233   11.351  -25.413 S_00004671
 114 L   -66.998  -36.249 -176.943   15.959   10.875  -29.166 S_00004671
 115 L   -63.786  -42.930 -175.912   13.006   13.218  -29.653 S_00004671
 116 L   -95.001   -9.394 -178.511   14.718   16.197  -28.028 S_00004671
 117 L    63.569   44.900 -176.420   18.222   15.143  -29.060 S_00004671
 118 E  -130.122  157.973  165.055   19.439   15.342  -25.464 S_00004671
 119 E  -128.755  129.960  177.902   21.185   13.255  -22.831 S_00004671
 120 E  -134.586  134.203  174.414   20.610   13.754  -19.106 S_00004671
 121 E   -78.244  143.653  175.740   21.834   11.774  -16.103 S_00004671
 122 E  -110.055  130.689 -177.795   19.328   10.786  -13.422 S_00004671
 123 E  -111.119  107.037 -175.547   20.320   10.832   -9.752 S_00004671
 124 E  -110.799   96.783  175.681   18.220    8.549   -7.556 S_00004671
 125 E   -55.078  127.560  171.935   19.104    8.719   -3.863 S_00004671
 126 E  -129.451  129.352  178.464   18.779    5.327   -2.186 S_00004671
 127 E  -129.157  159.340  175.054   19.204    4.700    1.539 S_00004671
 128 E  -119.906  124.037 -173.473   18.724    1.783    3.928 S_00004671
 129 E  -108.160  117.696 -167.670   17.078    2.413    7.293 S_00004671
 130 L  -153.572  168.897  170.525   17.877   -0.094   10.023 S_00004671
SCORE:  -201.429      7.679      3.074    -19.432    -17.307     38.469     24.488      0.000   -202.934    -37.302      1.837 39.808      5.683    114.000            0.000         0.000    401.000  S_00004481
ANNOTATED_SEQUENCE: E[GLU:NtermProteinFull]PVKFKDCGSWVGVIKEVNVSPCPTQPCKLHRGQSYSVNVTFTSNTQSQSSKAVVHGIVMGIPVPFPIPESDGCKSGIRCPIEKDKTYNYVNKLPVKNEYPSIKVVVEWELTDDKNQRFFCWQIPIEVEA[ALA:CtermProteinFull] S_00004481
   1 L   -79.857   -6.792  173.614    1.458    0.000    0.000 S_00004481
   2 L   -65.968  124.576  169.427    1.492    3.799   -0.021 S_00004481
   3 E   -81.619  113.235 -174.352    3.593    5.247    2.788 S_00004481
   4 E  -145.225  125.899  167.420    1.512    8.112    4.168 S_00004481
   5 E  -105.799  102.691 -170.667    1.378   10.043    7.428 S_00004481
   6 E  -120.995  125.403  174.755   -1.958   11.851    7.308 S_00004481
   7 E    62.505   59.513  178.390   -3.635   13.919   10.019 S_00004481
   8 L  -126.461   39.362  162.999   -1.236   13.248   12.891 S_00004481
   9 L    65.257 -146.552 -176.685   -1.155   16.609   14.624 S_00004481
  10 L   -54.358  155.860 -174.163    2.109   18.352   15.495 S_00004481
  11 L   -58.133  -24.319 -178.683    5.153   17.546   13.368 S_00004481
  12 L   -60.695  -23.822  179.834    6.505   15.484   16.262 S_00004481
  13 L   -68.682  -27.268 -178.543    3.927   12.843   15.347 S_00004481
  14 L   -79.516  157.543 -178.466    5.711   12.265   12.039 S_00004481
  15 E   -71.473  127.868 -176.568    8.765   10.030   11.672 S_00004481
  16 E  -106.367  -29.598 -179.969   12.009   11.942   12.199 S_00004481
  17 E  -155.816  137.979  170.969   14.530    9.097   12.130 S_00004481
  18 E  -124.528  107.644  179.083   14.622    5.377   11.376 S_00004481
  19 E   -91.038  118.750 -179.233   17.718    3.541   12.600 S_00004481
  20 E  -123.425  124.953 -179.566   18.222    0.166   10.923 S_00004481
  21 E  -129.620  145.039   -3.821   21.084   -2.208   11.716 S_00004481
  22 L   -81.200  137.136  166.550   23.060   -3.533   10.294 S_00004481
  23 L  -168.088   73.575  173.945   23.118   -0.980    7.494 S_00004481
  24 L   -63.975  -30.397  175.896   26.079    1.401    7.488 S_00004481
  25 L  -131.020  159.407 -176.974   25.423    1.794    3.765 S_00004481
  26 L  -112.882  149.528    2.340   22.344    1.508    1.555 S_00004481
  27 L   -78.110  158.681  177.566   20.628   -0.387    0.485 S_00004481
  28 E   -62.497  150.002 -175.252   20.707   -2.585    3.586 S_00004481
  29 E  -142.654  128.866 -174.019   21.801   -6.187    3.063 S_00004481
  30 E  -136.457  125.387 -178.676   21.208   -9.253    5.227 S_00004481
  31 L   -79.847  168.761 -179.724   22.369  -12.833    4.688 S_00004481
  32 L   -60.007  136.348  175.118   20.380  -15.979    5.465 S_00004481
  33 L    95.118   -9.637 -177.703   19.888  -16.701    9.163 S_00004481
  34 L  -105.692  159.976 -175.111   20.320  -13.053   10.141 S_00004481
  35 E  -124.422  143.067  168.895   17.732  -10.491   11.228 S_00004481
  36 E   -94.873  125.042  172.403   17.175   -6.788   10.622 S_00004481
  37 E  -101.521  124.986 -176.248   16.121   -4.771   13.663 S_00004481
  38 E  -111.659  121.289 -175.669   14.313   -1.525   12.861 S_00004481
  39 E  -120.238  118.729 -177.411   14.148    1.231   15.473 S_00004481
  40 E  -121.165  114.856 -179.112   12.042    4.354   14.958 S_00004481
  41 E  -101.038  123.021 -179.977   12.040    7.136   17.549 S_00004481
  42 E  -155.451  157.676  179.970    9.229    9.693   17.418 S_00004481
  43 E  -129.922  131.171  179.722    6.950   11.729   19.679 S_00004481
  44 E  -164.006  168.859  170.640    3.284   12.583   19.145 S_00004481
  45 L  -104.113   17.904 -177.702   -0.209   12.558   20.632 S_00004481
  46 L   -74.497  -24.458 -172.206   -1.483   10.574   17.650 S_00004481
  47 L   -87.736  123.294  178.990   -1.257    7.275   19.518 S_00004481
  48 L  -139.210  162.954  179.101   -4.289    6.213   21.553 S_00004481
  49 L   -55.588  -26.300 -174.396   -5.838    3.043   22.969 S_00004481
  50 L   -93.359   11.105  178.325   -8.419    3.307   20.193 S_00004481
  51 E   -90.200  127.292 -177.159   -5.769    3.251   17.467 S_00004481
  52 E  -113.593  134.880 -175.517   -5.723    0.110   15.326 S_00004481
  53 E  -110.017  127.809  174.838   -2.759   -1.033   13.241 S_00004481
  54 E  -118.770  130.105 -175.025   -3.012   -3.039   10.023 S_00004481
  55 E  -115.750  112.310 -173.952    0.084   -4.461    8.340 S_00004481
  56 E  -131.981  139.993  178.625   -0.183   -5.367    4.659 S_00004481
  57 E  -152.256  159.138  172.360    2.367   -6.152    1.950 S_00004481
  58 E   -95.996  117.685  178.396    2.759   -7.868   -1.415 S_00004481
  59 E  -106.297   91.544  177.561    4.938  -10.977   -1.218 S_00004481
  60 L    54.907   41.355  167.031    5.874  -12.008   -4.756 S_00004481
  61 L   108.117  -20.677 -176.972    2.378  -11.439   -6.107 S_00004481
  62 E  -110.165  122.257  174.074    0.357  -12.694   -3.142 S_00004481
  63 E   -66.464  120.630  179.804   -1.031  -10.373   -0.473 S_00004481
  64 E  -131.673  125.016 -177.660   -0.065  -11.777    2.926 S_00004481
  65 E   -54.973  129.946  176.283   -0.938  -10.217    6.280 S_00004481
  66 L  -108.969  113.783  178.799    2.121   -8.870    8.090 S_00004481
  67 L   -88.823   79.548 -169.229    1.899   -8.843   11.885 S_00004481
  68 L   -51.415  148.723 -174.542    4.579   -6.219   12.462 S_00004481
  69 L   -50.267  121.204  177.616    6.819   -6.737   15.487 S_00004481
  70 L  -108.475  125.374 -178.572    4.867   -5.854   18.628 S_00004481
  71 L  -152.281  114.227 -167.807    6.772   -4.983   21.801 S_00004481
  72 L   -66.129  137.971 -174.815    5.322   -2.920   24.633 S_00004481
  73 H   -63.010  -25.615 -177.097    7.163    0.292   25.487 S_00004481
  74 H   -72.077  -20.630 -179.351    6.873   -0.516   29.190 S_00004481
  75 H  -107.757   13.066 -175.554    9.052   -3.593   28.702 S_00004481
  76 L  -120.092   35.670  173.159   11.535   -1.861   26.405 S_00004481
  77 L    94.855   -0.615  177.800   13.541    0.168   28.914 S_00004481
  78 L   -99.632  120.414  176.794   10.734    2.633   29.616 S_00004481
  79 L   -81.567   99.994  177.195    9.545    2.888   33.218 S_00004481
  80 L   -85.564  154.747   10.261    5.777    3.342   32.986 S_00004481
  81 L   -77.187  154.453  177.922    3.627    5.011   33.549 S_00004481
  82 L   -79.466  119.258 -177.513    5.111    7.628   31.225 S_00004481
  83 L   -88.268  152.434 -179.849    4.968   11.055   32.864 S_00004481
  84 L   -65.368  144.668 -178.968    4.457   14.329   31.001 S_00004481
  85 L    95.846  -25.616 -176.409    7.588   16.269   30.061 S_00004481
  86 L   -68.620  156.021  175.284    9.603   13.061   29.751 S_00004481
  87 E   -90.018  112.236 -175.077   11.462   12.101   26.578 S_00004481
  88 E   -98.060  114.704  177.959    9.693    9.116   25.028 S_00004481
  89 E  -115.638  114.995 -179.127   11.779    6.932   22.719 S_00004481
  90 E   -94.955  116.919  177.286   10.059    3.966   21.076 S_00004481
  91 E  -109.761  130.054  176.918   12.375    1.170   19.949 S_00004481
  92 E  -135.493  155.368 -179.542   11.155   -1.761   17.858 S_00004481
  93 E  -145.859  126.246 -175.097   12.803   -4.622   15.973 S_00004481
  94 E  -101.411  129.596  172.241   11.283   -6.939   13.372 S_00004481
  95 E   -81.330  161.428  176.816   12.337  -10.551   12.856 S_00004481
  96 L  -118.570  103.387 -178.351   12.341  -12.225    9.443 S_00004481
  97 L   -56.627  148.820  179.735   10.590  -15.600    9.400 S_00004481
  98 L   -79.646   -5.570  178.121   12.276  -18.400    7.457 S_00004481
  99 L   -80.341  -12.380  179.577    8.934  -19.094    5.782 S_00004481
 100 L   -90.149  153.540 -178.529    9.409  -15.956    3.689 S_00004481
 101 L   -67.888  145.901 -172.844   11.327  -15.843    0.408 S_00004481
 102 L   -81.869   56.661 -176.116   14.993  -14.874    0.634 S_00004481
 103 L  -138.555 -176.455  171.592   14.533  -11.646   -1.320 S_00004481
 104 E   -65.621  125.020  176.812   13.598   -7.979   -1.009 S_00004481
 105 E  -130.857  132.725  179.374   10.218   -7.660    0.702 S_00004481
 106 E  -107.859  138.404  177.308    8.256   -4.478    1.399 S_00004481
 107 E  -124.977  131.784  174.911    5.671   -4.059    4.155 S_00004481
 108 E  -125.494  129.890  175.370    3.137   -1.253    4.540 S_00004481
 109 E  -137.494  156.642  173.024    0.764   -0.775    7.470 S_00004481
 110 E  -138.532  136.812  173.756   -1.405    1.994    8.906 S_00004481
 111 E   -88.638  129.689  178.848   -2.971    2.441   12.338 S_00004481
 112 E  -107.560  120.827  172.244   -6.575    3.653   12.337 S_00004481
 113 E   -87.966  115.014 -178.824   -7.965    5.597   15.289 S_00004481
 114 L   -56.243  -27.832  174.091  -11.709    4.979   15.517 S_00004481
 115 L   -88.297  100.849  177.354  -11.903    8.447   17.056 S_00004481
 116 L    99.970  -17.673  178.104  -11.430   10.888   14.180 S_00004481
 117 L    60.380   41.396  175.168  -10.482    8.154   11.713 S_00004481
 118 E   -86.717  143.047 -172.205   -6.844    9.247   11.600 S_00004481
 119 E  -147.468  160.443  173.670   -4.377    6.893    9.927 S_00004481
 120 E  -133.532  148.451 -179.016   -0.786    6.529    8.742 S_00004481
 121 E  -107.080  123.610 -171.812    0.739    4.668    5.798 S_00004481
 122 E  -115.490  145.608  169.264    3.854    2.606    6.481 S_00004481
 123 E  -150.715  131.458  176.722    6.447    0.875    4.319 S_00004481
 124 E  -113.575  112.379  178.007    9.737   -0.794    5.239 S_00004481
 125 E   -67.587  136.140 -173.881   12.218   -1.339    2.410 S_00004481
 126 E  -133.630  137.822  172.342   13.892   -4.746    2.579 S_00004481
 127 E  -133.142  132.433 -176.672   16.865   -6.389    0.880 S_00004481
 128 E  -125.475  125.092  176.341   17.928  -10.013    1.319 S_00004481
 129 E   -94.998  131.887 -177.309   21.179  -11.601    0.156 S_00004481
 130 E  -139.822  114.180 -175.077   21.103  -15.313   -0.662 S_00004481
SCORE:  -213.812     16.349    -20.057    -12.557    -42.447     38.042     23.313      0.000   -188.666    -28.476      0.686 43.057      5.601    106.000            1.000         0.000    385.000  S_00000285
ANNOTATED_SEQUENCE: E[GLU:NtermProteinFull]PVKFKDCGSWVGVIKEVNVSPCPTQPCKLHRGQSYSVNVTFTSNTQSQSSKAVVHGIVMGIPVPFPIPESDGCKSGIRCPIEKDKTYNYVNKLPVKNEYPSIKVVVEWELTDDKNQRFFCWQIPIEVEA[ALA:CtermProteinFull] S_00000285
   1 L    52.020   55.967 -176.127    1.458    0.000    0.000 S_00000285
   2 L   -73.154  -17.178  169.736    1.985    3.613    1.058 S_00000285
   3 E  -120.007  144.400 -175.445    5.452    2.629    2.246 S_00000285
   4 E  -115.346  123.395  176.581    7.962    0.653    0.187 S_00000285
   5 E   -94.999  143.969  170.793   10.422   -1.850    1.647 S_00000285
   6 E  -137.106  119.306  179.527   13.662   -2.917   -0.020 S_00000285
   7 E    58.725   48.794 -179.619   15.854   -5.702    1.356 S_00000285
   8 L   -68.059  -20.030 -178.911   14.102   -5.675    4.730 S_00000285
   9 L    64.994 -125.907 -179.044   15.688   -9.054    5.449 S_00000285
  10 L   -85.186    2.243  172.529   14.285  -10.568    8.643 S_00000285
  11 L   -96.580    8.098 -177.348   12.444   -7.310    9.293 S_00000285
  12 L   -51.377  125.706  172.769   10.250   -8.004    6.266 S_00000285
  13 E  -157.186  163.043  179.371    6.708   -6.733    6.782 S_00000285
  14 E  -121.748  123.073  178.735    3.805   -5.169    4.890 S_00000285
  15 E   -72.952  129.048  179.437    2.003   -2.034    6.067 S_00000285
  16 E   -78.189  -46.212 -174.276   -1.784   -2.362    6.001 S_00000285
  17 E  -155.990  143.649  178.527   -2.662    1.320    6.340 S_00000285
  18 E  -119.232  125.999 -175.340   -0.968    4.667    6.958 S_00000285
  19 E  -109.974  120.705 -176.416   -2.704    7.430    8.907 S_00000285
  20 E  -123.425  124.953 -179.566   -1.591   11.035    8.447 S_00000285
  21 E  -129.620  145.039   -3.821   -3.002   14.022   10.330 S_00000285
  22 L   -81.200  137.136  166.550   -4.112   16.477    9.678 S_00000285
  23 L  -168.088   73.575  173.945   -5.348   15.310    6.291 S_00000285
  24 L   -63.975  -30.397  175.896   -9.082   14.654    6.030 S_00000285
  25 L  -131.020  159.407 -176.974   -8.665   15.271    2.302 S_00000285
  26 L  -112.882  149.528    2.340   -5.800   14.868   -0.163 S_00000285
  27 L   -78.110  158.681  177.566   -3.388   16.032   -0.872 S_00000285
  28 E   -62.497  150.002 -175.252   -2.442   16.865    2.714 S_00000285
  29 E  -142.654  128.866 -174.019   -1.707   20.521    3.451 S_00000285
  30 E  -156.687  142.868 -174.267    0.247   22.087    6.309 S_00000285
  31 E   -83.670  153.126  170.509    2.130   25.315    7.000 S_00000285
  32 L   -49.717  138.961  176.955    5.832   25.710    7.739 S_00000285
  33 L    96.174  -14.142  176.558    6.585   25.341   11.447 S_00000285
  34 L  -105.692  159.976 -175.111    3.890   22.700   11.912 S_00000285
  35 E  -124.422  143.067  168.895    4.299   18.922   11.929 S_00000285
  36 E   -76.963  146.019  165.971    2.298   15.982   10.607 S_00000285
  37 E   -98.718  118.899 -172.481    1.374   13.120   12.912 S_00000285
  38 E  -112.478  117.055  177.146    2.134    9.855   11.127 S_00000285
  39 E  -115.940  110.583 -175.149    0.657    6.542   12.265 S_00000285
  40 E  -110.011  130.307 -177.434    1.776    3.535   10.228 S_00000285
  41 E   -94.919  124.929 -175.181    0.311    0.054   10.664 S_00000285
  42 E  -150.007  155.002  175.890    2.763   -2.839   10.401 S_00000285
  43 E  -109.886  127.305 -178.355    3.352   -6.392   11.613 S_00000285
  44 E   -74.943  143.851  175.267    6.671   -7.281   13.242 S_00000285
  45 L  -111.121   18.261 -178.095    8.618  -10.337   12.094 S_00000285
  46 L  -159.655  165.214  170.444   10.933  -10.301   15.109 S_00000285
  47 L  -106.767  125.300  179.535   11.247   -9.536   18.814 S_00000285
  48 L  -168.014  143.412  179.663   13.382   -6.535   19.760 S_00000285
  49 L   -85.121  -21.070  178.971   13.268   -3.487   22.029 S_00000285
  50 L  -147.829  121.843  176.512   15.251   -1.390   19.554 S_00000285
  51 L  -104.035  159.874  173.172   15.567   -1.730   15.781 S_00000285
  52 E   -91.690  123.015 -173.016   17.928   -0.008   13.354 S_00000285
  53 E  -155.950  165.000  176.110   16.035    2.370   11.076 S_00000285
  54 E  -134.304  124.969  175.893   16.083    5.761    9.358 S_00000285
  55 E  -106.746  114.858 -177.086   13.242    8.281    9.212 S_00000285
  56 E  -126.658  126.902 -177.436   13.650   10.901    6.488 S_00000285
  57 E  -127.707  162.045 -172.147   11.086   13.544    5.543 S_00000285
  58 E  -135.428  120.865  178.072   10.921   16.399    3.044 S_00000285
  59 E  -100.672  111.661  179.873    9.303   19.819    3.418 S_00000285
  60 L    54.770   35.494  174.427    8.473   21.442    0.081 S_00000285
  61 L    98.606  -15.347 -176.028   11.235   19.408   -1.554 S_00000285
  62 E  -102.501  119.265 -175.819   13.770   20.140    1.183 S_00000285
  63 E   -55.455  139.083 -179.513   14.737   17.237    3.438 S_00000285
  64 E  -100.147  148.723 -178.387   13.822   17.719    7.097 S_00000285
  65 E   -72.367  153.754  176.040   16.079   16.954   10.059 S_00000285
  66 L  -111.623   99.477 -175.806   15.452   14.008   12.378 S_00000285
  67 L   -60.428  133.047  175.413   15.773   15.151   15.989 S_00000285
  68 L   -83.963  145.775  178.625   17.577   12.716   18.282 S_00000285
  69 L   -62.988  117.613  179.994   16.061   11.793   21.645 S_00000285
  70 L   -97.739   10.216  178.084   17.643   14.045   24.269 S_00000285
  71 L  -124.418  156.604 -179.277   15.876   12.215   27.094 S_00000285
  72 L   -75.392  -34.958 -177.968   16.337    8.790   28.679 S_00000285
  73 L  -154.154  169.934  179.977   12.619    7.999   28.672 S_00000285
  74 L   -83.228  112.647 -177.923    9.166    9.430   27.976 S_00000285
  75 L   -55.306  -30.812 -175.545    8.040   11.492   30.965 S_00000285
  76 L   -61.393  -25.706  179.904    4.437   10.894   29.915 S_00000285
  77 L    77.870   11.165 -179.384    4.815    7.257   30.955 S_00000285
  78 L   -87.001  137.701  176.944    2.970    6.240   27.790 S_00000285
  79 L   -88.246  124.989 -179.791    3.955    3.080   25.921 S_00000285
  80 L  -125.536   79.817  177.468    4.491    3.575   22.189 S_00000285
  81 L   -69.423  150.715 -179.865    5.337    0.260   20.531 S_00000285
  82 L   -72.794  -35.003  173.365    6.341    0.257   16.864 S_00000285
  83 E  -134.390  144.990  171.719    3.904   -2.565   16.137 S_00000285
  84 E  -133.004   85.011 -175.662    0.872   -3.944   17.960 S_00000285
  85 L    65.784 -116.677  178.495   -0.289   -7.106   16.199 S_00000285
  86 L   -92.130   -4.186 -177.779   -2.004   -5.983   12.997 S_00000285
  87 E  -107.180  131.534  178.307   -2.095   -2.379   14.204 S_00000285
  88 E  -127.451  124.794  165.506    0.828    0.026   13.844 S_00000285
  89 E  -102.787  128.242 -179.424    1.197    3.556   15.167 S_00000285
  90 E  -109.461  135.533 -177.604    4.121    5.496   13.704 S_00000285
  91 E  -108.778  127.350 -178.831    5.726    8.485   15.420 S_00000285
  92 E  -151.167  139.106  172.753    7.306   11.312   13.428 S_00000285
  93 E  -119.492  118.455 -174.702    8.096   14.998   13.897 S_00000285
  94 E  -124.582  103.811  178.321    8.521   17.054   10.730 S_00000285
  95 E   -70.837  131.380  170.218    9.340   20.757   11.003 S_00000285
  96 L   -86.887  103.979 -169.041    8.056   22.983    8.210 S_00000285
  97 L   -91.192  156.769  177.205   11.083   25.186    7.593 S_00000285
  98 L   -65.042  -22.142  176.715   11.323   28.622    5.984 S_00000285
  99 L   -62.957  -30.038 -179.246   13.730   27.007    3.524 S_00000285
 100 L   -70.208  134.981  175.277   10.760   25.120    2.083 S_00000285
 101 L   -67.888  145.901 -172.844    8.962   26.760   -0.837 S_00000285
 102 L   -81.869   56.661 -176.116    5.379   27.794   -0.116 S_00000285
 103 L  -138.555 -176.455  171.592    3.884   25.265   -2.527 S_00000285
 104 E   -65.621  125.020  176.812    2.721   21.665   -2.866 S_00000285
 105 E  -136.055  167.855  176.810    5.517   19.313   -1.816 S_00000285
 106 E  -123.644  129.053  173.690    6.018   15.649   -0.935 S_00000285
 107 E   -94.857  128.628 -178.196    7.784   14.290    2.142 S_00000285
 108 E  -111.535  113.371 -171.441    9.512   10.936    1.682 S_00000285
 109 E  -102.937  106.713 -175.997   10.045    8.966    4.884 S_00000285
 110 E   -96.724  121.201  167.107   12.714    6.272    4.621 S_00000285
 111 E   -95.390  114.756 -169.350   13.012    3.519    7.210 S_00000285
 112 E  -152.651  164.977  171.530   16.506    2.101    6.788 S_00000285
 113 E   -80.480  155.650  179.337   19.675    0.910    8.506 S_00000285
 114 L   -56.730  -26.167 -173.695   22.532    3.329    9.174 S_00000285
 115 L   -86.246    0.797  163.656   24.571    1.342    6.657 S_00000285
 116 L   103.647   16.591  177.784   22.224    2.430    3.895 S_00000285
 117 L   -91.676  111.363  179.189   19.860   -0.535    3.616 S_00000285
 118 E   -69.267  132.515  170.562   16.308    0.625    2.915 S_00000285
 119 E  -100.186  -49.877 -177.669   13.530   -1.181    4.767 S_00000285
 120 E  -153.609  144.320  176.162   10.522    0.961    3.867 S_00000285
 121 E  -116.089  119.147  176.985    9.747    4.289    2.202 S_00000285
 122 E   -97.601  126.889  178.091    6.810    6.371    3.425 S_00000285
 123 E  -112.074  123.738 -176.035    5.383    8.981    1.057 S_00000285
 124 E  -121.851  115.850  174.276    3.190   11.738    2.483 S_00000285
 125 E   -66.423  112.682 -176.240    1.266   14.224    0.347 S_00000285
 126 E  -147.372  127.327  176.059    1.887   17.569    2.042 S_00000285
 127 E  -119.420  135.858 -174.758    1.740   21.169    0.831 S_00000285
 128 E  -125.009  120.930 -176.673    3.031   24.125    2.840 S_00000285
 129 E  -119.871  146.990  174.290    2.089   27.740    2.134 S_00000285
 130 L  -155.003  164.466  176.574    3.112   31.047    3.701 S_00000285
SCORE:  -247.245     13.788     -5.757    -18.740    -17.257     38.339     23.959      0.000   -223.481    -58.783      0.686 32.923      5.294    109.000            0.000         0.000    715.000  S_00000790
ANNOTATED_SEQUENCE: E[GLU:NtermProteinFull]PVKFKDCGSWVGVIKEVNVSPCPTQPCKLHRGQSYSVNVTFTSNTQSQSSKAVVHGIVMGIPVPFPIPESDGCKSGIRCPIEKDKTYNYVNKLPVKNEYPSIKVVVEWELTDDKNQRFFCWQIPIEVEA[ALA:CtermProteinFull] S_00000790
   1 L   -59.626  136.755 -178.449    1.458    0.000    0.000 S_00000790
   2 L   -74.452  149.402  179.079    3.629    2.977    0.937 S_00000790
   3 E   -99.797  131.700  176.861    5.353    5.047   -1.746 S_00000790
   4 E   -64.720  142.459 -174.941    9.104    5.659   -1.638 S_00000790
   5 E  -108.947  136.424 -174.873   10.069    9.320   -1.312 S_00000790
   6 E  -135.622  116.104  179.540   12.753   11.029   -3.391 S_00000790
   7 E   -62.574  137.921 -179.440   14.037   14.574   -2.907 S_00000790
   8 L   -87.215  155.781  179.869   14.045   16.677   -6.074 S_00000790
   9 L   -77.180  174.937  177.755   17.058   18.564   -7.421 S_00000790
  10 L   -68.183   -7.889  178.972   17.469   22.340   -7.590 S_00000790
  11 L   -84.463  130.085 -178.119   16.277   21.982  -11.183 S_00000790
  12 L   -74.790  129.529  165.740   12.613   22.810  -11.769 S_00000790
  13 L    97.008  -10.096  177.119   10.356   20.180  -13.299 S_00000790
  14 L   -92.930  150.019  176.427   12.777   17.264  -13.014 S_00000790
  15 E  -111.806  124.931 -174.925   12.254   14.250  -10.757 S_00000790
  16 E  -114.901  131.989  173.045   15.251   12.891   -8.858 S_00000790
  17 E  -109.440  130.740 -176.539   15.608    9.536   -7.112 S_00000790
  18 E  -115.157  105.839 -177.002   18.310    9.120   -4.470 S_00000790
  19 E  -103.661  113.508  179.322   19.340    5.537   -3.731 S_00000790
  20 E  -123.425  124.953 -179.566   21.694    5.037   -0.787 S_00000790
  21 E  -129.620  145.039   -3.821   22.697    1.624    0.554 S_00000790
  22 L   -81.200  137.136  166.550   22.677    0.334    3.007 S_00000790
  23 L  -168.088   73.575  173.945   19.800    2.397    4.360 S_00000790
  24 L   -63.975  -30.397  175.896   16.434    0.641    4.511 S_00000790
  25 L  -131.020  159.407 -176.974   15.547    3.138    7.235 S_00000790
  26 L  -112.882  149.528    2.340   16.643    6.683    8.063 S_00000790
  27 L   -57.645  152.238  178.072   18.803    8.088    9.082 S_00000790
  28 E   -74.427  114.589 -175.424   20.584    5.922    6.515 S_00000790
  29 E   -77.533  114.121  173.017   23.189    3.899    8.405 S_00000790
  30 E   -94.313  112.878 -178.403   26.579    3.903    6.692 S_00000790
  31 E   -85.421  107.250 -178.794   28.663    0.995    7.978 S_00000790
  32 L   -50.090  132.593  177.217   32.323    2.027    7.961 S_00000790
  33 L    85.802    5.917  179.617   34.464   -0.347    5.904 S_00000790
  34 E  -118.810  153.962 -178.427   31.418   -1.565    3.983 S_00000790
  35 E   -76.421  135.355  176.479   30.245   -0.897    0.428 S_00000790
  36 E  -121.497  115.862 -170.845   27.417    1.595   -0.063 S_00000790
  37 E  -110.486  112.302  178.889   25.597    1.425   -3.391 S_00000790
  38 E  -110.789  135.173  178.164   23.361    4.302   -4.475 S_00000790
  39 E  -120.491  105.901 -175.002   21.346    4.363   -7.699 S_00000790
  40 E   -93.499  113.783  174.626   20.087    7.807   -8.697 S_00000790
  41 E   -90.034  114.053 -178.492   17.201    7.871  -11.169 S_00000790
  42 E  -109.876  137.420  161.156   17.100   11.239  -12.931 S_00000790
  43 E  -115.482  108.584 -169.097   14.561   12.741  -15.291 S_00000790
  44 L   -82.392  165.136  177.568   16.207   15.821  -16.775 S_00000790
  45 L  -100.468 -163.381 -172.632   14.620   18.996  -18.134 S_00000790
  46 L   -68.577  -18.965  179.594   15.115   20.963  -21.346 S_00000790
  47 L   -63.355  152.717 -169.221   18.520   22.136  -20.126 S_00000790
  48 L  -108.283    0.017 -170.812   21.539   20.511  -21.751 S_00000790
  49 L  -120.030  160.065  170.883   24.009   20.749  -18.878 S_00000790
  50 L  -108.366  161.037  173.760   24.661   19.151  -15.496 S_00000790
  51 L   -90.165  148.656  174.562   25.628   20.784  -12.204 S_00000790
  52 E   -99.262  128.321  177.606   28.975   20.174  -10.512 S_00000790
  53 E  -132.298  160.045  174.455   28.964   19.223   -6.832 S_00000790
  54 E  -125.468  129.919  177.738   31.452   17.949   -4.257 S_00000790
  55 E  -102.217  127.176  178.605   30.665   15.430   -1.521 S_00000790
  56 E  -132.742  132.690  177.216   32.692   15.504    1.695 S_00000790
  57 E  -109.553  137.000  178.603   32.292   13.423    4.852 S_00000790
  58 E  -124.776  119.168 -179.903   33.594   14.470    8.267 S_00000790
  59 E  -124.388  114.250  179.163   33.875   12.007   11.149 S_00000790
  60 L    70.906   22.414  178.305   35.283   13.089   14.511 S_00000790
  61 L    88.185    5.379  179.029   36.591   16.282   12.914 S_00000790
  62 E  -106.826  129.663 -178.531   38.523   14.302   10.305 S_00000790
  63 E   -70.950  138.268  173.043   37.828   14.791    6.599 S_00000790
  64 E  -125.056  122.506 -171.868   36.871   11.761    4.517 S_00000790
  65 E   -74.540  127.710 -168.660   37.122   12.007    0.736 S_00000790
  66 E  -129.674  132.400  169.800   33.851   11.104   -0.960 S_00000790
  67 E  -105.766  129.153  178.687   32.730   10.511   -4.537 S_00000790
  68 L   -79.663  152.651  177.058   29.029   10.897   -5.319 S_00000790
  69 L   -65.512  126.750 -179.389   27.141    8.427   -7.507 S_00000790
  70 L    75.005   24.907 -176.928   27.165    9.574  -11.132 S_00000790
  71 L   -55.057  -34.477 -174.898   29.714   12.254  -10.255 S_00000790
  72 L   -83.038  163.115  173.651   31.037   12.171  -13.816 S_00000790
  73 L   -65.056  146.355  178.935   29.385   13.477  -16.979 S_00000790
  74 L   -77.621   -4.145  175.122   27.088   11.047  -18.787 S_00000790
  75 L   -99.750   -1.812 -179.246   28.979   11.934  -21.961 S_00000790
  76 L  -136.282  115.010 -175.312   32.284   10.838  -20.434 S_00000790
  77 L    70.768   11.746  175.298   32.847    7.334  -19.073 S_00000790
  78 L   -93.848  121.156 -177.344   29.098    6.855  -19.469 S_00000790
  79 L   -82.311  -40.877 -178.542   28.195    3.505  -21.023 S_00000790
  80 L  -126.586   72.421 -178.983   24.440    4.046  -21.281 S_00000790
  81 L   -73.050  154.124 -175.808   23.811    7.790  -21.480 S_00000790
  82 L  -100.649  151.304  165.778   20.262    9.131  -21.724 S_00000790
  83 L   -79.127  153.315 -179.305   18.575   11.408  -24.238 S_00000790
  84 L   -54.202  130.694  175.528   17.040   14.629  -22.926 S_00000790
  85 L    95.009  -15.262 -176.097   13.693   14.051  -21.218 S_00000790
  86 L   -89.143  176.348 -175.626   14.334   10.326  -20.813 S_00000790
  87 E  -108.361  116.575 -174.592   14.965    8.279  -17.673 S_00000790
  88 E  -126.645  128.992 -178.799   18.565    7.311  -16.938 S_00000790
  89 E  -122.264  123.414  177.535   19.905    5.443  -13.909 S_00000790
  90 E  -119.317  119.207  177.520   23.595    5.067  -13.074 S_00000790
  91 E   -72.550  149.694  176.444   24.727    2.905  -10.159 S_00000790
  92 E  -154.035  153.074 -179.274   27.620    4.034   -7.968 S_00000790
  93 E  -127.434  129.810  173.615   29.451    2.914   -4.829 S_00000790
  94 E  -109.099  120.699  176.846   31.095    5.027   -2.133 S_00000790
  95 E   -83.579  138.376  175.886   33.642    3.335    0.124 S_00000790
  96 E   -85.601  129.358  177.206   33.932    4.463    3.743 S_00000790
  97 L   -53.216  131.950 -173.395   37.425    5.410    4.905 S_00000790
  98 L   -67.520  -21.830  179.188   38.759    2.646    7.145 S_00000790
  99 L   -94.006    2.109  178.556   40.014    5.240    9.625 S_00000790
 100 L   -66.647  127.601  177.239   36.605    6.921    9.707 S_00000790
 101 L   -54.994  140.191 -177.886   35.181    7.131   13.226 S_00000790
 102 L   -81.869   56.661 -176.116   32.268    4.753   13.785 S_00000790
 103 L  -138.555 -176.455  171.592   29.890    7.604   14.599 S_00000790
 104 E   -65.621  125.020  176.812   27.518   10.150   13.078 S_00000790
 105 E  -114.073  144.602  173.618   29.336   12.161   10.413 S_00000790
 106 E  -109.203  114.626 -179.738   28.324   15.451    8.805 S_00000790
 107 E  -104.462  118.762  178.448   29.324   15.789    5.152 S_00000790
 108 E   -86.812  106.419 -175.732   29.128   19.246    3.583 S_00000790
 109 E   -89.294   99.571 -179.181   28.247   18.731   -0.078 S_00000790
 110 E   -83.772  110.431  174.145   29.497   21.757   -2.011 S_00000790
 111 E  -117.273  154.000  179.038   27.724   22.095   -5.354 S_00000790
 112 E  -120.013  127.351  170.267   27.762   24.960   -7.854 S_00000790
 113 E  -102.949  108.290 -176.920   24.856   26.163   -9.978 S_00000790
 114 L   -70.435  -51.590 -179.933   26.236   28.196  -12.879 S_00000790
 115 L   -66.793  -22.521  178.687   22.914   29.149  -14.465 S_00000790
 116 L   -97.285   -6.586  176.810   21.610   29.860  -10.965 S_00000790
 117 L    52.090   44.376 -174.864   24.752   31.775  -10.010 S_00000790
 118 E  -137.597  140.005  169.759   24.694   30.107   -6.596 S_00000790
 119 E  -109.425  108.772 -172.956   27.068   28.095   -4.424 S_00000790
 120 E   -90.000  108.971  171.485   25.035   25.770   -2.212 S_00000790
 121 E  -114.919  118.828 -179.959   26.678   24.842    1.083 S_00000790
 122 E  -139.068  169.609  175.221   24.543   22.917    3.571 S_00000790
 123 E  -104.698  131.094  176.281   24.807   20.308    6.322 S_00000790
 124 E  -109.671  140.728  173.950   23.482   16.784    5.800 S_00000790
 125 E   -78.203  122.037 -176.746   22.648   14.268    8.522 S_00000790
 126 E  -127.845  122.433  178.161   24.734   11.131    8.017 S_00000790
 127 E  -104.524  113.379 -177.889   24.484    7.926   10.047 S_00000790
 128 E  -124.988  125.115  177.423   27.549    5.694    9.777 S_00000790
 129 E  -121.918  130.555  175.759   28.183    2.509   11.755 S_00000790
 130 L  -131.045  141.476 -175.886   31.330    0.382   11.618 S_00000790
SCORE:  -144.158     17.717      0.419    -22.397    -35.591     37.336     24.102      0.000   -142.792    -26.020      3.069 35.150      6.908     84.000            1.000         1.000    626.000  S_00006762
ANNOTATED_SEQUENCE: E[GLU:NtermProteinFull]PVKFKDCGSWVGVIKEVNVSPCPTQPCKLHRGQSYSVNVTFTSNTQSQSSKAVVHGIVMGIPVPFPIPESDGCKSGIRCPIEKDKTYNYVNKLPVKNEYPSIKVVVEWELTDDKNQRFFCWQIPIEVEA[ALA:CtermProteinFull] S_00006762
   1 L   -86.878  168.902 -176.322    1.458    0.000    0.000 S_00006762
   2 L   -58.356  -34.793 -177.210    3.950    2.851    0.335 S_00006762
   3 E  -137.249  173.520 -178.585    3.599    3.654   -3.364 S_00006762
   4 E  -112.259  131.804  179.987    1.401    2.912   -6.376 S_00006762
   5 E  -119.778  123.427  179.400    2.450    0.696   -9.282 S_00006762
   6 E  -137.163  145.495  174.740    0.590    0.631  -12.597 S_00006762
   7 E    64.107   65.684 -179.982    1.333   -0.637  -16.102 S_00006762
   8 L  -110.760  145.012  176.734    4.224   -3.017  -15.447 S_00006762
   9 L   -86.666  -21.149 -179.676    5.834   -5.490  -17.844 S_00006762
  10 L  -164.754  157.696  178.775    7.118   -7.623  -14.970 S_00006762
  11 L   -57.009  -29.054 -177.701    7.286   -7.849  -11.179 S_00006762
  12 L   -60.196  136.938 -177.254   10.946   -6.863  -11.469 S_00006762
  13 L   103.690   -4.915 -176.821   11.623   -3.249  -10.501 S_00006762
  14 L   -70.019  132.705  178.131    9.148   -3.373   -7.618 S_00006762
  15 L   -88.328  122.887 -172.929   10.038   -1.235   -4.604 S_00006762
  16 L   -73.086  -43.318 -175.456    9.742   -3.185   -1.358 S_00006762
  17 E  -135.539  138.753  166.021    9.640   -0.252    1.058 S_00006762
  18 E  -130.566  123.855  175.176    8.977    3.475    0.909 S_00006762
  19 E  -128.378  121.474 -179.429    9.369    5.727    3.946 S_00006762
  20 E  -123.425  124.953 -179.566    9.029    9.507    3.724 S_00006762
  21 E  -129.620  145.039   -3.821    9.464   11.864    6.675 S_00006762
  22 L   -81.200  137.136  166.550    7.992   13.878    7.883 S_00006762
  23 L  -168.088   73.575  173.945    4.659   12.484    6.739 S_00006762
  24 L   -63.975  -30.397  175.896    2.601   10.723    9.404 S_00006762
  25 L  -131.020  159.407 -176.974   -0.417   11.541    7.244 S_00006762
  26 L  -112.882  149.528    2.340   -0.960   12.104    3.524 S_00006762
  27 L   -78.110  158.681  177.566   -0.476   13.971    1.534 S_00006762
  28 E   -62.497  150.002 -175.252    2.923   14.953    2.926 S_00006762
  29 E  -142.654  128.866 -174.019    3.406   18.636    3.731 S_00006762
  30 E  -156.687  142.868 -174.267    6.607   20.646    4.126 S_00006762
  31 E   -83.670  153.126  170.509    7.706   24.274    3.873 S_00006762
  32 L   -49.717  138.961  176.955   10.188   25.764    1.417 S_00006762
  33 L    96.174  -14.142  176.558   13.760   25.540    2.701 S_00006762
  34 L  -105.692  159.976 -175.111   13.133   22.189    4.382 S_00006762
  35 E  -124.422  143.067  168.895   13.895   18.719    3.034 S_00006762
  36 E  -106.604  152.705  174.251   12.161   15.345    3.123 S_00006762
  37 E  -123.613  125.133  175.641   13.850   11.950    2.874 S_00006762
  38 E  -101.497  123.384 -179.700   12.184    8.881    1.374 S_00006762
  39 E  -107.442  121.864  178.253   13.594    5.513    2.433 S_00006762
  40 E  -109.596  121.038  177.543   12.906    2.440    0.302 S_00006762
  41 E  -120.005  110.067 -178.002   13.620   -1.011    1.728 S_00006762
  42 E  -115.034  127.315  176.502   13.014   -3.961   -0.593 S_00006762
  43 E  -117.672  115.964  179.644   13.602   -7.597    0.345 S_00006762
  44 E   -73.483  137.739 -179.893   13.438  -10.216   -2.406 S_00006762
  45 L   -59.535  -37.034  170.809   11.734  -13.495   -1.510 S_00006762
  46 L  -110.158  149.876 -174.909   14.676  -15.264   -3.132 S_00006762
  47 L   -55.025  143.242  171.227   18.294  -14.166   -2.751 S_00006762
  48 L   -63.808  -20.389 -177.900   19.665  -11.605   -5.196 S_00006762
  49 L   -54.412  120.672  173.812   22.631  -13.972   -5.421 S_00006762
  50 L    73.690   20.083  179.867   23.011  -15.243   -8.981 S_00006762
  51 L  -127.092  152.266  172.686   19.940  -13.306  -10.110 S_00006762
  52 E  -106.142  136.070  179.503   19.298  -10.262  -12.289 S_00006762
  53 E  -159.371  174.945  176.607   16.847   -7.565  -11.205 S_00006762
  54 E  -125.587  128.217  174.701   16.196   -3.824  -11.027 S_00006762
  55 E  -102.574  112.006  178.059   15.906   -1.743   -7.861 S_00006762
  56 E  -122.714  137.709  179.455   13.907    1.452   -8.363 S_00006762
  57 E  -120.718  127.665 -176.563   12.710    3.887   -5.699 S_00006762
  58 E  -123.498  144.582  162.030    9.891    6.370   -6.280 S_00006762
  59 E  -122.114  117.137 -177.166    8.201    9.147   -4.351 S_00006762
  60 L    53.640   42.528  173.016    4.860   10.212   -5.818 S_00006762
  61 L    95.155   -5.964 -178.288    5.796    8.676   -9.163 S_00006762
  62 E  -101.956  121.864  179.110    9.402    9.871   -9.002 S_00006762
  63 E   -68.805  134.354  178.990   12.167    7.263   -8.910 S_00006762
  64 E   -97.984  112.416 -176.847   14.718    7.767   -6.136 S_00006762
  65 L   -74.963  160.808 -179.192   18.272    7.212   -7.366 S_00006762
  66 L  -125.887  150.337  175.020   21.038    5.705   -5.237 S_00006762
  67 L   -73.269  118.407 -177.563   24.764    6.352   -4.859 S_00006762
  68 L  -102.724  118.316 -179.822   26.614    3.523   -6.599 S_00006762
  69 L   -61.120  160.088  178.969   30.126    2.730   -5.377 S_00006762
  70 L   -87.887    1.343  173.538   32.979    2.317   -7.856 S_00006762
  71 L   -88.934    2.004 -173.445   33.655   -1.129   -6.407 S_00006762
  72 L  -119.772  129.156 -178.662   30.444   -2.325   -8.047 S_00006762
  73 L   -76.093  -33.511  174.875   30.005   -3.336  -11.686 S_00006762
  74 L   -99.245  135.927 -178.970   26.227   -2.970  -11.484 S_00006762
  75 L   -87.157   90.576 -176.235   24.720    0.366  -10.458 S_00006762
  76 L  -119.201  158.219 -176.907   22.264   -0.651   -7.741 S_00006762
  77 L   -85.271   16.194  175.044   20.696    1.160   -4.789 S_00006762
  78 L   -99.999  122.013  179.137   22.109   -1.474   -2.442 S_00006762
  79 L   -80.205  113.880 -176.279   25.129   -0.403   -0.396 S_00006762
  80 L   -85.564  154.747   10.261   27.651   -3.247   -0.419 S_00006762
  81 L   -74.097  150.003  179.026   28.664   -5.448    0.944 S_00006762
  82 L  -129.032  167.486  175.446   25.146   -6.864    0.680 S_00006762
  83 L  -127.260  136.968 -179.345   23.385  -10.206    1.104 S_00006762
  84 L   -54.948  125.455  178.825   20.770  -11.740   -1.190 S_00006762
  85 L    98.076   -6.555 -175.240   17.303  -11.221    0.282 S_00006762
  86 E  -100.369  130.933 -179.895   18.488   -8.355    2.479 S_00006762
  87 E   -93.858  124.337  173.396   17.021   -4.860    2.177 S_00006762
  88 E  -104.981  132.867 -175.603   19.343   -1.877    2.553 S_00006762
  89 E   -93.907  135.561  178.752   17.808    1.524    3.274 S_00006762
  90 E  -121.261  165.695  174.651   18.996    4.683    1.524 S_00006762
  91 E  -109.186  136.627  175.130   18.275    8.405    1.789 S_00006762
  92 E  -149.081  159.018  174.066   17.011   10.532   -1.096 S_00006762
  93 E  -129.989  169.973  173.395   15.161   13.784   -1.757 S_00006762
  94 E  -100.022  116.759  176.789   13.171   15.371   -4.577 S_00006762
  95 E   -78.260  137.272 -179.365   14.996   18.188   -6.362 S_00006762
  96 E  -129.556  104.966  176.820   12.848   21.102   -7.522 S_00006762
  97 L   -72.893  162.038 -176.633   14.222   23.579  -10.057 S_00006762
  98 L   -67.163  -37.912 -174.713   12.829   27.106  -10.327 S_00006762
  99 L   -69.392  -19.199  174.892   11.498   26.616  -13.853 S_00006762
 100 L   -89.576  156.367 -177.656    9.342   23.763  -12.569 S_00006762
 101 L   -74.203  150.373  161.839    6.166   24.309  -10.551 S_00006762
 102 L   -81.869   56.661 -176.116    5.833   23.967   -6.802 S_00006762
 103 L  -138.555 -176.455  171.592    2.927   21.639   -7.569 S_00006762
 104 E   -65.621  125.020  176.812    1.991   18.023   -8.251 S_00006762
 105 E  -130.857  132.725  179.374    4.088   16.678  -11.123 S_00006762
 106 E   -90.575  131.502  176.192    3.891   13.239  -12.733 S_00006762
 107 E  -129.540  121.600 -177.326    7.114   11.439  -13.641 S_00006762
 108 E   -82.483  144.304  169.843    7.131    8.116  -15.486 S_00006762
 109 E  -128.750  128.361 -172.278    9.608    5.321  -14.811 S_00006762
 110 E   -91.349  133.386  166.917   10.038    2.477  -17.291 S_00006762
 111 E  -101.126  130.520 -174.539   10.448   -1.182  -16.392 S_00006762
 112 E  -117.031  134.364  175.557   12.253   -3.229  -19.037 S_00006762
 113 E   -87.966  115.014 -178.824   12.236   -6.992  -19.570 S_00006762
 114 L   -56.243  -27.832  174.091   15.768   -8.221  -20.260 S_00006762
 115 L   -88.297  100.849  177.354   14.109  -10.994  -22.259 S_00006762
 116 L    99.970  -17.673  178.104   12.925   -9.379  -25.491 S_00006762
 117 L    60.380   41.396  175.168   13.701   -5.858  -24.285 S_00006762
 118 E   -86.717  143.047 -172.205   10.025   -4.954  -23.945 S_00006762
 119 E  -109.468  142.968  176.796    9.193   -1.737  -22.105 S_00006762
 120 E  -117.285  132.869 -168.803    6.452   -0.998  -19.576 S_00006762
 121 E  -108.361  116.575 -174.592    5.093    2.521  -19.175 S_00006762
 122 E  -126.645  128.992 -178.799    4.035    3.728  -15.730 S_00006762
 123 E  -110.684  102.516 -174.114    2.827    7.196  -14.744 S_00006762
 124 E  -103.156  114.997 -177.314    3.231    7.802  -11.015 S_00006762
 125 E   -72.404  131.810  172.104    1.695   10.996   -9.639 S_00006762
 126 E  -117.466  122.398  176.036    3.739   12.980   -7.127 S_00006762
 127 E   -98.726  123.970 -178.043    2.071   15.654   -5.002 S_00006762
 128 E  -124.390  129.231  175.746    4.398   18.316   -3.603 S_00006762
 129 E  -125.642  116.636  172.852    3.536   21.149   -1.221 S_00006762
 130 E   -69.146  145.340 -179.958    6.064   23.788   -0.185 S_00006762
